0 0 1 0.913625 0.658929 0.666667 0.666667 0.875 0.555556 0.511111 0.666667 0.666667 0 0.555556 0.555556 0.511111 0.511111 0 0.666667 0.666667 0 1 
0 1 0.55985 0.643463 0.346732 0.333333 0.437501 0.125 0.611111 0.535555 0.666667 0 0.666667 0.666667 0.555556 0.56 0.511111 0.0342841 0.666667 0.208334 0.366667 0 
0 2 0.499973 0.565834 0.358805 0.333333 0.354167 0.25 0.611111 0.703174 0.666667 0 0.666667 0.666667 0.555556 0.895238 0.511111 0.269389 0.666667 0.041668 0.595242 1 
0 3 0.499973 0.456813 0.354771 0.333333 0.500001 0.25 0.777778 0.44127 0.666667 0 0.666667 1 0.555556 0.511111 0.371429 0.106668 0.666667 0.333335 0.238092 1 
0 4 0.623039 0.695737 0.526932 0.5 0.583333 0.25 0.5 0.480555 0.666667 0.333333 0.277783 0.555556 0.444444 0.511111 0.449999 0.0444482 0.666667 0.500001 0.104167 1 
0 5 0.915205 0.956807 0.677235 0.666667 0.833334 0.125 0.47619 0.355556 0.666667 0.666667 0 0.555556 0.396825 0.511111 0.2 0.266665 1 0.666667 0.185183 1 
0 6 0.689811 0.790906 0.514829 0.5 0.562501 0.125 0.555556 0.507169 0.666667 0.333333 0.277783 0.555556 0.555556 0.511111 0.503226 0.00555602 0.666667 0.458333 0.134408 1 
0 7 0.689811 0.564689 0.329479 0.333333 0.583333 0.25 0.444444 0.343055 0.666667 0 0.666667 0.555556 0.333333 0.511111 0.174999 0.293329 0.666667 0.500001 0.104167 1 
0 8 0.915205 0.671945 0.491765 0.5 0.708333 0.375 0.555556 0.350291 0.666667 0.333333 0.277783 0.555556 0.555556 0.511111 0.189473 0.277777 0.75 0.666667 0.0463 1 
0 9 0.760491 0.750349 0.508445 0.5 0.833334 0.125 0.555556 0.255554 0.666667 0.333333 0.277783 0.555556 0.555556 0.511111 0 0.511118 1 0.666667 0.185183 1 
0 10 1 0.874799 0.674495 0.666667 0.833334 0.125 0.396825 0.355556 0.666667 0.666667 0 0.555556 0.238095 0.511111 0.2 0.266665 1 0.666667 0.185183 1 
0 11 0.760491 0.669224 0.505194 0.5 0.625001 0.125 0.444444 0.432025 0.666667 0.333333 0.277783 0.555556 0.333333 0.511111 0.35294 0.12222 0.666667 0.583333 0.0490167 1 
0 12 0.835514 0.655335 0.486827 0.5 0.562501 0.5 0.444444 0.507169 0.666667 0.333333 0.277783 0.555556 0.333333 0.511111 0.503226 0.00555602 0.666667 0.458333 0.134408 0 
0 13 0.760491 0.745338 0.347364 0.333333 0.333335 0.25 0.277778 0.755556 0.666667 0 0.666667 0.555556 0 1 0.511111 0.342853 0.666667 0 0.666667 0 
0 14 0.499973 0.53196 0.3296 0.333333 0.645833 0.375 0.611111 0.284126 0.666667 0 0.666667 0.666667 0.555556 0.511111 0.0571429 0.433334 0.666667 0.625001 0.0238083 0 
0 15 0.915205 0.767782 0.504471 0.5 0.604167 0.25 0.388889 0.455554 0.666667 0.333333 0.277783 0.555556 0.222222 0.511111 0.4 0.0833283 0.666667 0.541667 0.0757583 0 
0 16 0.623039 0.536887 0.32972 0.333333 0.604167 0.25 0.694444 0.322221 0.666667 0 0.666667 0.833333 0.555556 0.511111 0.133333 0.339997 0.666667 0.541667 0.0757583 0 
0 17 0.760491 0.62547 0.658899 0.666667 0.75 0.375 0.674603 0.425555 0.666667 0.666667 0 0.793651 0.555556 0.511111 0.339999 0.133333 0.833334 0.666667 0.0925917 0 
0 18 1 0.846806 0.659561 0.666667 0.541667 0.375 0.555556 0.682223 0.666667 0.666667 0 0.555556 0.555556 0.853332 0.511111 0.240001 0.666667 0.416667 0.166667 0 
0 19 0.835514 0.825532 0.829464 0.833333 0.645833 0.375 0.545635 0.66127 1 0.666667 0.2381 0.555556 0.535714 0.811429 0.511111 0.210613 0.666667 0.625001 0.0238083 0 
1 1 0.1197 0.373301 0.0345347 0 0.208334 0.625 0.666667 0.56 0 0 0 0.666667 0.666667 0.56 0.56 0 0.208334 0.208334 0 1 
1 2 0.059823 0.295672 0.0466083 0 0.125 0.25 0.666667 0.727618 0 0 0 0.666667 0.666667 0.895238 0.56 0.228577 0.208334 0.041668 0.158733 0 
1 3 0.059823 0.186651 0.0425737 0 0.270834 0.25 0.833333 0.465714 0 0 0 1 0.666667 0.56 0.371429 0.144001 0.333335 0.208334 0.1 0 
1 4 0.182835 0.425575 0.214765 0.166667 0.354167 0.25 0.555556 0.505 0.333333 0 0.333333 0.666667 0.444444 0.56 0.449999 0.0800043 0.500001 0.208334 0.233333 0 
1 5 0.475001 0.686657 0.365038 0.333333 0.604167 0.375 0.531746 0.38 0.666667 0 0.666667 0.666667 0.396825 0.56 0.2 0.308569 1 0.208334 0.633333 0 
1 6 0.249661 0.520744 0.202662 0.166667 0.333335 0.25 0.611111 0.531613 0.333333 0 0.333333 0.666667 0.555556 0.56 0.503226 0.0399962 0.458333 0.208334 0.2 0 
1 7 0.249661 0.294527 0.0172824 0 0.354167 0 0.5 0.367499 0 0 0 0.666667 0.333333 0.56 0.174999 0.336001 0.500001 0.208334 0.233333 0 
1 8 0.475001 0.401783 0.179598 0.166667 0.479167 0.125 0.611111 0.374735 0.333333 0 0.333333 0.666667 0.555556 0.56 0.189473 0.320005 0.75 0.208334 0.433333 0 
1 9 0.320341 0.480187 0.196248 0.166667 0.604167 0 0.611111 0.279999 0.333333 0 0.333333 0.666667 0.555556 0.56 0 0.560006 1 0.208334 0.633333 0 
1 10 0.55985 0.604649 0.362298 0.333333 0.604167 0.25 0.452381 0.38 0.666667 0 0.666667 0.666667 0.238095 0.56 0.2 0.308569 1 0.208334 0.633333 0 
1 11 0.320341 0.399062 0.192997 0.166667 0.395835 0.125 0.5 0.45647 0.333333 0 0.333333 0.666667 0.333333 0.56 0.35294 0.159997 0.583333 0.208334 0.3 0 
1 12 0.395364 0.385173 0.17463 0.166667 0.333335 0 0.5 0.531613 0.333333 0 0.333333 0.666667 0.333333 0.56 0.503226 0.0399962 0.458333 0.208334 0.2 1 
1 13 0.320341 0.475176 0.035167 0 0.104168 0.125 0.333333 0.78 0 0 0 0.666667 0 1 0.56 0.300001 0.208334 0 0.208333 1 
1 14 0.059823 0.261798 0.0174028 0 0.416667 0 0.666667 0.30857 0 0 0 0.666667 0.666667 0.56 0.0571429 0.480002 0.625001 0.208334 0.333333 1 
1 15 0.475001 0.49762 0.192274 0.166667 0.375001 0.25 0.444444 0.479999 0.333333 0 0.333333 0.666667 0.222222 0.56 0.4 0.12 0.541667 0.208334 0.266667 1 
1 16 0.182835 0.266726 0.0175233 0 0.375001 0.125 0.75 0.346665 0 0 0 0.833333 0.666667 0.56 0.133333 0.384002 0.541667 0.208334 0.266667 1 
1 17 0.320341 0.355308 0.346702 0.333333 0.520833 0.25 0.730159 0.449999 0.666667 0 0.666667 0.793651 0.666667 0.56 0.339999 0.171433 0.833334 0.208334 0.5 1 
1 18 0.55985 0.576645 0.347364 0.333333 0.312501 0.125 0.611111 0.706667 0.666667 0 0.666667 0.666667 0.555556 0.853332 0.56 0.200005 0.416667 0.208334 0.166667 1 
1 19 0.395364 0.55537 0.517267 0.5 0.416667 0.25 0.60119 0.685714 1 0 1 0.666667 0.535714 0.811429 0.56 0.171433 0.625001 0.208334 0.333333 1 
2 2 0 0.218043 0.0586818 0 0.041668 0.625 0.666667 0.895238 0 0 0 0.666667 0.666667 0.895238 0.895238 0 0.041668 0.041668 0 1 
2 3 0 0.109022 0.0546473 0 0.1875 0.375 0.833333 0.633332 0 0 0 1 0.666667 0.895238 0.371429 0.399998 0.333335 0.041668 0.277775 1 
2 4 0.123012 0.347946 0.226809 0.166667 0.270834 0.25 0.555556 0.672618 0.333333 0 0.333333 0.666667 0.444444 0.895238 0.449999 0.323809 0.500001 0.041668 0.436508 1 
2 5 0.415178 0.609016 0.377111 0.333333 0.520833 0.125 0.531746 0.547618 0.666667 0 0.666667 0.666667 0.396825 0.895238 0.2 0.595922 1 0.041668 0.9127 1 
2 6 0.189783 0.443115 0.214735 0.166667 0.25 0.375 0.611111 0.699231 0.333333 0 0.333333 0.666667 0.555556 0.895238 0.503226 0.276193 0.458333 0.041668 0.396825 1 
2 7 0.189783 0.216898 0.029356 0 0.270834 0 0.5 0.535118 0 0 0 0.666667 0.333333 0.895238 0.174999 0.628575 0.500001 0.041668 0.436508 1 
2 8 0.415178 0.324142 0.191672 0.166667 0.395835 0.125 0.611111 0.542356 0.333333 0 0.333333 0.666667 0.555556 0.895238 0.189473 0.60953 0.75 0.041668 0.6746 1 
2 9 0.260518 0.402558 0.208322 0.166667 0.520833 0 0.611111 0.447619 0.333333 0 0.333333 0.666667 0.555556 0.895238 0 0.89524 1 0.041668 0.9127 1 
2 10 0.499973 0.527008 0.374371 0.333333 0.520833 0.375 0.452381 0.547618 0.666667 0 0.666667 0.666667 0.238095 0.895238 0.2 0.595922 1 0.041668 0.9127 1 
2 11 0.260518 0.321433 0.20507 0.166667 0.312501 0.125 0.5 0.62409 0.333333 0 0.333333 0.666667 0.333333 0.895238 0.35294 0.419054 0.583333 0.041668 0.515875 1 
2 12 0.335487 0.307545 0.186704 0.166667 0.25 0.125 0.5 0.699231 0.333333 0 0.333333 0.666667 0.333333 0.895238 0.503226 0.276193 0.458333 0.041668 0.396825 0 
2 13 0.260518 0.397547 0.0472405 0 0.020834 0 0.333333 0.947618 0 0 0 0.666667 0 1 0.895238 0.0600002 0.041668 0 0.0416667 0 
2 14 0 0.184169 0.0294764 0 0.333335 0 0.666667 0.47619 0 0 0 0.666667 0.666667 0.895238 0.0571429 0.800007 0.625001 0.041668 0.555558 0 
2 15 0.415178 0.419991 0.204348 0.166667 0.291667 0.25 0.444444 0.647619 0.333333 0 0.333333 0.666667 0.222222 0.895238 0.4 0.371425 0.541667 0.041668 0.476192 0 
2 16 0.123012 0.189097 0.0295968 0 0.291667 0.125 0.75 0.514286 0 0 0 0.833333 0.666667 0.895238 0.133333 0.685719 0.541667 0.041668 0.476192 0 
2 17 0.260518 0.277679 0.358775 0.333333 0.437501 0 0.730159 0.617618 0.666667 0 0.666667 0.793651 0.666667 0.895238 0.339999 0.43265 0.833334 0.041668 0.753967 0 
2 18 0.499973 0.499016 0.359438 0.333333 0.229166 0.125 0.611111 0.874285 0.666667 0 0.666667 0.666667 0.555556 0.895238 0.853332 0.0244921 0.416667 0.041668 0.357142 0 
2 19 0.335487 0.477741 0.529341 0.5 0.333335 0 0.60119 0.853332 1 0 1 0.666667 0.535714 0.895238 0.811429 0.0500042 0.625001 0.041668 0.555558 0 
3 3 0 0 0.0506127 0 0.333335 0.625 1 0.371429 0 0 0 1 1 0.371429 0.371429 0 0.333335 0.333335 0 1 
3 4 0.123012 0.238924 0.222774 0.166667 0.416667 0.375 0.722222 0.410714 0.333333 0 0.333333 1 0.444444 0.449999 0.371429 0.0600002 0.500001 0.333335 0.11905 1 
3 5 0.415178 0.500006 0.373077 0.333333 0.666667 0.25 0.698413 0.285714 0.666667 0 0.666667 1 0.396825 0.371429 0.2 0.146941 1 0.333335 0.476192 1 
3 6 0.189783 0.334105 0.210671 0.166667 0.395835 0.25 0.777778 0.437327 0.333333 0 0.333333 1 0.555556 0.503226 0.371429 0.100644 0.458333 0.333335 0.0892833 1 
3 7 0.189783 0.107876 0.0253214 0 0.416667 0.125 0.666667 0.273214 0 0 0 1 0.333333 0.371429 0.174999 0.171433 0.500001 0.333335 0.11905 1 
3 8 0.415178 0.215132 0.187607 0.166667 0.541667 0.25 0.777778 0.28045 0.333333 0 0.333333 1 0.555556 0.371429 0.189473 0.157141 0.75 0.333335 0.297617 1 
3 9 0.260518 0.293536 0.204287 0.166667 0.666667 0.125 0.777778 0.185713 0.333333 0 0.333333 1 0.555556 0.371429 0 0.371425 1 0.333335 0.476192 1 
3 10 0.499973 0.417998 0.370307 0.333333 0.666667 0.25 0.619048 0.285714 0.666667 0 0.666667 1 0.238095 0.371429 0.2 0.146941 1 0.333335 0.476192 1 
3 11 0.260518 0.212412 0.201036 0.166667 0.458333 0 0.666667 0.362184 0.333333 0 0.333333 1 0.333333 0.371429 0.35294 0.0142801 0.583333 0.333335 0.178575 1 
3 12 0.335487 0.198523 0.182639 0.166667 0.395835 0.125 0.666667 0.437327 0.333333 0 0.333333 1 0.333333 0.503226 0.371429 0.100644 0.458333 0.333335 0.0892833 0 
3 13 0.260518 0.288525 0.0431759 0 0.166668 0.125 0.5 0.685714 0 0 0 1 0 1 0.371429 0.480002 0.333335 0 0.333333 0 
3 14 0 0.075159 0.0254418 0 0.479167 0 0.833333 0.214285 0 0 0 1 0.666667 0.371429 0.0571429 0.300001 0.625001 0.333335 0.208333 0 
3 15 0.415178 0.310969 0.200313 0.166667 0.437501 0.125 0.611111 0.385713 0.333333 0 0.333333 1 0.222222 0.4 0.371429 0.0218161 0.541667 0.333335 0.148808 0 
3 16 0.123012 0.0800749 0.0255623 0 0.437501 0 0.916667 0.25238 0 0 0 1 0.833333 0.371429 0.133333 0.214285 0.541667 0.333335 0.148808 0 
3 17 0.260518 0.168657 0.354741 0.333333 0.583333 0 0.896825 0.355714 0.666667 0 0.666667 1 0.793651 0.371429 0.339999 0.0244921 0.833334 0.333335 0.357142 0 
3 18 0.499973 0.389994 0.355373 0.333333 0.375001 0.125 0.777778 0.612382 0.666667 0 0.666667 1 0.555556 0.853332 0.371429 0.368005 0.416667 0.333335 0.059525 0 
3 19 0.335487 0.368719 0.525306 0.5 0.479167 0 0.767857 0.591429 1 0 1 1 0.535714 0.811429 0.371429 0.336001 0.625001 0.333335 0.208333 0 
4 4 0.246024 0.477848 0.394966 0.333333 0.500001 0.75 0.444444 0.449999 0.333333 0.333333 0 0.444444 0.444444 0.449999 0.449999 0 0.500001 0.500001 0 1 
4 5 0.53819 0.738918 0.545238 0.5 0.75 0.5 0.420635 0.325 0.666667 0.333333 0.277783 0.444444 0.396825 0.449999 0.2 0.214285 1 0.500001 0.3125 1 
4 6 0.312795 0.573017 0.382862 0.333333 0.479167 0.125 0.5 0.476613 0.333333 0.333333 0 0.555556 0.444444 0.503226 0.449999 0.0387122 0.500001 0.458333 0.0268833 1 
4 7 0.312795 0.3468 0.197483 0.166667 0.500001 0.375 0.388889 0.312499 0.333333 0 0.333333 0.444444 0.333333 0.449999 0.174999 0.240001 0.500001 0.500001 0 1 
4 8 0.53819 0.454044 0.359799 0.333333 0.625001 0.125 0.5 0.319735 0.333333 0.333333 0 0.555556 0.444444 0.449999 0.189473 0.225001 0.75 0.500001 0.15625 1 
4 9 0.38353 0.532449 0.376449 0.333333 0.75 0.25 0.5 0.224999 0.333333 0.333333 0 0.555556 0.444444 0.449999 0 0.450002 1 0.500001 0.3125 1 
4 10 0.623039 0.65691 0.542498 0.5 0.75 0 0.34127 0.325 0.666667 0.333333 0.277783 0.444444 0.238095 0.449999 0.2 0.214285 1 0.500001 0.3125 1 
4 11 0.38353 0.451336 0.373227 0.333333 0.541667 0 0.388889 0.40147 0.333333 0.333333 0 0.444444 0.333333 0.449999 0.35294 0.0750003 0.583333 0.500001 0.0520833 1 
4 12 0.458498 0.437435 0.354831 0.333333 0.479167 0.25 0.388889 0.476613 0.333333 0.333333 0 0.444444 0.333333 0.503226 0.449999 0.0387122 0.500001 0.458333 0.0268833 0 
4 13 0.38353 0.527449 0.215367 0.166667 0.25 0.375 0.222222 0.725 0.333333 0 0.333333 0.444444 0 1 0.449999 0.399998 0.500001 0 0.5 0 
4 14 0.123012 0.314071 0.197603 0.166667 0.562501 0 0.555556 0.25357 0.333333 0 0.333333 0.666667 0.444444 0.449999 0.0571429 0.375002 0.625001 0.500001 0.078125 0 
4 15 0.53819 0.549893 0.372475 0.333333 0.520833 0 0.333333 0.424999 0.333333 0.333333 0 0.444444 0.222222 0.449999 0.4 0.0375002 0.541667 0.500001 0.0260417 0 
4 16 0.246024 0.318999 0.197724 0.166667 0.520833 0 0.638889 0.291665 0.333333 0 0.333333 0.833333 0.444444 0.449999 0.133333 0.285001 0.541667 0.500001 0.0260417 0 
4 17 0.38353 0.407582 0.526902 0.5 0.666667 0.125 0.619048 0.394999 0.666667 0.333333 0.277783 0.793651 0.444444 0.449999 0.339999 0.0857163 0.833334 0.500001 0.208333 0 
4 18 0.623039 0.628918 0.527565 0.5 0.458333 0.25 0.5 0.651667 0.666667 0.333333 0.277783 0.555556 0.444444 0.853332 0.449999 0.293329 0.500001 0.416667 0.0555583 0 
4 19 0.458498 0.607644 0.697468 0.666667 0.562501 0 0.490079 0.630714 1 0.333333 0.55555 0.535714 0.444444 0.811429 0.449999 0.262861 0.625001 0.500001 0.078125 0 
5 5 0.830357 1 0.695511 0.666667 1 0.875 0.396825 0.2 0.666667 0.666667 0 0.396825 0.396825 0.2 0.2 0 1 1 0 1 
5 6 0.604962 0.834099 0.533135 0.5 0.729167 0.25 0.47619 0.351613 0.666667 0.333333 0.277783 0.555556 0.396825 0.503226 0.2 0.259909 1 0.458333 0.349458 1 
5 7 0.604962 0.60787 0.347755 0.333333 0.75 0.25 0.365079 0.1875 0.666667 0 0.666667 0.396825 0.333333 0.2 0.174999 0.0218161 1 0.500001 0.3125 1 
5 8 0.830357 0.715126 0.510071 0.5 0.875 0.125 0.47619 0.194735 0.666667 0.333333 0.277783 0.555556 0.396825 0.2 0.189473 0.00909604 1 0.75 0.131575 1 
5 9 0.675696 0.793531 0.526721 0.5 1 0.375 0.47619 0.0999989 0.666667 0.333333 0.277783 0.555556 0.396825 0.2 0 0.200005 1 1 0 1 
5 10 0.915205 0.917992 0.692771 0.666667 1 0.25 0.31746 0.2 0.666667 0.666667 0 0.396825 0.238095 0.2 0.2 0 1 1 0 1 
5 11 0.675696 0.712406 0.5235 0.5 0.791668 0.25 0.365079 0.27647 0.666667 0.333333 0.277783 0.396825 0.333333 0.35294 0.2 0.131089 1 0.583333 0.2451 1 
5 12 0.750665 0.698517 0.505103 0.5 0.729167 0.125 0.365079 0.351613 0.666667 0.333333 0.277783 0.396825 0.333333 0.503226 0.2 0.259909 1 0.458333 0.349458 0 
5 13 0.675696 0.788531 0.36564 0.333333 0.500001 0.25 0.198413 0.6 0.666667 0 0.666667 0.396825 0 1 0.2 0.685719 1 0 1 0 
5 14 0.415178 0.575153 0.347876 0.333333 0.8125 0 0.531746 0.12857 0.666667 0 0.666667 0.666667 0.396825 0.2 0.0571429 0.136369 1 0.625001 0.214283 0 
5 15 0.830357 0.810963 0.522777 0.5 0.770834 0.125 0.309524 0.299999 0.666667 0.333333 0.277783 0.396825 0.222222 0.4 0.2 0.171433 1 0.541667 0.277775 0 
5 16 0.53819 0.580081 0.348026 0.333333 0.770834 0.125 0.615079 0.166666 0.666667 0 0.666667 0.833333 0.396825 0.2 0.133333 0.0600002 1 0.541667 0.277775 0 
5 17 0.675696 0.668663 0.677205 0.666667 0.916666 0.25 0.595238 0.27 0.666667 0.666667 0 0.793651 0.396825 0.339999 0.2 0.12 1 0.833334 0.0833333 0 
5 18 0.915205 0.89 0.677837 0.666667 0.708333 0.25 0.47619 0.526665 0.666667 0.666667 0 0.555556 0.396825 0.853332 0.2 0.560006 1 0.416667 0.388892 0 
5 19 0.750665 0.868713 0.84777 0.833333 0.8125 0.375 0.46627 0.505715 1 0.666667 0.2381 0.535714 0.396825 0.811429 0.2 0.524078 1 0.625001 0.214283 0 
6 6 0.379567 0.668198 0.370758 0.333333 0.458333 0.75 0.555556 0.503226 0.333333 0.333333 0 0.555556 0.555556 0.503226 0.503226 0 0.458333 0.458333 0 1 
6 7 0.379567 0.441969 0.185379 0.166667 0.479167 0.125 0.444444 0.339113 0.333333 0 0.333333 0.555556 0.333333 0.503226 0.174999 0.286453 0.500001 0.458333 0.0268833 1 
6 8 0.604962 0.549225 0.347695 0.333333 0.604167 0.25 0.555556 0.346349 0.333333 0.333333 0 0.555556 0.555556 0.503226 0.189473 0.270973 0.75 0.458333 0.188175 1 
6 9 0.450301 0.627629 0.364345 0.333333 0.729167 0.25 0.555556 0.251612 0.333333 0.333333 0 0.555556 0.555556 0.503226 0 0.503222 1 0.458333 0.349458 1 
6 10 0.689811 0.752091 0.530395 0.5 0.729167 0.5 0.396825 0.351613 0.666667 0.333333 0.277783 0.555556 0.238095 0.503226 0.2 0.259909 1 0.458333 0.349458 1 
6 11 0.450301 0.546505 0.361124 0.333333 0.520833 0.25 0.444444 0.428083 0.333333 0.333333 0 0.555556 0.333333 0.503226 0.35294 0.116124 0.583333 0.458333 0.0806417 1 
6 12 0.52527 0.532616 0.342727 0.333333 0.458333 0.125 0.444444 0.503226 0.333333 0.333333 0 0.555556 0.333333 0.503226 0.503226 0 0.458333 0.458333 0 0 
6 13 0.450301 0.622618 0.203264 0.166667 0.229166 0 0.277778 0.751613 0.333333 0 0.333333 0.555556 0 1 0.503226 0.350005 0.458333 0 0.458333 0 
6 14 0.189783 0.409252 0.1855 0.166667 0.541667 0.125 0.611111 0.280183 0.333333 0 0.333333 0.666667 0.555556 0.503226 0.0571429 0.42581 0.625001 0.458333 0.107525 0 
6 15 0.604962 0.645062 0.360401 0.333333 0.500001 0.25 0.388889 0.451612 0.333333 0.333333 0 0.555556 0.222222 0.503226 0.4 0.0774243 0.541667 0.458333 0.0537667 0 
6 16 0.312795 0.41418 0.18562 0.166667 0.500001 0 0.694444 0.318279 0.333333 0 0.333333 0.833333 0.555556 0.503226 0.133333 0.332905 0.541667 0.458333 0.0537667 0 
6 17 0.450301 0.502762 0.514798 0.5 0.645833 0 0.674603 0.421613 0.666667 0.333333 0.277783 0.793651 0.555556 0.503226 0.339999 0.127189 0.833334 0.458333 0.241933 0 
6 18 0.689811 0.724099 0.515461 0.5 0.437501 0.125 0.555556 0.678278 0.666667 0.333333 0.277783 0.555556 0.555556 0.853332 0.503226 0.246673 0.458333 0.416667 0.027775 0 
6 19 0.52527 0.702812 0.685364 0.666667 0.541667 0.25 0.545635 0.657328 1 0.333333 0.55555 0.555556 0.535714 0.811429 0.503226 0.217141 0.625001 0.458333 0.107525 0 
7 7 0.379567 0.215752 0 0 0.500001 0.625 0.333333 0.174999 0 0 0 0.333333 0.333333 0.174999 0.174999 0 0.500001 0.500001 0 1 
7 8 0.604962 0.322996 0.162316 0.166667 0.625001 0.375 0.444444 0.182235 0.333333 0 0.333333 0.555556 0.333333 0.189473 0.174999 0.0126361 0.75 0.500001 0.15625 1 
7 9 0.450301 0.401401 0.178966 0.166667 0.75 0.25 0.444444 0.0874985 0.333333 0 0.333333 0.555556 0.333333 0.174999 0 0.174997 1 0.500001 0.3125 1 
7 10 0.689811 0.525862 0.345016 0.333333 0.75 0.125 0.285714 0.1875 0.666667 0 0.666667 0.333333 0.238095 0.2 0.174999 0.0218161 1 0.500001 0.3125 1 
7 11 0.450301 0.320288 0.175744 0.166667 0.541667 0.125 0.333333 0.263969 0.333333 0 0.333333 0.333333 0.333333 0.35294 0.174999 0.155293 0.583333 0.500001 0.0520833 1 
7 12 0.52527 0.306387 0.157348 0.166667 0.479167 0.375 0.333333 0.339113 0.333333 0 0.333333 0.333333 0.333333 0.503226 0.174999 0.286453 0.500001 0.458333 0.0268833 0 
7 13 0.450301 0.396401 0.0178846 0 0.25 0.25 0.166667 0.5875 0 0 0 0.333333 0 1 0.174999 0.720003 0.500001 0 0.5 0 
7 14 0.189783 0.183023 0.000120435 0 0.562501 0.25 0.5 0.11607 0 0 0 0.666667 0.333333 0.174999 0.0571429 0.1125 0.625001 0.500001 0.078125 0 
7 15 0.604962 0.418845 0.175022 0.166667 0.520833 0 0.277778 0.287498 0.333333 0 0.333333 0.333333 0.222222 0.4 0.174999 0.196369 0.541667 0.500001 0.0260417 0 
7 16 0.312795 0.187951 0.00024087 0 0.520833 0.125 0.583333 0.154165 0 0 0 0.833333 0.333333 0.174999 0.133333 0.0375002 0.541667 0.500001 0.0260417 0 
7 17 0.450301 0.276534 0.329449 0.333333 0.666667 0.25 0.563492 0.257499 0.666667 0 0.666667 0.793651 0.333333 0.339999 0.174999 0.144001 0.833334 0.500001 0.208333 0 
7 18 0.689811 0.49787 0.330082 0.333333 0.458333 0.25 0.444444 0.514167 0.666667 0 0.666667 0.555556 0.333333 0.853332 0.174999 0.591998 0.500001 0.416667 0.0555583 0 
7 19 0.52527 0.476584 0.500015 0.5 0.562501 0 0.434524 0.493214 1 0 1 0.535714 0.333333 0.811429 0.174999 0.555434 0.625001 0.500001 0.078125 0 
8 8 0.830357 0.430252 0.324632 0.333333 0.75 0.75 0.555556 0.189473 0.333333 0.333333 0 0.555556 0.555556 0.189473 0.189473 0 0.75 0.75 0 1 
8 9 0.675696 0.508657 0.341282 0.333333 0.875 0.25 0.555556 0.0947365 0.333333 0.333333 0 0.555556 0.555556 0.189473 0 0.189469 1 0.75 0.131575 1 
8 10 0.915205 0.633118 0.507331 0.5 0.875 0.25 0.396825 0.194735 0.666667 0.333333 0.277783 0.555556 0.238095 0.2 0.189473 0.00909604 1 0.75 0.131575 1 
8 11 0.675696 0.427544 0.33806 0.333333 0.666667 0.25 0.444444 0.271207 0.333333 0.333333 0 0.555556 0.333333 0.35294 0.189473 0.141181 0.75 0.583333 0.0980417 1 
8 12 0.750665 0.413643 0.319664 0.333333 0.604167 0.375 0.444444 0.346349 0.333333 0.333333 0 0.555556 0.333333 0.503226 0.189473 0.270973 0.75 0.458333 0.188175 0 
8 13 0.675696 0.503657 0.180201 0.166667 0.375001 0.125 0.277778 0.594735 0.333333 0 0.333333 0.555556 0 1 0.189473 0.699999 0.75 0 0.75 0 
8 14 0.415178 0.290279 0.162436 0.166667 0.687499 0.375 0.611111 0.123308 0.333333 0 0.333333 0.666667 0.555556 0.189473 0.0571429 0.126313 0.75 0.625001 0.071425 0 
8 15 0.830357 0.526101 0.337338 0.333333 0.645833 0.125 0.388889 0.294736 0.333333 0.333333 0 0.555556 0.222222 0.4 0.189473 0.181825 0.75 0.541667 0.126267 0 
8 16 0.53819 0.295207 0.162557 0.166667 0.645833 0.125 0.694444 0.161403 0.333333 0 0.333333 0.833333 0.555556 0.189473 0.133333 0.0505322 0.75 0.541667 0.126267 0 
8 17 0.675696 0.383789 0.491735 0.5 0.791668 0.25 0.674603 0.264735 0.666667 0.333333 0.277783 0.793651 0.555556 0.339999 0.189473 0.129997 0.833334 0.75 0.0438583 0 
8 18 0.915205 0.605126 0.492398 0.5 0.583333 0.25 0.555556 0.521403 0.666667 0.333333 0.277783 0.555556 0.555556 0.853332 0.189473 0.573338 0.75 0.416667 0.222225 0 
8 19 0.750665 0.583839 0.662301 0.666667 0.687499 0.125 0.545635 0.50045 1 0.333333 0.55555 0.555556 0.535714 0.811429 0.189473 0.537146 0.75 0.625001 0.071425 0 
9 9 0.520981 0.587061 0.357932 0.333333 1 0.75 0.555556 0 0.333333 0.333333 0 0.555556 0.555556 0 0 0 1 1 0 1 
9 10 0.760491 0.711523 0.523982 0.5 1 0.125 0.396825 0.0999989 0.666667 0.333333 0.277783 0.555556 0.238095 0.2 0 0.200005 1 1 0 1 
9 11 0.520981 0.505948 0.354711 0.333333 0.791668 0.25 0.444444 0.176469 0.333333 0.333333 0 0.555556 0.333333 0.35294 0 0.352945 1 0.583333 0.2451 1 
9 12 0.596005 0.492047 0.336314 0.333333 0.729167 0.25 0.444444 0.251612 0.333333 0.333333 0 0.555556 0.333333 0.503226 0 0.503222 1 0.458333 0.349458 0 
9 13 0.520981 0.582062 0.196851 0.166667 0.500001 0.25 0.277778 0.499999 0.333333 0 0.333333 0.555556 0 1 0 1 1 0 1 0 
9 14 0.260518 0.368684 0.179087 0.166667 0.8125 0.125 0.611111 0.0285714 0.333333 0 0.333333 0.666667 0.555556 0.0571429 0 0.0571442 1 0.625001 0.214283 0 
9 15 0.675696 0.604505 0.353988 0.333333 0.770834 0.125 0.388889 0.2 0.333333 0.333333 0 0.555556 0.222222 0.4 0 0.399998 1 0.541667 0.277775 0 
9 16 0.38353 0.373611 0.179237 0.166667 0.770834 0.125 0.694444 0.0666667 0.333333 0 0.333333 0.833333 0.555556 0.133333 0 0.133333 1 0.541667 0.277775 0 
9 17 0.520981 0.462194 0.508415 0.5 0.916666 0.125 0.674603 0.169999 0.666667 0.333333 0.277783 0.793651 0.555556 0.339999 0 0.339997 1 0.833334 0.0833333 0 
9 18 0.760491 0.68353 0.509048 0.5 0.708333 0.25 0.555556 0.426666 0.666667 0.333333 0.277783 0.555556 0.555556 0.853332 0 0.853335 1 0.416667 0.388892 0 
9 19 0.596005 0.662244 0.678981 0.666667 0.8125 0.375 0.545635 0.405713 1 0.333333 0.55555 0.555556 0.535714 0.811429 0 0.811431 1 0.625001 0.214283 0 
10 10 1 0.835984 0.690031 0.666667 1 0.875 0.238095 0.2 0.666667 0.666667 0 0.238095 0.238095 0.2 0.2 0 1 1 0 1 
10 11 0.760491 0.630398 0.52076 0.5 0.791668 0.375 0.285714 0.27647 0.666667 0.333333 0.277783 0.333333 0.238095 0.35294 0.2 0.131089 1 0.583333 0.2451 1 
10 12 0.835514 0.616509 0.502364 0.5 0.729167 0.125 0.285714 0.351613 0.666667 0.333333 0.277783 0.333333 0.238095 0.503226 0.2 0.259909 1 0.458333 0.349458 0 
10 13 0.760491 0.706523 0.3629 0.333333 0.500001 0 0.119048 0.6 0.666667 0 0.666667 0.238095 0 1 0.2 0.685719 1 0 1 0 
10 14 0.499973 0.493145 0.345136 0.333333 0.8125 0.125 0.452381 0.12857 0.666667 0 0.666667 0.666667 0.238095 0.2 0.0571429 0.136369 1 0.625001 0.214283 0 
10 15 0.915205 0.728955 0.520037 0.5 0.770834 0.5 0.230159 0.299999 0.666667 0.333333 0.277783 0.238095 0.222222 0.4 0.2 0.171433 1 0.541667 0.277775 0 
10 16 0.623039 0.498073 0.345256 0.333333 0.770834 0.25 0.535714 0.166666 0.666667 0 0.666667 0.833333 0.238095 0.2 0.133333 0.0600002 1 0.541667 0.277775 0 
10 17 0.760491 0.586655 0.674435 0.666667 0.916666 0.25 0.515873 0.27 0.666667 0.666667 0 0.793651 0.238095 0.339999 0.2 0.12 1 0.833334 0.0833333 0 
10 18 1 0.807992 0.675097 0.666667 0.708333 0.125 0.396825 0.526665 0.666667 0.666667 0 0.555556 0.238095 0.853332 0.2 0.560006 1 0.416667 0.388892 0 
10 19 0.835514 0.786705 0.845031 0.833333 0.8125 0.375 0.386905 0.505715 1 0.666667 0.2381 0.535714 0.238095 0.811429 0.2 0.524078 1 0.625001 0.214283 0 
11 11 0.520981 0.424823 0.351489 0.333333 0.583333 0.75 0.333333 0.35294 0.333333 0.333333 0 0.333333 0.333333 0.35294 0.35294 0 0.583333 0.583333 0 1 
11 12 0.596005 0.410934 0.333092 0.333333 0.520833 0 0.333333 0.428083 0.333333 0.333333 0 0.333333 0.333333 0.503226 0.35294 0.116124 0.583333 0.458333 0.0806417 0 
11 13 0.520981 0.500937 0.193629 0.166667 0.291667 0 0.166667 0.67647 0.333333 0 0.333333 0.333333 0 1 0.35294 0.500006 0.583333 0 0.583333 0 
11 14 0.260518 0.287559 0.175865 0.166667 0.604167 0.125 0.5 0.20504 0.333333 0 0.333333 0.666667 0.333333 0.35294 0.0571429 0.282349 0.625001 0.583333 0.0245083 0 
11 15 0.675696 0.523381 0.350736 0.333333 0.562501 0.375 0.277778 0.376471 0.333333 0.333333 0 0.333333 0.222222 0.4 0.35294 0.0363601 0.583333 0.541667 0.02525 0 
11 16 0.38353 0.292486 0.175985 0.166667 0.562501 0.25 0.583333 0.243135 0.333333 0 0.333333 0.833333 0.333333 0.35294 0.133333 0.197653 0.583333 0.541667 0.02525 0 
11 17 0.520981 0.381069 0.505164 0.5 0.708333 0.375 0.563492 0.34647 0.666667 0.333333 0.277783 0.793651 0.333333 0.35294 0.339999 0.01008 0.833334 0.583333 0.147058 0 
11 18 0.760491 0.602405 0.505826 0.5 0.500001 0.125 0.444444 0.603137 0.666667 0.333333 0.277783 0.555556 0.333333 0.853332 0.35294 0.386666 0.583333 0.416667 0.111108 0 
11 19 0.596005 0.581131 0.675729 0.666667 0.604167 0.5 0.434524 0.582184 1 0.333333 0.55555 0.535714 0.333333 0.811429 0.35294 0.354289 0.625001 0.583333 0.0245083 0 
12 12 0.670973 0.397034 0.314696 0.333333 0.458333 0.75 0.333333 0.503226 0.333333 0.333333 0 0.333333 0.333333 0.503226 0.503226 0 0.458333 0.458333 0 1 
12 13 0.596005 0.487048 0.175233 0.166667 0.229166 0.375 0.166667 0.751613 0.333333 0 0.333333 0.333333 0 1 0.503226 0.350005 0.458333 0 0.458333 1 
12 14 0.335487 0.27367 0.157468 0.166667 0.541667 0.375 0.5 0.280183 0.333333 0 0.333333 0.666667 0.333333 0.503226 0.0571429 0.42581 0.625001 0.458333 0.107525 1 
12 15 0.750665 0.509492 0.33237 0.333333 0.500001 0.125 0.277778 0.451612 0.333333 0.333333 0 0.333333 0.222222 0.503226 0.4 0.0774243 0.541667 0.458333 0.0537667 1 
12 16 0.458498 0.278598 0.157589 0.166667 0.500001 0.25 0.583333 0.318279 0.333333 0 0.333333 0.833333 0.333333 0.503226 0.133333 0.332905 0.541667 0.458333 0.0537667 1 
12 17 0.596005 0.36718 0.486767 0.5 0.645833 0.25 0.563492 0.421613 0.666667 0.333333 0.277783 0.793651 0.333333 0.503226 0.339999 0.127189 0.833334 0.458333 0.241933 1 
12 18 0.835514 0.588517 0.48743 0.5 0.437501 0.5 0.444444 0.678278 0.666667 0.333333 0.277783 0.555556 0.333333 0.853332 0.503226 0.246673 0.458333 0.416667 0.027775 1 
12 19 0.670973 0.56723 0.657363 0.666667 0.541667 0.125 0.434524 0.657328 1 0.333333 0.55555 0.535714 0.333333 0.811429 0.503226 0.217141 0.625001 0.458333 0.107525 1 
13 13 0.520981 0.57705 0.0357691 0 0 0.625 0 1 0 0 0 0 0 1 1 0 0 0 0 1 
13 14 0.260518 0.363684 0.018005 0 0.312501 0.25 0.333333 0.52857 0 0 0 0.666667 0 1 0.0571429 0.900004 0.625001 0 0.625 1 
13 15 0.675696 0.599494 0.192906 0.166667 0.270834 0 0.111111 0.699999 0.333333 0 0.333333 0.222222 0 1 0.4 0.450002 0.541667 0 0.541667 1 
13 16 0.38353 0.3686 0.0181254 0 0.270834 0 0.416667 0.566666 0 0 0 0.833333 0 1 0.133333 0.780003 0.541667 0 0.541667 1 
13 17 0.520981 0.457182 0.347304 0.333333 0.416667 0.25 0.396825 0.67 0.666667 0 0.666667 0.793651 0 1 0.339999 0.514286 0.833334 0 0.833333 1 
13 18 0.760491 0.678519 0.347966 0.333333 0.208334 0.25 0.277778 0.926667 0.666667 0 0.666667 0.555556 0 1 0.853332 0.0857163 0.416667 0 0.416667 1 
13 19 0.596005 0.657244 0.5179 0.5 0.312501 0.125 0.267857 0.905715 1 0 1 0.535714 0 1 0.811429 0.1125 0.625001 0 0.625 1 
14 14 0 0.150306 0.00024087 0 0.625001 0.625 0.666667 0.0571429 0 0 0 0.666667 0.666667 0.0571429 0.0571429 0 0.625001 0.625001 0 1 
14 15 0.415178 0.386116 0.175142 0.166667 0.583333 0.125 0.444444 0.228571 0.333333 0 0.333333 0.666667 0.222222 0.4 0.0571429 0.327277 0.625001 0.541667 0.0505083 1 
14 16 0.123012 0.155234 0.000391413 0 0.583333 0.25 0.75 0.0952381 0 0 0 0.833333 0.666667 0.133333 0.0571429 0.0727323 0.625001 0.541667 0.0505083 1 
14 17 0.260518 0.243816 0.32957 0.333333 0.729167 0.25 0.730159 0.19857 0.666667 0 0.666667 0.793651 0.666667 0.339999 0.0571429 0.270001 0.833334 0.625001 0.11905 1 
14 18 0.499973 0.465153 0.330202 0.333333 0.520833 0.375 0.611111 0.455238 0.666667 0 0.666667 0.666667 0.555556 0.853332 0.0571429 0.759999 0.625001 0.416667 0.138892 1 
14 19 0.335487 0.443866 0.500135 0.5 0.625001 0.25 0.60119 0.434285 1 0 1 0.666667 0.535714 0.811429 0.0571429 0.720003 0.625001 0.625001 0 1 
15 15 0.830357 0.621938 0.350014 0.333333 0.541667 0.75 0.222222 0.4 0.333333 0.333333 0 0.222222 0.222222 0.4 0.4 0 0.541667 0.541667 0 1 
15 16 0.53819 0.391044 0.175263 0.166667 0.541667 0.25 0.527778 0.266667 0.333333 0 0.333333 0.833333 0.222222 0.4 0.133333 0.240001 0.541667 0.541667 0 1 
15 17 0.675696 0.479626 0.504441 0.5 0.687499 0.25 0.507937 0.369999 0.666667 0.333333 0.277783 0.793651 0.222222 0.4 0.339999 0.0467522 0.833334 0.541667 0.176767 1 
15 18 0.915205 0.700963 0.505103 0.5 0.479167 0.125 0.388889 0.626666 0.666667 0.333333 0.277783 0.555556 0.222222 0.853332 0.4 0.339997 0.541667 0.416667 0.0833333 1 
15 19 0.750665 0.679688 0.675007 0.666667 0.583333 0.5 0.378968 0.605713 1 0.333333 0.55555 0.535714 0.222222 0.811429 0.4 0.308569 0.625001 0.541667 0.0505083 1 
16 16 0.246024 0.160162 0.000511848 0 0.541667 0.625 0.833333 0.133333 0 0 0 0.833333 0.833333 0.133333 0.133333 0 0.541667 0.541667 0 1 
16 17 0.38353 0.248732 0.32969 0.333333 0.687499 0.375 0.813492 0.236665 0.666667 0 0.666667 0.833333 0.793651 0.339999 0.133333 0.186001 0.833334 0.541667 0.176767 1 
16 18 0.623039 0.470069 0.330322 0.333333 0.479167 0.375 0.694444 0.493333 0.666667 0 0.666667 0.833333 0.555556 0.853332 0.133333 0.648003 0.541667 0.416667 0.0833333 1 
16 19 0.458498 0.448794 0.500256 0.5 0.583333 0.375 0.684524 0.47238 1 0 1 0.833333 0.535714 0.811429 0.133333 0.610286 0.625001 0.541667 0.0505083 1 
17 17 0.520981 0.337315 0.658869 0.666667 0.833334 0.875 0.793651 0.339999 0.666667 0.666667 0 0.793651 0.793651 0.339999 0.339999 0 0.833334 0.833334 0 1 
17 18 0.760491 0.558651 0.659501 0.666667 0.625001 0.375 0.674603 0.596667 0.666667 0.666667 0 0.793651 0.555556 0.853332 0.339999 0.399998 0.833334 0.416667 0.277775 1 
17 19 0.596005 0.537377 0.829434 0.833333 0.729167 0.625 0.664683 0.575714 1 0.666667 0.2381 0.793651 0.535714 0.811429 0.339999 0.367345 0.833334 0.625001 0.11905 1 
18 18 1 0.779988 0.660163 0.666667 0.416667 0.875 0.555556 0.853332 0.666667 0.666667 0 0.555556 0.555556 0.853332 0.853332 0 0.416667 0.416667 0 1 
18 19 0.835514 0.758713 0.830097 0.833333 0.520833 0.375 0.545635 0.832382 1 0.666667 0.2381 0.555556 0.535714 0.853332 0.811429 0.0249961 0.625001 0.416667 0.138892 1 
19 19 0.670973 0.737427 1 1 0.625001 1 0.535714 0.811429 1 1 0 0.535714 0.535714 0.811429 0.811429 0 0.625001 0.625001 0 1 
