0 0 0.380942 0.196325 0.510315 0.5 0.678572 0.75 0.896296 0.197232 0.5 0.5 0 0.896296 0.896296 0.197232 0.197232 0 0.678572 0.678572 0 1 
0 1 0.493522 0.34141 0.508889 0.5 0.553571 0.375 0.585185 0.314302 0.5 0.5 0 0.896296 0.274073 0.431373 0.197232 0.183007 0.678572 0.428572 0.138889 1 
0 2 0.493522 0.302343 0.496391 0.5 0.517858 0.125 0.481482 0.359793 0.5 0.5 0 0.896296 0.0666665 0.522353 0.197232 0.254117 0.678572 0.357143 0.192857 1 
0 3 0.435585 0.217781 0.374861 0.375 0.589286 0.125 0.481482 0.186852 0.5 0.25 0.2 0.896296 0.0666665 0.197232 0.17647 0.0166094 0.678572 0.500001 0.0923623 1 
0 4 0.190493 0.0981605 0.258143 0.25 0.446429 0.125 0.688889 0.23307 0.5 0 0.5 0.896296 0.481482 0.268908 0.197232 0.0560258 0.678572 0.214286 0.331633 1 
0 5 0.493522 0.355483 0.633761 0.625 0.625 0.375 0.540741 0.323474 0.75 0.5 0.16667 0.896296 0.185184 0.449715 0.197232 0.197343 0.678572 0.571428 0.051841 1 
0 6 0.435585 0.247626 0.499153 0.5 0.696429 0.125 0.585185 0.184331 0.5 0.5 0 0.896296 0.274073 0.197232 0.171429 0.02076 0.714285 0.678572 0.0157553 1 
0 7 0.435585 0.297305 0.5043 0.5 0.553571 0 0.688889 0.314302 0.5 0.5 0 0.896296 0.481482 0.431373 0.197232 0.183007 0.678572 0.428572 0.138889 1 
0 8 0.380942 0.172285 0.492158 0.5 0.75 0 0.896296 0.1497 0.5 0.5 0 0.896296 0.896296 0.197232 0.102167 0.0830469 0.821429 0.678572 0.0630267 0 
0 9 0.690471 0.463165 0.742882 0.75 0.714285 0.125 0.67037 0.314302 1 0.5 0.33333 0.896296 0.444444 0.431373 0.197232 0.183007 0.75 0.678572 0.0315107 0 
0 10 0.555055 0.278818 0.61371 0.625 0.732142 0.25 0.688889 0.229777 0.75 0.5 0.16667 0.896296 0.481482 0.262322 0.197232 0.0508728 0.785714 0.678572 0.0472713 0 
0 11 0.380942 0.191342 0.501738 0.5 0.535714 0 0.896296 0.336173 0.5 0.5 0 0.896296 0.896296 0.475114 0.197232 0.217192 0.678572 0.392857 0.164834 0 
0 12 0.493522 0.282081 0.623112 0.625 0.785714 0.125 0.837037 0.193469 0.75 0.5 0.16667 0.896296 0.777778 0.197232 0.189706 0.0059294 0.892858 0.678572 0.0945373 0 
0 13 0.690471 0.598163 0.755158 0.75 0.839286 0.25 0.448148 0.221736 1 0.5 0.33333 0.896296 0 0.246239 0.197232 0.0383011 1 0.678572 0.141809 0 
0 14 0.329376 0.196687 0.38023 0.375 0.339285 0.125 0.792593 0.598616 0.5 0.25 0.2 0.896296 0.688889 1 0.197232 0.62745 0.678572 0 0.678572 0 
0 15 0.234346 0.117644 0.255158 0.25 0.589286 0.125 0.948149 0.0986153 0.5 0 0.5 1 0.896296 0.197232 0 0.19723 0.678572 0.500001 0.0923623 0 
0 16 0.435585 0.260133 0.385777 0.375 0.428572 0.25 0.481482 0.385381 0.5 0.25 0.2 0.896296 0.0666665 0.573529 0.197232 0.294119 0.678572 0.178571 0.374999 0 
0 17 0.329376 0.307326 0.522368 0.5 0.517858 0.25 0.688889 0.359793 0.5 0.5 0 0.896296 0.481482 0.522353 0.197232 0.254117 0.678572 0.357143 0.192857 0 
0 18 0.329376 0.194146 0.515105 0.5 0.696429 0.5 0.896296 0.184331 0.5 0.5 0 0.896296 0.896296 0.197232 0.171429 0.02076 0.714285 0.678572 0.0157553 1 
0 19 0.555055 0.279497 0.504701 0.5 0.767857 0.375 0.688889 0.13934 0.5 0.5 0 0.896296 0.481482 0.197232 0.0814473 0.103807 0.857143 0.678572 0.078782 1 
1 1 0.606058 0.486494 0.507463 0.5 0.428572 0.75 0.274073 0.431373 0.5 0.5 0 0.274073 0.274073 0.431373 0.431373 0 0.428572 0.428572 0 1 
1 2 0.606058 0.447416 0.494965 0.5 0.392857 0.125 0.170371 0.476862 0.5 0.5 0 0.274073 0.0666665 0.522353 0.431373 0.0564705 0.428572 0.357143 0.0428571 1 
1 3 0.548122 0.362865 0.373435 0.375 0.464286 0.25 0.170371 0.303922 0.5 0.25 0.2 0.274073 0.0666665 0.431373 0.17647 0.203922 0.500001 0.428572 0.0396803 1 
1 4 0.303029 0.243245 0.256717 0.25 0.32143 0 0.377778 0.350141 0.5 0 0.5 0.481482 0.274073 0.431373 0.268908 0.117649 0.428572 0.214286 0.153059 1 
1 5 0.606058 0.500567 0.632335 0.625 0.500001 0.375 0.22963 0.440544 0.75 0.5 0.16667 0.274073 0.185184 0.449715 0.431373 0.0113859 0.571428 0.428572 0.0793659 1 
1 6 0.548122 0.39271 0.497728 0.5 0.571428 0.375 0.274073 0.3014 0.5 0.5 0 0.274073 0.274073 0.431373 0.171429 0.209152 0.714285 0.428572 0.158732 1 
1 7 0.548122 0.442378 0.502874 0.5 0.428572 0.25 0.377778 0.431373 0.5 0.5 0 0.481482 0.274073 0.431373 0.431373 0 0.428572 0.428572 0 1 
1 8 0.493522 0.317369 0.490732 0.5 0.625 0.125 0.585185 0.266769 0.5 0.5 0 0.896296 0.274073 0.431373 0.102167 0.287583 0.821429 0.428572 0.218255 0 
1 9 0.803051 0.60825 0.741456 0.75 0.589286 0 0.359259 0.431373 1 0.5 0.33333 0.444444 0.274073 0.431373 0.431373 0 0.75 0.428572 0.178569 0 
1 10 0.667634 0.423902 0.612284 0.625 0.607143 0.25 0.377778 0.346847 0.75 0.5 0.16667 0.481482 0.274073 0.431373 0.262322 0.123247 0.785714 0.428572 0.198412 0 
1 11 0.493522 0.336426 0.500312 0.5 0.410714 0.125 0.585185 0.453243 0.5 0.5 0 0.896296 0.274073 0.475114 0.431373 0.0271482 0.428572 0.392857 0.0206035 0 
1 12 0.606058 0.427165 0.621686 0.625 0.660715 0.25 0.525926 0.310539 0.75 0.5 0.16667 0.777778 0.274073 0.431373 0.189706 0.190475 0.892858 0.428572 0.257935 0 
1 13 0.803051 0.743247 0.753732 0.75 0.714285 0.125 0.137037 0.338805 1 0.5 0.33333 0.274073 0 0.431373 0.246239 0.137251 1 0.428572 0.317458 0 
1 14 0.441912 0.34176 0.378804 0.375 0.214286 0.125 0.481482 0.715686 0.5 0.25 0.2 0.688889 0.274073 1 0.431373 0.35294 0.428572 0 0.428571 0 
1 15 0.346882 0.262729 0.253732 0.25 0.464286 0 0.637037 0.215687 0.5 0 0.5 1 0.274073 0.431373 0 0.431371 0.500001 0.428572 0.0396803 0 
1 16 0.548122 0.405217 0.384351 0.375 0.303572 0.125 0.170371 0.50245 0.5 0.25 0.2 0.274073 0.0666665 0.573529 0.431373 0.0882351 0.428572 0.178571 0.1875 0 
1 17 0.441912 0.45241 0.520942 0.5 0.392857 0.375 0.377778 0.476862 0.5 0.5 0 0.481482 0.274073 0.522353 0.431373 0.0564705 0.428572 0.357143 0.0428571 0 
1 18 0.441912 0.33923 0.513679 0.5 0.571428 0.25 0.585185 0.3014 0.5 0.5 0 0.896296 0.274073 0.431373 0.171429 0.209152 0.714285 0.428572 0.158732 1 
1 19 0.667634 0.424581 0.503275 0.5 0.642857 0.25 0.377778 0.256411 0.5 0.5 0 0.481482 0.274073 0.431373 0.0814473 0.313722 0.857143 0.428572 0.238092 1 
2 2 0.606058 0.40835 0.482467 0.5 0.357143 0.75 0.0666665 0.522353 0.5 0.5 0 0.0666665 0.0666665 0.522353 0.522353 0 0.357143 0.357143 0 1 
2 3 0.548122 0.323787 0.360937 0.375 0.428572 0.375 0.0666665 0.349412 0.5 0.25 0.2 0.0666665 0.0666665 0.522353 0.17647 0.276705 0.500001 0.357143 0.0857141 1 
2 4 0.303029 0.204178 0.244219 0.25 0.285715 0.375 0.274073 0.39563 0.5 0 0.5 0.481482 0.0666665 0.522353 0.268908 0.183529 0.357143 0.214286 0.102043 1 
2 5 0.606058 0.461501 0.619859 0.625 0.464286 0.125 0.125925 0.486035 0.75 0.5 0.16667 0.185184 0.0666665 0.522353 0.449715 0.0443717 0.571428 0.357143 0.128571 1 
2 6 0.548122 0.353643 0.485229 0.5 0.535714 0.125 0.170371 0.346891 0.5 0.5 0 0.274073 0.0666665 0.522353 0.171429 0.282352 0.714285 0.357143 0.214285 1 
2 7 0.548122 0.403312 0.490376 0.5 0.392857 0.25 0.274073 0.476862 0.5 0.5 0 0.481482 0.0666665 0.522353 0.431373 0.0564705 0.428572 0.357143 0.0428571 1 
2 8 0.493522 0.278303 0.478234 0.5 0.589286 0.375 0.481482 0.31226 0.5 0.5 0 0.896296 0.0666665 0.522353 0.102167 0.367058 0.821429 0.357143 0.278571 0 
2 9 0.803051 0.569183 0.728958 0.75 0.553571 0.5 0.255556 0.476862 1 0.5 0.33333 0.444444 0.0666665 0.522353 0.431373 0.0564705 0.75 0.357143 0.235714 0 
2 10 0.667634 0.384835 0.599786 0.625 0.571428 0.125 0.274073 0.392338 0.75 0.5 0.16667 0.481482 0.0666665 0.522353 0.262322 0.189578 0.785714 0.357143 0.257142 0 
2 11 0.493522 0.29736 0.487814 0.5 0.375 0.125 0.481482 0.498733 0.5 0.5 0 0.896296 0.0666665 0.522353 0.475114 0.0282352 0.392857 0.357143 0.0214285 0 
2 12 0.606058 0.388099 0.60921 0.625 0.625 0.125 0.422221 0.35603 0.75 0.5 0.16667 0.777778 0.0666665 0.522353 0.189706 0.262185 0.892858 0.357143 0.321428 0 
2 13 0.803051 0.70418 0.741233 0.75 0.678572 0.375 0.0333325 0.384296 1 0.5 0.33333 0.0666665 0 0.522353 0.246239 0.204705 1 0.357143 0.385714 0 
2 14 0.441912 0.302693 0.366306 0.375 0.178571 0.125 0.377778 0.761177 0.5 0.25 0.2 0.688889 0.0666665 1 0.522353 0.27451 0.357143 0 0.357144 0 
2 15 0.346882 0.223662 0.241233 0.25 0.428572 0.125 0.533333 0.261177 0.5 0 0.5 1 0.0666665 0.522353 0 0.522352 0.500001 0.357143 0.0857141 0 
2 16 0.548122 0.366151 0.371853 0.375 0.267858 0 0.0666665 0.547941 0.5 0.25 0.2 0.0666665 0.0666665 0.573529 0.522353 0.029414 0.357143 0.178571 0.133928 0 
2 17 0.441912 0.413344 0.508444 0.5 0.357143 0.125 0.274073 0.522353 0.5 0.5 0 0.481482 0.0666665 0.522353 0.522353 0 0.357143 0.357143 0 0 
2 18 0.441912 0.300163 0.501181 0.5 0.535714 0.25 0.481482 0.346891 0.5 0.5 0 0.896296 0.0666665 0.522353 0.171429 0.282352 0.714285 0.357143 0.214285 1 
2 19 0.667634 0.385514 0.490777 0.5 0.607143 0.375 0.274073 0.3019 0.5 0.5 0 0.481482 0.0666665 0.522353 0.0814473 0.395293 0.857143 0.357143 0.299999 1 
3 3 0.490185 0.239236 0.239406 0.25 0.500001 0.625 0.0666665 0.17647 0.25 0.25 0 0.0666665 0.0666665 0.17647 0.17647 0 0.500001 0.500001 0 1 
3 4 0.245093 0.119616 0.122689 0.125 0.357143 0.125 0.274073 0.222689 0.25 0 0.25 0.481482 0.0666665 0.268908 0.17647 0.0739481 0.500001 0.214286 0.20408 1 
3 5 0.548122 0.376939 0.498307 0.5 0.535714 0 0.125925 0.313092 0.75 0.25 0.4 0.185184 0.0666665 0.449715 0.17647 0.218597 0.571428 0.500001 0.0369481 1 
3 6 0.490185 0.269081 0.363699 0.375 0.607143 0.25 0.170371 0.17395 0.5 0.25 0.2 0.274073 0.0666665 0.17647 0.171429 0.00405881 0.714285 0.500001 0.110839 1 
3 7 0.490185 0.318749 0.368846 0.375 0.464286 0.25 0.274073 0.303922 0.5 0.25 0.2 0.481482 0.0666665 0.431373 0.17647 0.203922 0.500001 0.428572 0.0396803 1 
3 8 0.435585 0.193741 0.356704 0.375 0.660715 0.25 0.481482 0.139319 0.5 0.25 0.2 0.896296 0.0666665 0.17647 0.102167 0.0649057 0.821429 0.500001 0.166253 0 
3 9 0.745114 0.484621 0.607428 0.625 0.625 0.125 0.255556 0.303922 1 0.25 0.6 0.444444 0.0666665 0.431373 0.17647 0.203922 0.75 0.500001 0.12931 0 
3 10 0.609698 0.300273 0.478256 0.5 0.642857 0.125 0.274073 0.219395 0.75 0.25 0.4 0.481482 0.0666665 0.262322 0.17647 0.0686822 0.785714 0.500001 0.147782 0 
3 11 0.435585 0.212797 0.366283 0.375 0.446429 0.125 0.481482 0.325793 0.5 0.25 0.2 0.896296 0.0666665 0.475114 0.17647 0.238912 0.500001 0.392857 0.0618106 0 
3 12 0.548122 0.303537 0.487658 0.5 0.696429 0.25 0.422221 0.183089 0.75 0.25 0.4 0.777778 0.0666665 0.189706 0.17647 0.0105882 0.892858 0.500001 0.203201 0 
3 13 0.745114 0.619618 0.619703 0.625 0.75 0.125 0.0333325 0.211354 1 0.25 0.6 0.0666665 0 0.246239 0.17647 0.055814 1 0.500001 0.258621 0 
3 14 0.383975 0.218131 0.244776 0.25 0.25 0 0.377778 0.588236 0.25 0.25 0 0.688889 0.0666665 1 0.17647 0.65882 0.500001 0 0.499997 0 
3 15 0.288946 0.1391 0.119703 0.125 0.500001 0.125 0.533333 0.088235 0.25 0 0.25 1 0.0666665 0.17647 0 0.17647 0.500001 0.500001 0 0 
3 16 0.490185 0.281588 0.250323 0.25 0.339285 0.25 0.0666665 0.375001 0.25 0.25 0 0.0666665 0.0666665 0.573529 0.17647 0.317646 0.500001 0.178571 0.241071 0 
3 17 0.383975 0.328782 0.386914 0.375 0.428572 0.25 0.274073 0.349412 0.5 0.25 0.2 0.481482 0.0666665 0.522353 0.17647 0.276705 0.500001 0.357143 0.0857141 0 
3 18 0.383975 0.215601 0.379628 0.375 0.607143 0.125 0.481482 0.17395 0.5 0.25 0.2 0.896296 0.0666665 0.17647 0.171429 0.00405881 0.714285 0.500001 0.110839 1 
3 19 0.609698 0.300952 0.369247 0.375 0.678572 0.5 0.274073 0.12896 0.5 0.25 0.2 0.481482 0.0666665 0.17647 0.0814473 0.0851927 0.857143 0.500001 0.18473 1 
4 4 0 0 0.00597068 0 0.214286 0.5 0.481482 0.268908 0 0 0 0.481482 0.481482 0.268908 0.268908 0 0.214286 0.214286 0 1 
4 5 0.303029 0.257318 0.381589 0.375 0.392857 0.25 0.333334 0.359312 0.75 0 0.75 0.481482 0.185184 0.449715 0.268908 0.130927 0.571428 0.214286 0.255101 1 
4 6 0.245093 0.149461 0.246981 0.25 0.464286 0.125 0.377778 0.220168 0.5 0 0.5 0.481482 0.274073 0.268908 0.171429 0.0784304 0.714285 0.214286 0.357144 1 
4 7 0.245093 0.19914 0.252128 0.25 0.32143 0.125 0.481482 0.350141 0.5 0 0.5 0.481482 0.481482 0.431373 0.268908 0.117649 0.428572 0.214286 0.153059 1 
4 8 0.190493 0.0741313 0.239986 0.25 0.517858 0.375 0.688889 0.185537 0.5 0 0.5 0.896296 0.481482 0.268908 0.102167 0.145658 0.821429 0.214286 0.433671 0 
4 9 0.500022 0.365001 0.49071 0.5 0.482143 0.375 0.462963 0.350141 1 0 1 0.481482 0.444444 0.431373 0.268908 0.117649 0.75 0.214286 0.382655 0 
4 10 0.364605 0.180653 0.361538 0.375 0.500001 0.125 0.481482 0.265614 0.75 0 0.75 0.481482 0.481482 0.268908 0.262322 0.00479999 0.785714 0.214286 0.40816 0 
4 11 0.190493 0.0931772 0.249566 0.25 0.303572 0 0.688889 0.37201 0.5 0 0.5 0.896296 0.481482 0.475114 0.268908 0.149322 0.392857 0.214286 0.127553 0 
4 12 0.303029 0.183916 0.37094 0.375 0.553571 0 0.62963 0.229306 0.75 0 0.75 0.777778 0.481482 0.268908 0.189706 0.0624281 0.892858 0.214286 0.484692 0 
4 13 0.500022 0.499998 0.502985 0.5 0.607143 0.125 0.240741 0.257573 1 0 1 0.481482 0 0.268908 0.246239 0.016807 1 0.214286 0.561224 0 
4 14 0.138883 0.0985219 0.128058 0.125 0.107144 0 0.585185 0.634453 0.25 0 0.25 0.688889 0.481482 1 0.268908 0.529411 0.214286 0 0.214285 0 
4 15 0.0438532 0.0194796 0.00298534 0 0.357143 0 0.74074 0.134454 0 0 0 1 0.481482 0.268908 0 0.268905 0.500001 0.214286 0.20408 0 
4 16 0.245093 0.161968 0.133605 0.125 0.196429 0.125 0.274073 0.421218 0.25 0 0.25 0.481482 0.0666665 0.573529 0.268908 0.220588 0.214286 0.178571 0.0267857 0 
4 17 0.138883 0.209172 0.270196 0.25 0.285715 0 0.481482 0.39563 0.5 0 0.5 0.481482 0.481482 0.522353 0.268908 0.183529 0.357143 0.214286 0.102043 0 
4 18 0.138883 0.095981 0.262933 0.25 0.464286 0.125 0.688889 0.220168 0.5 0 0.5 0.896296 0.481482 0.268908 0.171429 0.0784304 0.714285 0.214286 0.357144 1 
4 19 0.364605 0.181343 0.252529 0.25 0.535714 0.25 0.481482 0.175179 0.5 0 0.5 0.481482 0.481482 0.268908 0.0814473 0.16807 0.857143 0.214286 0.459181 1 
5 5 0.606058 0.514641 0.757229 0.75 0.571428 0.875 0.185184 0.449715 0.75 0.75 0 0.185184 0.185184 0.449715 0.449715 0 0.571428 0.571428 0 1 
5 6 0.548122 0.406783 0.622599 0.625 0.642857 0.375 0.22963 0.310573 0.75 0.5 0.16667 0.274073 0.185184 0.449715 0.171429 0.223905 0.714285 0.571428 0.0691231 1 
5 7 0.548122 0.456463 0.627746 0.625 0.500001 0.25 0.333334 0.440544 0.75 0.5 0.16667 0.481482 0.185184 0.449715 0.431373 0.0113859 0.571428 0.428572 0.0793659 1 
5 8 0.493522 0.331443 0.615626 0.625 0.696429 0.25 0.540741 0.275942 0.75 0.5 0.16667 0.896296 0.185184 0.449715 0.102167 0.303606 0.821429 0.571428 0.120969 0 
5 9 0.803051 0.622323 0.866328 0.875 0.660715 0.375 0.314815 0.440544 1 0.75 0.14286 0.444444 0.185184 0.449715 0.431373 0.0113859 0.75 0.571428 0.0864052 0 
5 10 0.667634 0.437975 0.737156 0.75 0.678572 0.5 0.333334 0.356018 0.75 0.75 0 0.481482 0.185184 0.449715 0.262322 0.136623 0.785714 0.571428 0.103687 0 
5 11 0.493522 0.3505 0.625184 0.625 0.482143 0.125 0.540741 0.462415 0.75 0.5 0.16667 0.896296 0.185184 0.475114 0.449715 0.0155153 0.571428 0.392857 0.103023 0 
5 12 0.606058 0.441239 0.74658 0.75 0.732142 0.125 0.481482 0.319711 0.75 0.75 0 0.777778 0.185184 0.449715 0.189706 0.204931 0.892858 0.571428 0.155528 0 
5 13 0.803051 0.75732 0.878604 0.875 0.785714 0.375 0.0925929 0.347976 1 0.75 0.14286 0.185184 0 0.449715 0.246239 0.150854 1 0.571428 0.207375 0 
5 14 0.441912 0.355845 0.503698 0.5 0.285715 0 0.437037 0.724858 0.75 0.25 0.4 0.688889 0.185184 1 0.449715 0.336133 0.571428 0 0.571429 0 
5 15 0.346882 0.276802 0.378626 0.375 0.535714 0 0.592592 0.224857 0.75 0 0.75 1 0.185184 0.449715 0 0.449717 0.571428 0.500001 0.0369481 0 
5 16 0.548122 0.419291 0.509223 0.5 0.375 0.125 0.125925 0.511623 0.75 0.25 0.4 0.185184 0.0666665 0.573529 0.449715 0.0756281 0.571428 0.178571 0.294642 0 
5 17 0.441912 0.466484 0.645814 0.625 0.464286 0.125 0.333334 0.486035 0.75 0.5 0.16667 0.481482 0.185184 0.522353 0.449715 0.0443717 0.571428 0.357143 0.128571 0 
5 18 0.441912 0.353304 0.638551 0.625 0.642857 0.25 0.540741 0.310573 0.75 0.5 0.16667 0.896296 0.185184 0.449715 0.171429 0.223905 0.714285 0.571428 0.0691231 1 
5 19 0.667634 0.438654 0.628147 0.625 0.714285 0 0.333334 0.265582 0.75 0.5 0.16667 0.481482 0.185184 0.449715 0.0814473 0.330169 0.857143 0.571428 0.138246 1 
6 6 0.490185 0.298926 0.487992 0.5 0.714285 0.75 0.274073 0.171429 0.5 0.5 0 0.274073 0.274073 0.171429 0.171429 0 0.714285 0.714285 0 1 
6 7 0.490185 0.348605 0.493138 0.5 0.571428 0.5 0.377778 0.3014 0.5 0.5 0 0.481482 0.274073 0.431373 0.171429 0.209152 0.714285 0.428572 0.158732 1 
6 8 0.435585 0.223585 0.480996 0.5 0.767857 0.25 0.585185 0.136798 0.5 0.5 0 0.896296 0.274073 0.171429 0.102167 0.060501 0.821429 0.714285 0.045916 0 
6 9 0.745114 0.514466 0.73172 0.75 0.732142 0.125 0.359259 0.3014 1 0.5 0.33333 0.444444 0.274073 0.431373 0.171429 0.209152 0.75 0.714285 0.0153053 0 
6 10 0.609698 0.330118 0.602549 0.625 0.75 0.5 0.377778 0.216876 0.75 0.5 0.16667 0.481482 0.274073 0.262322 0.171429 0.0731292 0.785714 0.714285 0.0306107 0 
6 11 0.435585 0.242642 0.490576 0.5 0.553571 0.375 0.585185 0.323271 0.5 0.5 0 0.896296 0.274073 0.475114 0.171429 0.244341 0.714285 0.392857 0.185437 0 
6 12 0.548122 0.333382 0.61195 0.625 0.803571 0.375 0.525926 0.180568 0.75 0.5 0.16667 0.777778 0.274073 0.189706 0.171429 0.0147035 0.892858 0.714285 0.076532 0 
6 13 0.745114 0.649463 0.743996 0.75 0.857143 0 0.137037 0.208834 1 0.5 0.33333 0.274073 0 0.246239 0.171429 0.0601904 1 0.714285 0.122448 0 
6 14 0.383975 0.247987 0.369068 0.375 0.357143 0.125 0.481482 0.585715 0.5 0.25 0.2 0.688889 0.274073 1 0.171429 0.666662 0.714285 0 0.714283 0 
6 15 0.288946 0.168945 0.243996 0.25 0.607143 0.125 0.637037 0.0857137 0.5 0 0.5 1 0.274073 0.171429 0 0.17143 0.714285 0.500001 0.110839 0 
6 16 0.490185 0.311433 0.374616 0.375 0.446429 0.125 0.170371 0.372479 0.5 0.25 0.2 0.274073 0.0666665 0.573529 0.171429 0.323526 0.714285 0.178571 0.401785 0 
6 17 0.383975 0.358626 0.511206 0.5 0.535714 0 0.377778 0.346891 0.5 0.5 0 0.481482 0.274073 0.522353 0.171429 0.282352 0.714285 0.357143 0.214285 0 
6 18 0.383975 0.245446 0.503943 0.5 0.714285 0 0.585185 0.171429 0.5 0.5 0 0.896296 0.274073 0.171429 0.171429 0 0.714285 0.714285 0 1 
6 19 0.609698 0.330797 0.493539 0.5 0.785714 0.25 0.377778 0.126438 0.5 0.5 0 0.481482 0.274073 0.171429 0.0814473 0.0806751 0.857143 0.714285 0.0612267 1 
7 7 0.490185 0.398273 0.498285 0.5 0.428572 0.75 0.481482 0.431373 0.5 0.5 0 0.481482 0.481482 0.431373 0.431373 0 0.428572 0.428572 0 1 
7 8 0.435585 0.273265 0.486143 0.5 0.625 0.375 0.688889 0.266769 0.5 0.5 0 0.896296 0.481482 0.431373 0.102167 0.287583 0.821429 0.428572 0.218255 0 
7 9 0.745114 0.564145 0.736867 0.75 0.589286 0.25 0.462963 0.431373 1 0.5 0.33333 0.481482 0.444444 0.431373 0.431373 0 0.75 0.428572 0.178569 0 
7 10 0.609698 0.379797 0.607695 0.625 0.607143 0.25 0.481482 0.346847 0.75 0.5 0.16667 0.481482 0.481482 0.431373 0.262322 0.123247 0.785714 0.428572 0.198412 0 
7 11 0.435585 0.292322 0.495722 0.5 0.410714 0.25 0.688889 0.453243 0.5 0.5 0 0.896296 0.481482 0.475114 0.431373 0.0271482 0.428572 0.392857 0.0206035 0 
7 12 0.548122 0.383061 0.617097 0.625 0.660715 0.25 0.62963 0.310539 0.75 0.5 0.16667 0.777778 0.481482 0.431373 0.189706 0.190475 0.892858 0.428572 0.257935 0 
7 13 0.745114 0.699142 0.749142 0.75 0.714285 0.25 0.240741 0.338805 1 0.5 0.33333 0.481482 0 0.431373 0.246239 0.137251 1 0.428572 0.317458 0 
7 14 0.383975 0.297655 0.374215 0.375 0.214286 0.25 0.585185 0.715686 0.5 0.25 0.2 0.688889 0.481482 1 0.431373 0.35294 0.428572 0 0.428571 0 
7 15 0.288946 0.218624 0.249142 0.25 0.464286 0 0.74074 0.215687 0.5 0 0.5 1 0.481482 0.431373 0 0.431371 0.500001 0.428572 0.0396803 0 
7 16 0.490185 0.361113 0.379762 0.375 0.303572 0 0.274073 0.50245 0.5 0.25 0.2 0.481482 0.0666665 0.573529 0.431373 0.0882351 0.428572 0.178571 0.1875 0 
7 17 0.383975 0.408306 0.516353 0.5 0.392857 0.125 0.481482 0.476862 0.5 0.5 0 0.481482 0.481482 0.522353 0.431373 0.0564705 0.428572 0.357143 0.0428571 0 
7 18 0.383975 0.295125 0.50909 0.5 0.571428 0.125 0.688889 0.3014 0.5 0.5 0 0.896296 0.481482 0.431373 0.171429 0.209152 0.714285 0.428572 0.158732 1 
7 19 0.609698 0.380476 0.498686 0.5 0.642857 0.125 0.481482 0.256411 0.5 0.5 0 0.481482 0.481482 0.431373 0.0814473 0.313722 0.857143 0.428572 0.238092 1 
8 8 0.380942 0.148256 0.474001 0.5 0.821429 0.75 0.896296 0.102167 0.5 0.5 0 0.896296 0.896296 0.102167 0.102167 0 0.821429 0.821429 0 1 
8 9 0.690471 0.439136 0.724725 0.75 0.785714 0.5 0.67037 0.266769 1 0.5 0.33333 0.896296 0.444444 0.431373 0.102167 0.287583 0.821429 0.75 0.0297642 1 
8 10 0.555055 0.254788 0.595553 0.625 0.803571 0.25 0.688889 0.182244 0.75 0.5 0.16667 0.896296 0.481482 0.262322 0.102167 0.139906 0.821429 0.785714 0.0144803 1 
8 11 0.380942 0.167313 0.483581 0.5 0.607143 0.125 0.896296 0.28864 0.5 0.5 0 0.896296 0.896296 0.475114 0.102167 0.325792 0.821429 0.392857 0.247253 1 
8 12 0.493522 0.258041 0.604977 0.625 0.857143 0.375 0.837037 0.145937 0.75 0.5 0.16667 0.896296 0.777778 0.189706 0.102167 0.0764681 0.892858 0.821429 0.0281946 1 
8 13 0.690471 0.574123 0.737 0.75 0.910714 0.375 0.448148 0.174203 1 0.5 0.33333 0.896296 0 0.246239 0.102167 0.125851 1 0.821429 0.0704892 1 
8 14 0.329376 0.172647 0.362073 0.375 0.410714 0.25 0.792593 0.551083 0.5 0.25 0.2 0.896296 0.688889 1 0.102167 0.784311 0.821429 0 0.821425 1 
8 15 0.234346 0.0936043 0.237 0.25 0.660715 0.125 0.948149 0.0510843 0.5 0 0.5 1 0.896296 0.102167 0 0.102169 0.821429 0.500001 0.166253 1 
8 16 0.435585 0.236093 0.36762 0.375 0.500001 0.125 0.481482 0.337848 0.5 0.25 0.2 0.896296 0.0666665 0.573529 0.102167 0.411761 0.821429 0.178571 0.482142 1 
8 17 0.329376 0.283297 0.504211 0.5 0.589286 0 0.688889 0.31226 0.5 0.5 0 0.896296 0.481482 0.522353 0.102167 0.367058 0.821429 0.357143 0.278571 1 
8 18 0.329376 0.170106 0.496948 0.5 0.767857 0 0.896296 0.136798 0.5 0.5 0 0.896296 0.896296 0.171429 0.102167 0.060501 0.821429 0.714285 0.045916 0 
8 19 0.555055 0.255467 0.486544 0.5 0.839286 0.125 0.688889 0.0918072 0.5 0.5 0 0.896296 0.481482 0.102167 0.0814473 0.0185788 0.857143 0.821429 0.0141 0 
9 9 1 0.730006 0.975449 1 0.75 1 0.444444 0.431373 1 1 0 0.444444 0.444444 0.431373 0.431373 0 0.75 0.75 0 1 
9 10 0.864584 0.545658 0.846277 0.875 0.767857 0.375 0.462963 0.346847 1 0.75 0.14286 0.481482 0.444444 0.431373 0.262322 0.123247 0.785714 0.75 0.0148821 1 
9 11 0.690471 0.458182 0.734305 0.75 0.571428 0.375 0.67037 0.453243 1 0.5 0.33333 0.896296 0.444444 0.475114 0.431373 0.0271482 0.75 0.392857 0.206046 1 
9 12 0.803051 0.548921 0.855679 0.875 0.821429 0.375 0.611111 0.310539 1 0.75 0.14286 0.777778 0.444444 0.431373 0.189706 0.190475 0.892858 0.75 0.0595231 1 
9 13 1 0.865003 0.987724 1 0.875001 0.5 0.222222 0.338805 1 1 0 0.444444 0 0.431373 0.246239 0.137251 1 0.75 0.104164 1 
9 14 0.638905 0.463527 0.612797 0.625 0.375 0.25 0.566667 0.715686 1 0.25 0.6 0.688889 0.444444 1 0.431373 0.35294 0.75 0 0.749999 1 
9 15 0.543875 0.384485 0.487724 0.5 0.625 0.25 0.722223 0.215687 1 0 1 1 0.444444 0.431373 0 0.431371 0.75 0.500001 0.12931 1 
9 16 0.745114 0.526973 0.618344 0.625 0.464286 0.25 0.255556 0.50245 1 0.25 0.6 0.444444 0.0666665 0.573529 0.431373 0.0882351 0.75 0.178571 0.428571 1 
9 17 0.638905 0.574177 0.754935 0.75 0.553571 0.125 0.462963 0.476862 1 0.5 0.33333 0.481482 0.444444 0.522353 0.431373 0.0564705 0.75 0.357143 0.235714 1 
9 18 0.638905 0.460986 0.747672 0.75 0.732142 0.125 0.67037 0.3014 1 0.5 0.33333 0.896296 0.444444 0.431373 0.171429 0.209152 0.75 0.714285 0.0153053 0 
9 19 0.864584 0.546348 0.737268 0.75 0.803571 0.125 0.462963 0.256411 1 0.5 0.33333 0.481482 0.444444 0.431373 0.0814473 0.313722 0.857143 0.75 0.044641 0 
10 10 0.729168 0.361321 0.717106 0.75 0.785714 0.875 0.481482 0.262322 0.75 0.75 0 0.481482 0.481482 0.262322 0.262322 0 0.785714 0.785714 0 1 
10 11 0.555055 0.273845 0.605133 0.625 0.589286 0.5 0.688889 0.368718 0.75 0.5 0.16667 0.896296 0.481482 0.475114 0.262322 0.155138 0.785714 0.392857 0.22665 1 
10 12 0.667634 0.364573 0.726507 0.75 0.839286 0.375 0.62963 0.226014 0.75 0.75 0 0.777778 0.481482 0.262322 0.189706 0.0572328 0.892858 0.785714 0.0434356 1 
10 13 0.864584 0.680655 0.858553 0.875 0.892858 0.25 0.240741 0.25428 1 0.75 0.14286 0.481482 0 0.262322 0.246239 0.0119223 1 0.785714 0.0868713 1 
10 14 0.503488 0.279179 0.483625 0.5 0.392857 0.25 0.585185 0.631161 0.75 0.25 0.4 0.688889 0.481482 1 0.262322 0.53781 0.785714 0 0.785715 1 
10 15 0.408459 0.200137 0.358553 0.375 0.642857 0.25 0.74074 0.13116 0.75 0 0.75 1 0.481482 0.262322 0 0.262319 0.785714 0.500001 0.147782 1 
10 16 0.609698 0.342625 0.489173 0.5 0.482143 0.25 0.274073 0.417926 0.75 0.25 0.4 0.481482 0.0666665 0.573529 0.262322 0.226891 0.785714 0.178571 0.455356 1 
10 17 0.503488 0.389829 0.625763 0.625 0.571428 0 0.481482 0.392338 0.75 0.5 0.16667 0.481482 0.481482 0.522353 0.262322 0.189578 0.785714 0.357143 0.257142 1 
10 18 0.503488 0.276638 0.6185 0.625 0.75 0.125 0.688889 0.216876 0.75 0.5 0.16667 0.896296 0.481482 0.262322 0.171429 0.0731292 0.785714 0.714285 0.0306107 0 
10 19 0.729168 0.362 0.608096 0.625 0.821429 0.125 0.481482 0.171885 0.75 0.5 0.16667 0.481482 0.481482 0.262322 0.0814473 0.162162 0.857143 0.785714 0.0289553 0 
11 11 0.380942 0.186359 0.49316 0.5 0.392857 0.75 0.896296 0.475114 0.5 0.5 0 0.896296 0.896296 0.475114 0.475114 0 0.392857 0.392857 0 1 
11 12 0.493522 0.277098 0.614535 0.625 0.642857 0.5 0.837037 0.33241 0.75 0.5 0.16667 0.896296 0.777778 0.475114 0.189706 0.22495 0.892858 0.392857 0.28846 1 
11 13 0.690471 0.593179 0.74658 0.75 0.696429 0.25 0.448148 0.360676 1 0.5 0.33333 0.896296 0 0.475114 0.246239 0.16968 1 0.392857 0.350276 1 
11 14 0.329376 0.191703 0.371653 0.375 0.196429 0.25 0.792593 0.737557 0.5 0.25 0.2 0.896296 0.688889 1 0.475114 0.313722 0.392857 0 0.392855 1 
11 15 0.234346 0.112661 0.24658 0.25 0.446429 0.25 0.948149 0.237556 0.5 0 0.5 1 0.896296 0.475114 0 0.475114 0.500001 0.392857 0.0618106 1 
11 16 0.435585 0.25515 0.3772 0.375 0.285715 0.25 0.481482 0.524322 0.5 0.25 0.2 0.896296 0.0666665 0.573529 0.475114 0.058821 0.392857 0.178571 0.160714 1 
11 17 0.329376 0.302354 0.51379 0.5 0.375 0.25 0.688889 0.498733 0.5 0.5 0 0.896296 0.481482 0.522353 0.475114 0.0282352 0.392857 0.357143 0.0214285 1 
11 18 0.329376 0.189163 0.506528 0.5 0.553571 0 0.896296 0.323271 0.5 0.5 0 0.896296 0.896296 0.475114 0.171429 0.244341 0.714285 0.392857 0.185437 0 
11 19 0.555055 0.274524 0.496124 0.5 0.625 0.125 0.688889 0.278281 0.5 0.5 0 0.896296 0.481482 0.475114 0.0814473 0.35294 0.857143 0.392857 0.267857 0 
12 12 0.606058 0.367837 0.735931 0.75 0.892858 0.875 0.777778 0.189706 0.75 0.75 0 0.777778 0.777778 0.189706 0.189706 0 0.892858 0.892858 0 1 
12 13 0.803051 0.683919 0.867954 0.875 0.946428 0.375 0.388889 0.217972 1 0.75 0.14286 0.777778 0 0.246239 0.189706 0.0445552 1 0.892858 0.0401785 1 
12 14 0.441912 0.282443 0.493049 0.5 0.446429 0.25 0.733333 0.594853 0.75 0.25 0.4 0.777778 0.688889 1 0.189706 0.638653 0.892858 0 0.892857 1 
12 15 0.346882 0.2034 0.367977 0.375 0.696429 0.25 0.888888 0.0948539 0.75 0 0.75 1 0.777778 0.189706 0 0.189705 0.892858 0.500001 0.203201 1 
12 16 0.548122 0.345889 0.498574 0.5 0.535714 0.25 0.422221 0.381618 0.75 0.25 0.4 0.777778 0.0666665 0.573529 0.189706 0.302519 0.892858 0.178571 0.535713 1 
12 17 0.441912 0.393082 0.635165 0.625 0.625 0.25 0.62963 0.35603 0.75 0.5 0.16667 0.777778 0.481482 0.522353 0.189706 0.262185 0.892858 0.357143 0.321428 1 
12 18 0.441912 0.279902 0.627902 0.625 0.803571 0 0.837037 0.180568 0.75 0.5 0.16667 0.896296 0.777778 0.189706 0.171429 0.0147035 0.892858 0.714285 0.076532 0 
12 19 0.667634 0.365263 0.617498 0.625 0.875001 0.125 0.62963 0.135577 0.75 0.5 0.16667 0.777778 0.481482 0.189706 0.0814473 0.0970586 0.892858 0.857143 0.0137357 0 
13 13 1 1 1 1 1 1 0 0.246239 1 1 0 0 0 0.246239 0.246239 0 1 1 0 1 
13 14 0.638905 0.598524 0.625072 0.625 0.500001 0.375 0.344444 0.623119 1 0.25 0.6 0.688889 0 1 0.246239 0.558825 1 0 1 1 
13 15 0.543875 0.519482 0.5 0.5 0.75 0.25 0.499999 0.123119 1 0 1 1 0 0.246239 0 0.246239 1 0.500001 0.258621 1 
13 16 0.745114 0.66197 0.63062 0.625 0.589286 0 0.0333325 0.409884 1 0.25 0.6 0.0666665 0 0.573529 0.246239 0.242646 1 0.178571 0.61607 1 
13 17 0.638905 0.709164 0.76721 0.75 0.678572 0.375 0.240741 0.384296 1 0.5 0.33333 0.481482 0 0.522353 0.246239 0.204705 1 0.357143 0.385714 1 
13 18 0.638905 0.595983 0.759947 0.75 0.857143 0.375 0.448148 0.208834 1 0.5 0.33333 0.896296 0 0.246239 0.171429 0.0601904 1 0.714285 0.122448 0 
13 19 0.864584 0.681334 0.749543 0.75 0.928571 0 0.240741 0.163843 1 0.5 0.33333 0.481482 0 0.246239 0.0814473 0.147741 1 0.857143 0.0549428 0 
14 14 0.277766 0.197037 0.250145 0.25 0 0.625 0.688889 1 0.25 0.25 0 0.688889 0.688889 1 1 0 0 0 0 1 
14 15 0.182736 0.118006 0.125072 0.125 0.25 0.375 0.844444 0.500001 0.25 0 0.25 1 0.688889 1 0 1 0.500001 0 0.499997 1 
14 16 0.383975 0.260494 0.255692 0.25 0.0892864 0.125 0.377778 0.786765 0.25 0.25 0 0.688889 0.0666665 1 0.573529 0.235291 0.178571 0 0.178569 1 
14 17 0.277766 0.307688 0.392283 0.375 0.178571 0.125 0.585185 0.761177 0.5 0.25 0.2 0.688889 0.481482 1 0.522353 0.27451 0.357143 0 0.357144 1 
14 18 0.277766 0.194507 0.38502 0.375 0.357143 0.25 0.792593 0.585715 0.5 0.25 0.2 0.896296 0.688889 1 0.171429 0.666662 0.714285 0 0.714283 0 
14 19 0.503488 0.279858 0.374616 0.375 0.428572 0.125 0.585185 0.540724 0.5 0.25 0.2 0.688889 0.481482 1 0.0814473 0.82353 0.857143 0 0.857141 0 
15 15 0.0877064 0.0389637 0 0 0.500001 0.5 1 0 0 0 0 1 1 0 0 0 0.500001 0.500001 0 1 
15 16 0.288946 0.181452 0.13062 0.125 0.339285 0.25 0.533333 0.286766 0.25 0 0.25 1 0.0666665 0.573529 0 0.573528 0.500001 0.178571 0.241071 1 
15 17 0.182736 0.228645 0.26721 0.25 0.428572 0 0.74074 0.261177 0.5 0 0.5 1 0.481482 0.522353 0 0.522352 0.500001 0.357143 0.0857141 1 
15 18 0.182736 0.115465 0.259947 0.25 0.607143 0.125 0.948149 0.0857137 0.5 0 0.5 1 0.896296 0.171429 0 0.17143 0.714285 0.500001 0.110839 0 
15 19 0.408459 0.200816 0.249543 0.25 0.678572 0.25 0.74074 0.0407245 0.5 0 0.5 1 0.481482 0.0814473 0 0.0814445 0.857143 0.500001 0.18473 0 
16 16 0.490185 0.323941 0.26124 0.25 0.178571 0.625 0.0666665 0.573529 0.25 0.25 0 0.0666665 0.0666665 0.573529 0.573529 0 0.178571 0.178571 0 1 
16 17 0.383975 0.371134 0.39783 0.375 0.267858 0.25 0.274073 0.547941 0.5 0.25 0.2 0.481482 0.0666665 0.573529 0.522353 0.029414 0.357143 0.178571 0.133928 1 
16 18 0.383975 0.257954 0.390545 0.375 0.446429 0.125 0.481482 0.372479 0.5 0.25 0.2 0.896296 0.0666665 0.573529 0.171429 0.323526 0.714285 0.178571 0.401785 0 
16 19 0.609698 0.343304 0.380163 0.375 0.517858 0.375 0.274073 0.327488 0.5 0.25 0.2 0.481482 0.0666665 0.573529 0.0814473 0.441175 0.857143 0.178571 0.508928 0 
17 17 0.277766 0.418338 0.534421 0.5 0.357143 0.75 0.481482 0.522353 0.5 0.5 0 0.481482 0.481482 0.522353 0.522353 0 0.357143 0.357143 0 1 
17 18 0.277766 0.305147 0.527158 0.5 0.535714 0.375 0.688889 0.346891 0.5 0.5 0 0.896296 0.481482 0.522353 0.171429 0.282352 0.714285 0.357143 0.214285 0 
17 19 0.503488 0.390508 0.516754 0.5 0.607143 0.25 0.481482 0.3019 0.5 0.5 0 0.481482 0.481482 0.522353 0.0814473 0.395293 0.857143 0.357143 0.299999 0 
18 18 0.277766 0.191966 0.519873 0.5 0.714285 0.75 0.896296 0.171429 0.5 0.5 0 0.896296 0.896296 0.171429 0.171429 0 0.714285 0.714285 0 1 
18 19 0.503488 0.277317 0.509491 0.5 0.785714 0.375 0.688889 0.126438 0.5 0.5 0 0.896296 0.481482 0.171429 0.0814473 0.0806751 0.857143 0.714285 0.0612267 1 
19 19 0.729168 0.362679 0.499087 0.5 0.857143 0.75 0.481482 0.0814473 0.5 0.5 0 0.481482 0.481482 0.0814473 0.0814473 0 0.857143 0.857143 0 1 
