0 0 0.303642 0.231302 0.244345 0.25 0 0.625 0.48421 1 0.25 0.25 0 0.48421 0.48421 1 1 0 0 0 0 1 
0 1 0.270168 0.135831 0.352923 0.375 0.197673 0.375 0.557895 0.670659 0.5 0.25 0.2 0.631579 0.48421 1 0.341317 0.46108 0.395348 0 0.39535 1 
0 2 0.376178 0.253236 0.473734 0.5 0.325581 0.375 0.452631 0.610142 0.75 0.25 0.4 0.48421 0.421052 1 0.220283 0.61078 0.651163 0 0.65116 1 
0 3 0.548474 0.560933 0.599069 0.625 0.5 0.375 0.33421 0.542206 1 0.25 0.6 0.48421 0.184211 1 0.0844131 0.827841 1 0 1 1 
0 4 0.415572 0.228793 0.469649 0.5 0.255814 0.375 0.452631 0.684533 0.75 0.25 0.4 0.48421 0.421052 1 0.369066 0.431135 0.511627 0 0.511625 1 
0 5 0.376178 0.304589 0.356591 0.375 0.220929 0.25 0.410526 0.640719 0.5 0.25 0.2 0.48421 0.336842 1 0.281438 0.53094 0.44186 0 0.44186 1 
0 6 0.376178 0.216855 0.351166 0.375 0.127906 0.25 0.48421 0.784431 0.5 0.25 0.2 0.48421 0.48421 1 0.568863 0.251497 0.255814 0 0.255815 1 
0 7 0.303642 0.143002 0.122172 0.125 0.0465116 0 0.557895 0.695392 0.25 0 0.25 0.631579 0.48421 1 0.390785 0.408684 0.0930231 0 0.0930248 1 
0 8 0.457249 0.42675 0.490557 0.5 0.16279 0 0.294737 0.825802 0.75 0.25 0.4 0.48421 0.105263 1 0.651607 0.191615 0.325581 0 0.32558 0 
0 9 0.376178 0.257971 0.235538 0.25 0.0697673 0 0.263158 0.784431 0.25 0.25 0 0.48421 0.042105 1 0.568863 0.251497 0.139535 0 0.139535 0 
0 10 0.415572 0.400312 0.505622 0.5 0.302325 0 0.347368 0.632736 0.75 0.25 0.4 0.48421 0.210527 1 0.265469 0.550898 0.60465 0 0.60465 1 
0 11 0.238382 0.174206 0.275596 0.25 0.0232558 0.125 0.594737 0.914457 0.25 0.25 0 0.705263 0.48421 1 0.828914 0.0838298 0.0465116 0 0.0465102 0 
0 12 0.151821 0.115651 0.15092 0.125 0.0581387 0.125 0.742105 0.670659 0.25 0 0.25 1 0.48421 1 0.341317 0.46108 0.116279 0 0.11628 0 
0 13 0.338934 0.26215 0.396495 0.375 0.255814 0.125 0.48421 0.601286 0.5 0.25 0.2 0.48421 0.48421 1 0.202572 0.635732 0.511627 0 0.511625 0 
0 14 0.376178 0.408271 0.517108 0.5 0.348837 0 0.347368 0.589394 0.75 0.25 0.4 0.48421 0.210527 1 0.178786 0.670662 0.697675 0 0.697675 0 
0 15 0.338934 0.546118 0.272851 0.25 0.0465116 0.125 0.263158 0.84379 0.25 0.25 0 0.48421 0.042105 1 0.687582 0.167667 0.0930231 0 0.0930248 0 
0 16 0.651837 0.615656 0.622172 0.625 0.267441 0.125 0.255262 0.751925 1 0.25 0.6 0.48421 0.0263163 1 0.503851 0.303893 0.534883 0 0.534885 0 
0 17 0.338934 0.17134 0.123842 0.125 0.0232558 0.125 0.557895 0.751925 0.25 0 0.25 0.631579 0.48421 1 0.503851 0.303893 0.0465116 0 0.0465102 0 
0 18 0.501472 0.429973 0.481574 0.5 0.476744 0.375 0.242104 0.500001 0.75 0.25 0.4 0.48421 0 1 0 1 0.953488 0 0.953485 0 
0 19 0.457249 0.342901 0.366364 0.375 0.244185 0.25 0.336842 0.613773 0.5 0.25 0.2 0.48421 0.189473 1 0.227545 0.600801 0.488371 0 0.48837 1 
1 1 0.236695 0.0403631 0.461501 0.5 0.395348 0.75 0.631579 0.341317 0.5 0.5 0 0.631579 0.631579 0.341317 0.341317 0 0.395348 0.395348 0 1 
1 2 0.342705 0.157764 0.582312 0.625 0.523256 0.5 0.526315 0.2808 0.75 0.5 0.16667 0.631579 0.421052 0.341317 0.220283 0.0948122 0.651163 0.395348 0.135015 1 
1 3 0.515 0.465461 0.707647 0.75 0.697675 0.5 0.407894 0.212865 1 0.5 0.33333 0.631579 0.184211 0.341317 0.0844131 0.232288 1 0.395348 0.31912 1 
1 4 0.382099 0.133321 0.578227 0.625 0.453488 0.375 0.526315 0.355193 0.75 0.5 0.16667 0.631579 0.421052 0.369066 0.341317 0.0194244 0.511627 0.395348 0.0613699 1 
1 5 0.342705 0.209117 0.465169 0.5 0.418604 0.375 0.48421 0.311378 0.5 0.5 0 0.631579 0.336842 0.341317 0.281438 0.0442484 0.44186 0.395348 0.0245497 1 
1 6 0.342705 0.121383 0.459744 0.5 0.325581 0.375 0.557895 0.455091 0.5 0.5 0 0.631579 0.48421 0.568863 0.341317 0.159281 0.395348 0.255814 0.088372 1 
1 7 0.270168 0.0475301 0.230751 0.25 0.244185 0 0.631579 0.36605 0.5 0 0.5 0.631579 0.631579 0.390785 0.341317 0.0346278 0.395348 0.0930231 0.249748 1 
1 8 0.423775 0.331278 0.599135 0.625 0.360465 0 0.368421 0.496462 0.75 0.5 0.16667 0.631579 0.105263 0.651607 0.341317 0.217204 0.395348 0.325581 0.0401695 0 
1 9 0.342705 0.162499 0.344116 0.375 0.267441 0.25 0.336842 0.455091 0.5 0.25 0.2 0.631579 0.042105 0.568863 0.341317 0.159281 0.395348 0.139535 0.194418 0 
1 10 0.382099 0.304841 0.6142 0.625 0.5 0 0.421052 0.303393 0.75 0.5 0.16667 0.631579 0.210527 0.341317 0.265469 0.0568873 0.60465 0.395348 0.110465 1 
1 11 0.204909 0.0787345 0.384174 0.375 0.220929 0 0.668421 0.585116 0.5 0.25 0.2 0.705263 0.631579 0.828914 0.341317 0.341316 0.395348 0.0465116 0.315616 0 
1 12 0.118348 0.020181 0.259498 0.25 0.255814 0 0.815789 0.341317 0.5 0 0.5 1 0.631579 0.341317 0.341317 0 0.395348 0.116279 0.22093 0 
1 13 0.305461 0.166689 0.505073 0.5 0.453488 0 0.557895 0.271944 0.5 0.5 0 0.631579 0.48421 0.341317 0.202572 0.110613 0.511627 0.395348 0.0613699 0 
1 14 0.342705 0.312799 0.625686 0.625 0.546512 0 0.421052 0.260051 0.75 0.5 0.16667 0.631579 0.210527 0.341317 0.178786 0.132737 0.697675 0.395348 0.15956 0 
1 15 0.305461 0.450647 0.381429 0.375 0.244185 0.25 0.336842 0.514449 0.5 0.25 0.2 0.631579 0.042105 0.687582 0.341317 0.242386 0.395348 0.0930231 0.249748 0 
1 16 0.618364 0.520185 0.730751 0.75 0.465116 0.25 0.328947 0.422583 1 0.5 0.33333 0.631579 0.0263163 0.503851 0.341317 0.113775 0.534883 0.395348 0.0736448 0 
1 17 0.305461 0.0758681 0.23242 0.25 0.220929 0.25 0.631579 0.422583 0.5 0 0.5 0.631579 0.631579 0.503851 0.341317 0.113775 0.395348 0.0465116 0.315616 0 
1 18 0.467999 0.334502 0.590152 0.625 0.674419 0.375 0.315789 0.170659 0.75 0.5 0.16667 0.631579 0 0.341317 0 0.341316 0.953488 0.395348 0.294575 0 
1 19 0.423775 0.247429 0.474942 0.5 0.44186 0.375 0.410526 0.284432 0.5 0.5 0 0.631579 0.189473 0.341317 0.227545 0.0884887 0.488371 0.395348 0.0490951 1 
2 2 0.448715 0.275169 0.703123 0.75 0.651163 0.875 0.421052 0.220283 0.75 0.75 0 0.421052 0.421052 0.220283 0.220283 0 0.651163 0.651163 0 1 
2 3 0.62101 0.582867 0.828458 0.875 0.825581 0.625 0.302632 0.152348 1 0.75 0.14286 0.421052 0.184211 0.220283 0.0844131 0.122854 1 0.651163 0.14102 1 
2 4 0.488109 0.250726 0.699038 0.75 0.581395 0.5 0.421052 0.294675 0.75 0.75 0 0.421052 0.421052 0.369066 0.220283 0.116546 0.651163 0.511627 0.0646618 1 
2 5 0.448715 0.326522 0.58598 0.625 0.546512 0.375 0.378947 0.250861 0.75 0.5 0.16667 0.421052 0.336842 0.281438 0.220283 0.0479039 0.651163 0.44186 0.10465 1 
2 6 0.448715 0.238788 0.580555 0.625 0.453488 0.375 0.452631 0.394573 0.75 0.5 0.16667 0.48421 0.421052 0.568863 0.220283 0.273056 0.651163 0.255814 0.250389 1 
2 7 0.376178 0.164935 0.351561 0.375 0.372092 0.125 0.526315 0.305535 0.75 0 0.75 0.631579 0.421052 0.390785 0.220283 0.133557 0.651163 0.0930231 0.461072 1 
2 8 0.529785 0.448683 0.719946 0.75 0.488371 0.25 0.263158 0.435945 0.75 0.75 0 0.421052 0.105263 0.651607 0.220283 0.337868 0.651163 0.325581 0.187455 0 
2 9 0.448715 0.279894 0.464927 0.5 0.395348 0.25 0.231578 0.394573 0.75 0.25 0.4 0.421052 0.042105 0.568863 0.220283 0.273056 0.651163 0.139535 0.388837 0 
2 10 0.488109 0.422246 0.735011 0.75 0.627906 0 0.315789 0.242876 0.75 0.75 0 0.421052 0.210527 0.265469 0.220283 0.0353923 0.651163 0.60465 0.0196363 1 
2 11 0.310919 0.19614 0.504985 0.5 0.348837 0 0.563158 0.524599 0.75 0.25 0.4 0.705263 0.421052 0.828914 0.220283 0.476761 0.651163 0.0465116 0.547067 0 
2 12 0.224357 0.137584 0.380309 0.375 0.383721 0 0.710526 0.2808 0.75 0 0.75 1 0.421052 0.341317 0.220283 0.0948122 0.651163 0.116279 0.423448 0 
2 13 0.411471 0.284083 0.625884 0.625 0.581395 0 0.452631 0.211428 0.75 0.5 0.16667 0.48421 0.421052 0.220283 0.202572 0.0141203 0.651163 0.511627 0.0646618 0 
2 14 0.448715 0.430204 0.746497 0.75 0.674419 0 0.315789 0.199534 0.75 0.75 0 0.421052 0.210527 0.220283 0.178786 0.0338871 0.697675 0.651163 0.0188011 0 
2 15 0.411471 0.568052 0.50224 0.5 0.372092 0.25 0.231578 0.453932 0.75 0.25 0.4 0.421052 0.042105 0.687582 0.220283 0.366052 0.651163 0.0930231 0.461072 0 
2 16 0.724374 0.637579 0.851561 0.875 0.593023 0.125 0.223683 0.362066 1 0.75 0.14286 0.421052 0.0263163 0.503851 0.220283 0.222126 0.651163 0.534883 0.0526034 0 
2 17 0.411471 0.193273 0.353253 0.375 0.348837 0.125 0.526315 0.362066 0.75 0 0.75 0.631579 0.421052 0.503851 0.220283 0.222126 0.651163 0.0465116 0.547067 0 
2 18 0.574009 0.451907 0.710985 0.75 0.802325 0.5 0.210527 0.110141 0.75 0.75 0 0.421052 0 0.220283 0 0.220286 0.953488 0.651163 0.122218 0 
2 19 0.529785 0.364835 0.595753 0.625 0.569767 0.25 0.305263 0.223915 0.75 0.5 0.16667 0.421052 0.189473 0.227545 0.220283 0.00568634 0.651163 0.488371 0.0773255 1 
3 3 0.793272 0.890564 0.953815 1 1 1 0.184211 0.0844131 1 1 0 0.184211 0.184211 0.0844131 0.0844131 0 1 1 0 1 
3 4 0.660371 0.558424 0.824395 0.875 0.755814 0.625 0.302632 0.226741 1 0.75 0.14286 0.421052 0.184211 0.369066 0.0844131 0.257375 1 0.511627 0.226321 1 
3 5 0.62101 0.634219 0.711337 0.75 0.720931 0.375 0.260525 0.182924 1 0.5 0.33333 0.336842 0.184211 0.281438 0.0844131 0.17814 1 0.44186 0.27907 1 
3 6 0.62101 0.546486 0.705912 0.75 0.627906 0.375 0.33421 0.326637 1 0.5 0.33333 0.48421 0.184211 0.568863 0.0844131 0.438024 1 0.255814 0.471319 1 
3 7 0.548474 0.472633 0.476896 0.5 0.546512 0.125 0.407894 0.237598 1 0 1 0.631579 0.184211 0.390785 0.0844131 0.277014 1 0.0930231 0.74924 1 
3 8 0.702081 0.756381 0.845302 0.875 0.66279 0.25 0.144736 0.36801 1 0.75 0.14286 0.184211 0.105263 0.651607 0.0844131 0.512838 1 0.325581 0.388302 0 
3 9 0.62101 0.587591 0.590284 0.625 0.569767 0.375 0.113157 0.326637 1 0.25 0.6 0.184211 0.042105 0.568863 0.0844131 0.438024 1 0.139535 0.653953 0 
3 10 0.660371 0.729943 0.860368 0.875 0.802325 0 0.197369 0.174941 1 0.75 0.14286 0.210527 0.184211 0.265469 0.0844131 0.163709 1 0.60465 0.166926 1 
3 11 0.483181 0.503837 0.630342 0.625 0.523256 0.125 0.444736 0.456663 1 0.25 0.6 0.705263 0.184211 0.828914 0.0844131 0.673155 1 0.0465116 0.862679 0 
3 12 0.396653 0.445281 0.505644 0.5 0.558139 0.125 0.592104 0.212865 1 0 1 1 0.184211 0.341317 0.0844131 0.232288 1 0.116279 0.69961 0 
3 13 0.583766 0.591781 0.751241 0.75 0.755814 0.125 0.33421 0.143492 1 0.5 0.33333 0.48421 0.184211 0.202572 0.0844131 0.106838 1 0.511627 0.226321 0 
3 14 0.62101 0.737902 0.871854 0.875 0.848837 0 0.197369 0.131599 1 0.75 0.14286 0.210527 0.184211 0.178786 0.0844131 0.085327 1 0.697675 0.11723 0 
3 15 0.583766 0.875749 0.627597 0.625 0.546512 0.125 0.113157 0.385997 1 0.25 0.6 0.184211 0.042105 0.687582 0.0844131 0.545363 1 0.0930231 0.74924 0 
3 16 0.896636 0.945277 0.976896 1 0.767442 0.125 0.105263 0.294131 1 1 0 0.184211 0.0263163 0.503851 0.0844131 0.379241 1 0.534883 0.210409 0 
3 17 0.583766 0.500971 0.478587 0.5 0.523256 0.125 0.407894 0.294131 1 0 1 0.631579 0.184211 0.503851 0.0844131 0.379241 1 0.0465116 0.862679 0 
3 18 0.746304 0.759604 0.83632 0.875 0.976744 0.25 0.0921053 0.0422066 1 0.75 0.14286 0.184211 0 0.0844131 0 0.0844111 1 0.953488 0.0147272 0 
3 19 0.702081 0.672532 0.72111 0.75 0.744186 0.5 0.186841 0.155978 1 0.5 0.33333 0.189473 0.184211 0.227545 0.0844131 0.129416 1 0.488371 0.243023 1 
4 4 0.52747 0.226284 0.694975 0.75 0.511627 0.875 0.421052 0.369066 0.75 0.75 0 0.421052 0.421052 0.369066 0.369066 0 0.511627 0.511627 0 1 
4 5 0.488109 0.302079 0.581917 0.625 0.476744 0.375 0.378947 0.325252 0.75 0.5 0.16667 0.421052 0.336842 0.369066 0.281438 0.0647479 0.511627 0.44186 0.0348849 1 
4 6 0.488109 0.214346 0.576492 0.625 0.383721 0.5 0.452631 0.468964 0.75 0.5 0.16667 0.48421 0.421052 0.568863 0.369066 0.136528 0.511627 0.255814 0.162017 1 
4 7 0.415572 0.140492 0.347477 0.375 0.302325 0.125 0.526315 0.379926 0.75 0 0.75 0.631579 0.421052 0.390785 0.369066 0.0148371 0.511627 0.0930231 0.345804 1 
4 8 0.569179 0.424241 0.715883 0.75 0.418604 0.375 0.263158 0.510337 0.75 0.75 0 0.421052 0.105263 0.651607 0.369066 0.193065 0.511627 0.325581 0.107116 0 
4 9 0.488109 0.255462 0.460864 0.5 0.325581 0.25 0.231578 0.468964 0.75 0.25 0.4 0.421052 0.042105 0.568863 0.369066 0.136528 0.511627 0.139535 0.28279 0 
4 10 0.52747 0.397803 0.730948 0.75 0.558139 0.125 0.315789 0.317269 0.75 0.75 0 0.421052 0.210527 0.369066 0.265469 0.0776974 0.60465 0.511627 0.0431079 1 
4 11 0.350279 0.171697 0.500922 0.5 0.279069 0 0.563158 0.59899 0.75 0.25 0.4 0.705263 0.421052 0.828914 0.369066 0.31423 0.511627 0.0465116 0.420819 0 
4 12 0.263752 0.113141 0.376224 0.375 0.313954 0 0.710526 0.355193 0.75 0 0.75 1 0.421052 0.369066 0.341317 0.0194244 0.511627 0.116279 0.312983 0 
4 13 0.450865 0.25964 0.621821 0.625 0.511627 0 0.452631 0.285819 0.75 0.5 0.16667 0.48421 0.421052 0.369066 0.202572 0.132737 0.511627 0.511627 0 0 
4 14 0.488109 0.405761 0.742434 0.75 0.60465 0 0.315789 0.273927 0.75 0.75 0 0.421052 0.210527 0.369066 0.178786 0.155395 0.697675 0.511627 0.0862157 0 
4 15 0.450865 0.543609 0.498177 0.5 0.302325 0.125 0.231578 0.528325 0.75 0.25 0.4 0.421052 0.042105 0.687582 0.369066 0.21765 0.511627 0.0930231 0.345804 0 
4 16 0.763735 0.613147 0.847477 0.875 0.523256 0.125 0.223683 0.436458 1 0.75 0.14286 0.421052 0.0263163 0.503851 0.369066 0.0921044 0.534883 0.511627 0.010777 0 
4 17 0.450865 0.16883 0.349168 0.375 0.279069 0.125 0.526315 0.436458 0.75 0 0.75 0.631579 0.421052 0.503851 0.369066 0.0921044 0.511627 0.0465116 0.420819 0 
4 18 0.613403 0.427464 0.7069 0.75 0.732558 0.375 0.210527 0.184534 0.75 0.75 0 0.421052 0 0.369066 0 0.369063 0.953488 0.511627 0.204762 0 
4 19 0.569179 0.340392 0.59169 0.625 0.5 0.375 0.305263 0.298306 0.75 0.5 0.16667 0.421052 0.189473 0.369066 0.227545 0.110071 0.511627 0.488371 0.0110465 1 
5 5 0.448715 0.377864 0.468858 0.5 0.44186 0.75 0.336842 0.281438 0.5 0.5 0 0.336842 0.336842 0.281438 0.281438 0 0.44186 0.44186 0 1 
5 6 0.448715 0.290141 0.463434 0.5 0.348837 0.5 0.410526 0.42515 0.5 0.5 0 0.48421 0.336842 0.568863 0.281438 0.212378 0.44186 0.255814 0.117831 1 
5 7 0.376178 0.216278 0.234418 0.25 0.267441 0.125 0.48421 0.336111 0.5 0 0.5 0.631579 0.336842 0.390785 0.281438 0.0807955 0.44186 0.0930231 0.288168 1 
5 8 0.529785 0.500026 0.602824 0.625 0.383721 0.25 0.221053 0.466521 0.75 0.5 0.16667 0.336842 0.105263 0.651607 0.281438 0.27351 0.44186 0.325581 0.0669506 0 
5 9 0.448715 0.331247 0.347806 0.375 0.290698 0.375 0.189473 0.42515 0.5 0.25 0.2 0.336842 0.042105 0.568863 0.281438 0.212378 0.44186 0.139535 0.229767 0 
5 10 0.488109 0.473588 0.617868 0.625 0.523256 0.25 0.273683 0.273454 0.75 0.5 0.16667 0.336842 0.210527 0.281438 0.265469 0.011978 0.60465 0.44186 0.081395 1 
5 11 0.310919 0.247492 0.387864 0.375 0.244185 0 0.521053 0.555176 0.5 0.25 0.2 0.705263 0.336842 0.828914 0.281438 0.404527 0.44186 0.0465116 0.357695 0 
5 12 0.224357 0.188937 0.263166 0.25 0.279069 0 0.668421 0.311378 0.5 0 0.5 1 0.336842 0.341317 0.281438 0.0442484 0.44186 0.116279 0.25775 0 
5 13 0.411471 0.335436 0.508763 0.5 0.476744 0 0.410526 0.242005 0.5 0.5 0 0.48421 0.336842 0.281438 0.202572 0.0628763 0.511627 0.44186 0.0348849 0 
5 14 0.448715 0.481547 0.629376 0.625 0.569767 0.125 0.273683 0.230112 0.75 0.5 0.16667 0.336842 0.210527 0.281438 0.178786 0.0838298 0.697675 0.44186 0.127905 0 
5 15 0.411471 0.619394 0.385119 0.375 0.267441 0.125 0.189473 0.484509 0.5 0.25 0.2 0.336842 0.042105 0.687582 0.281438 0.300094 0.44186 0.0930231 0.288168 0 
5 16 0.724374 0.688932 0.734418 0.75 0.488371 0.25 0.181578 0.392644 1 0.5 0.33333 0.336842 0.0263163 0.503851 0.281438 0.164339 0.534883 0.44186 0.0465102 0 
5 17 0.411471 0.244626 0.236109 0.25 0.244185 0 0.48421 0.392644 0.5 0 0.5 0.631579 0.336842 0.503851 0.281438 0.164339 0.44186 0.0465116 0.357695 0 
5 18 0.574009 0.50326 0.593842 0.625 0.697675 0.25 0.16842 0.14072 0.75 0.5 0.16667 0.336842 0 0.281438 0 0.281434 0.953488 0.44186 0.255815 0 
5 19 0.529785 0.416177 0.478631 0.5 0.465116 0.125 0.263158 0.254491 0.5 0.5 0 0.336842 0.189473 0.281438 0.227545 0.0419149 0.488371 0.44186 0.0232551 1 
6 6 0.448715 0.202408 0.458009 0.5 0.255814 0.75 0.48421 0.568863 0.5 0.5 0 0.48421 0.48421 0.568863 0.568863 0 0.255814 0.255814 0 1 
6 7 0.376178 0.128554 0.228994 0.25 0.174418 0.25 0.557895 0.479824 0.5 0 0.5 0.631579 0.48421 0.568863 0.390785 0.119461 0.255814 0.0930231 0.13448 1 
6 8 0.529785 0.412303 0.5974 0.625 0.290698 0.25 0.294737 0.610234 0.75 0.5 0.16667 0.48421 0.105263 0.651607 0.568863 0.0482702 0.325581 0.255814 0.044186 0 
6 9 0.448715 0.243513 0.342382 0.375 0.197673 0.25 0.263158 0.568863 0.5 0.25 0.2 0.48421 0.042105 0.568863 0.568863 0 0.255814 0.139535 0.088372 0 
6 10 0.488109 0.385865 0.612465 0.625 0.430233 0.25 0.347368 0.417167 0.75 0.5 0.16667 0.48421 0.210527 0.568863 0.265469 0.227541 0.60465 0.255814 0.22093 1 
6 11 0.310919 0.159759 0.382439 0.375 0.151162 0 0.594737 0.698888 0.5 0.25 0.2 0.705263 0.48421 0.828914 0.568863 0.1517 0.255814 0.0465116 0.189368 0 
6 12 0.224357 0.101203 0.257741 0.25 0.186046 0 0.742105 0.455091 0.5 0 0.5 1 0.48421 0.568863 0.341317 0.159281 0.255814 0.116279 0.110465 0 
6 13 0.411471 0.247702 0.503338 0.5 0.383721 0 0.48421 0.385717 0.5 0.5 0 0.48421 0.48421 0.568863 0.202572 0.292018 0.511627 0.255814 0.162017 0 
6 14 0.448715 0.393824 0.623951 0.625 0.476744 0.125 0.347368 0.373825 0.75 0.5 0.16667 0.48421 0.210527 0.568863 0.178786 0.318563 0.697675 0.255814 0.279843 0 
6 15 0.411471 0.531671 0.379694 0.375 0.174418 0.125 0.263158 0.628221 0.5 0.25 0.2 0.48421 0.042105 0.687582 0.568863 0.0692555 0.255814 0.0930231 0.13448 0 
6 16 0.724374 0.601209 0.728994 0.75 0.395348 0.125 0.255262 0.536357 1 0.5 0.33333 0.48421 0.0263163 0.568863 0.503851 0.0398203 0.534883 0.255814 0.176744 0 
6 17 0.411471 0.156893 0.230685 0.25 0.151162 0 0.557895 0.536357 0.5 0 0.5 0.631579 0.48421 0.568863 0.503851 0.0398203 0.255814 0.0465116 0.189368 0 
6 18 0.574009 0.415526 0.588417 0.625 0.60465 0.375 0.242104 0.284432 0.75 0.5 0.16667 0.48421 0 0.568863 0 0.568865 0.953488 0.255814 0.44186 0 
6 19 0.529785 0.328454 0.473207 0.5 0.372092 0.125 0.336842 0.398204 0.5 0.5 0 0.48421 0.189473 0.568863 0.227545 0.265466 0.488371 0.255814 0.147285 1 
7 7 0.303642 0.054697 0 0 0.0930231 0.5 0.631579 0.390785 0 0 0 0.631579 0.631579 0.390785 0.390785 0 0.0930231 0.0930231 0 1 
7 8 0.457249 0.338449 0.368406 0.375 0.209302 0.375 0.368421 0.521195 0.75 0 0.75 0.631579 0.105263 0.651607 0.390785 0.174971 0.325581 0.0930231 0.192112 0 
7 9 0.376178 0.16966 0.113366 0.125 0.116279 0.25 0.336842 0.479824 0.25 0 0.25 0.631579 0.042105 0.568863 0.390785 0.119461 0.139535 0.0930231 0.0384242 0 
7 10 0.415572 0.312012 0.38345 0.375 0.348837 0.25 0.421052 0.328126 0.75 0 0.75 0.631579 0.210527 0.390785 0.265469 0.0939839 0.60465 0.0930231 0.422648 1 
7 11 0.238382 0.0859056 0.153424 0.125 0.0697673 0.125 0.668421 0.609849 0.25 0 0.25 0.705263 0.631579 0.828914 0.390785 0.293914 0.0930231 0.0465116 0.0420828 0 
7 12 0.151821 0.027349 0.0287477 0 0.10465 0 0.815789 0.36605 0 0 0 1 0.631579 0.390785 0.341317 0.0346278 0.116279 0.0930231 0.0192121 0 
7 13 0.338934 0.173849 0.274322 0.25 0.302325 0.25 0.557895 0.296678 0.5 0 0.5 0.631579 0.48421 0.390785 0.202572 0.150051 0.511627 0.0930231 0.345804 0 
7 14 0.376178 0.31996 0.394936 0.375 0.395348 0.375 0.421052 0.284784 0.75 0 0.75 0.631579 0.210527 0.390785 0.178786 0.173131 0.697675 0.0930231 0.499492 0 
7 15 0.338934 0.457818 0.150679 0.125 0.0930231 0 0.336842 0.539182 0.25 0 0.25 0.631579 0.042105 0.687582 0.390785 0.199102 0.0930231 0.0930231 0 0 
7 16 0.651837 0.527345 0.5 0.5 0.313954 0.25 0.328947 0.447318 1 0 1 0.631579 0.0263163 0.503851 0.390785 0.0758498 0.534883 0.0930231 0.365016 0 
7 17 0.338934 0.0830393 0.00169104 0 0.0697673 0.125 0.631579 0.447318 0 0 0 0.631579 0.631579 0.503851 0.390785 0.0758498 0.0930231 0.0465116 0.0420828 0 
7 18 0.501472 0.341673 0.359424 0.375 0.523256 0.125 0.315789 0.195391 0.75 0 0.75 0.631579 0 0.390785 0 0.390781 0.953488 0.0930231 0.71082 0 
7 19 0.457249 0.254601 0.244191 0.25 0.290698 0.125 0.410526 0.309165 0.5 0 0.5 0.631579 0.189473 0.390785 0.227545 0.126963 0.488371 0.0930231 0.326592 1 
8 8 0.610856 0.622198 0.73679 0.75 0.325581 0.875 0.105263 0.651607 0.75 0.75 0 0.105263 0.105263 0.651607 0.651607 0 0.325581 0.325581 0 1 
8 9 0.529785 0.453408 0.481772 0.5 0.232558 0.25 0.0736842 0.610234 0.75 0.25 0.4 0.105263 0.042105 0.651607 0.568863 0.0482702 0.325581 0.139535 0.141395 1 
8 10 0.569179 0.59576 0.751856 0.75 0.465116 0.5 0.157894 0.458538 0.75 0.75 0 0.210527 0.105263 0.651607 0.265469 0.289605 0.60465 0.325581 0.160678 0 
8 11 0.391989 0.369654 0.52183 0.5 0.186046 0.25 0.405263 0.740259 0.75 0.25 0.4 0.705263 0.105263 0.828914 0.651607 0.09752 0.325581 0.0465116 0.252492 1 
8 12 0.305428 0.311098 0.397132 0.375 0.220929 0.125 0.552632 0.496462 0.75 0 0.75 1 0.105263 0.651607 0.341317 0.217204 0.325581 0.116279 0.165698 1 
8 13 0.492541 0.457597 0.642729 0.625 0.418604 0.375 0.294737 0.427088 0.75 0.5 0.16667 0.48421 0.105263 0.651607 0.202572 0.357977 0.511627 0.325581 0.107116 1 
8 14 0.529785 0.603708 0.763342 0.75 0.511627 0.25 0.157894 0.415196 0.75 0.75 0 0.210527 0.105263 0.651607 0.178786 0.386138 0.697675 0.325581 0.214236 1 
8 15 0.492541 0.741566 0.519085 0.5 0.209302 0 0.0736842 0.669594 0.75 0.25 0.4 0.105263 0.042105 0.687582 0.651607 0.0197827 0.325581 0.0930231 0.192112 1 
8 16 0.805444 0.811094 0.868406 0.875 0.430233 0.375 0.065789 0.577728 1 0.75 0.14286 0.105263 0.0263163 0.651607 0.503851 0.0905036 0.534883 0.325581 0.120508 1 
8 17 0.492541 0.366787 0.370075 0.375 0.186046 0.25 0.368421 0.577728 0.75 0 0.75 0.631579 0.105263 0.651607 0.503851 0.0905036 0.325581 0.0465116 0.252492 1 
8 18 0.655079 0.625421 0.727808 0.75 0.639535 0.25 0.0526308 0.325803 0.75 0.75 0 0.105263 0 0.651607 0 0.651604 0.953488 0.325581 0.361521 1 
8 19 0.610856 0.538349 0.612597 0.625 0.406977 0.125 0.147368 0.439575 0.75 0.5 0.16667 0.189473 0.105263 0.651607 0.227545 0.329824 0.488371 0.325581 0.0937274 0 
9 9 0.448715 0.284629 0.226754 0.25 0.139535 0.625 0.042105 0.568863 0.25 0.25 0 0.042105 0.042105 0.568863 0.568863 0 0.139535 0.139535 0 1 
9 10 0.488109 0.42697 0.496816 0.5 0.372092 0.125 0.126315 0.417167 0.75 0.25 0.4 0.210527 0.042105 0.568863 0.265469 0.227541 0.60465 0.139535 0.353488 0 
9 11 0.310919 0.200875 0.266812 0.25 0.0930231 0.125 0.373684 0.698888 0.25 0.25 0 0.705263 0.042105 0.828914 0.568863 0.1517 0.139535 0.0465116 0.0841655 1 
9 12 0.224357 0.142319 0.142114 0.125 0.127906 0 0.521053 0.455091 0.25 0 0.25 1 0.042105 0.568863 0.341317 0.159281 0.139535 0.116279 0.0184123 1 
9 13 0.411471 0.288818 0.38771 0.375 0.325581 0.125 0.263158 0.385717 0.5 0.25 0.2 0.48421 0.042105 0.568863 0.202572 0.292018 0.511627 0.139535 0.28279 1 
9 14 0.448715 0.434929 0.508301 0.5 0.418604 0.25 0.126315 0.373825 0.75 0.25 0.4 0.210527 0.042105 0.568863 0.178786 0.318563 0.697675 0.139535 0.424186 1 
9 15 0.411471 0.572777 0.264066 0.25 0.116279 0 0.042105 0.628221 0.25 0.25 0 0.042105 0.042105 0.687582 0.568863 0.0692555 0.139535 0.0930231 0.0384242 1 
9 16 0.724374 0.642315 0.613366 0.625 0.33721 0.375 0.0342097 0.536357 1 0.25 0.6 0.042105 0.0263163 0.568863 0.503851 0.0398203 0.534883 0.139535 0.300465 1 
9 17 0.411471 0.198008 0.115057 0.125 0.0930231 0.125 0.336842 0.536357 0.25 0 0.25 0.631579 0.042105 0.568863 0.503851 0.0398203 0.139535 0.0465116 0.0841655 1 
9 18 0.574009 0.456642 0.47279 0.5 0.546512 0.125 0.0210516 0.284432 0.75 0.25 0.4 0.042105 0 0.568863 0 0.568865 0.953488 0.139535 0.618604 1 
9 19 0.529785 0.369559 0.357579 0.375 0.313954 0.125 0.115789 0.398204 0.5 0.25 0.2 0.189473 0.042105 0.568863 0.227545 0.265466 0.488371 0.139535 0.265116 0 
10 10 0.52747 0.569322 0.766899 0.75 0.60465 0.875 0.210527 0.265469 0.75 0.75 0 0.210527 0.210527 0.265469 0.265469 0 0.60465 0.60465 0 1 
10 11 0.350279 0.343216 0.536874 0.5 0.325581 0.25 0.457894 0.547192 0.75 0.25 0.4 0.705263 0.210527 0.828914 0.265469 0.422581 0.60465 0.0465116 0.504984 0 
10 12 0.263752 0.284661 0.412197 0.375 0.360465 0.375 0.605263 0.303393 0.75 0 0.75 1 0.210527 0.341317 0.265469 0.0568873 0.60465 0.116279 0.386628 0 
10 13 0.450865 0.43116 0.657794 0.625 0.558139 0.375 0.347368 0.23402 0.75 0.5 0.16667 0.48421 0.210527 0.265469 0.202572 0.0501418 0.60465 0.511627 0.0431079 0 
10 14 0.488109 0.57727 0.778385 0.75 0.651163 0.5 0.210527 0.222127 0.75 0.75 0 0.210527 0.210527 0.265469 0.178786 0.0707926 0.697675 0.60465 0.0392769 0 
10 15 0.450865 0.715128 0.534128 0.5 0.348837 0.25 0.126315 0.476525 0.75 0.25 0.4 0.210527 0.042105 0.687582 0.265469 0.316588 0.60465 0.0930231 0.422648 0 
10 16 0.763735 0.784656 0.88345 0.875 0.569767 0.5 0.118422 0.384659 1 0.75 0.14286 0.210527 0.0263163 0.503851 0.265469 0.178785 0.60465 0.534883 0.0315621 0 
10 17 0.450865 0.34035 0.385141 0.375 0.325581 0.25 0.421052 0.384659 0.75 0 0.75 0.631579 0.210527 0.503851 0.265469 0.178785 0.60465 0.0465116 0.504984 0 
10 18 0.613403 0.598983 0.742873 0.75 0.779069 0.25 0.105263 0.132735 0.75 0.75 0 0.210527 0 0.265469 0 0.265466 0.953488 0.60465 0.147285 0 
10 19 0.569179 0.511911 0.627641 0.625 0.546512 0.125 0.199999 0.246508 0.75 0.5 0.16667 0.210527 0.189473 0.265469 0.227545 0.0294989 0.60465 0.488371 0.0552325 1 
11 11 0.173089 0.117121 0.30687 0.25 0.0465116 0.625 0.705263 0.828914 0.25 0.25 0 0.705263 0.705263 0.828914 0.828914 0 0.0465116 0.0465116 0 1 
11 12 0.086561 0.0585545 0.182172 0.125 0.0813945 0.375 0.852632 0.585116 0.25 0 0.25 1 0.705263 0.828914 0.341317 0.341316 0.116279 0.0465116 0.0631241 1 
11 13 0.273674 0.205064 0.427768 0.375 0.279069 0.5 0.594737 0.515743 0.5 0.25 0.2 0.705263 0.48421 0.828914 0.202572 0.499331 0.511627 0.0465116 0.420819 1 
11 14 0.310919 0.351175 0.548359 0.5 0.372092 0.375 0.457894 0.503851 0.75 0.25 0.4 0.705263 0.210527 0.828914 0.178786 0.53094 0.697675 0.0465116 0.589145 1 
11 15 0.273674 0.489022 0.304124 0.25 0.0697673 0.25 0.373684 0.758247 0.25 0.25 0 0.705263 0.042105 0.828914 0.687582 0.0758498 0.0930231 0.0465116 0.0420828 1 
11 16 0.586545 0.55856 0.653424 0.625 0.290698 0.375 0.365789 0.666382 1 0.25 0.6 0.705263 0.0263163 0.828914 0.503851 0.199102 0.534883 0.0465116 0.44186 1 
11 17 0.273674 0.114244 0.155115 0.125 0.0465116 0.125 0.668421 0.666382 0.25 0 0.25 0.705263 0.631579 0.828914 0.503851 0.199102 0.0465116 0.0465116 0 1 
11 18 0.436212 0.372877 0.512848 0.5 0.5 0 0.352631 0.414458 0.75 0.25 0.4 0.705263 0 0.828914 0 0.828916 0.953488 0.0465116 0.820596 1 
11 19 0.391989 0.285805 0.397637 0.375 0.267441 0 0.447368 0.52823 0.5 0.25 0.2 0.705263 0.189473 0.828914 0.227545 0.46773 0.488371 0.0465116 0.399777 0 
12 12 0 0 0.0574955 0 0.116279 0.5 1 0.341317 0 0 0 1 1 0.341317 0.341317 0 0.116279 0.116279 0 1 
12 13 0.187113 0.146498 0.30307 0.25 0.313954 0.375 0.742105 0.271944 0.5 0 0.5 1 0.48421 0.341317 0.202572 0.110613 0.511627 0.116279 0.312983 1 
12 14 0.224357 0.292619 0.423683 0.375 0.406977 0.25 0.605263 0.260051 0.75 0 0.75 1 0.210527 0.341317 0.178786 0.132737 0.697675 0.116279 0.460272 1 
12 15 0.187113 0.430467 0.179426 0.125 0.10465 0.25 0.521053 0.514449 0.25 0 0.25 1 0.042105 0.687582 0.341317 0.242386 0.116279 0.0930231 0.0192121 1 
12 16 0.500017 0.500005 0.528748 0.5 0.325581 0.25 0.513157 0.422583 1 0 1 1 0.0263163 0.503851 0.341317 0.113775 0.534883 0.116279 0.331395 1 
12 17 0.187113 0.0556881 0.0304168 0 0.0813945 0.125 0.815789 0.422583 0 0 0 1 0.631579 0.503851 0.341317 0.113775 0.116279 0.0465116 0.0631241 1 
12 18 0.349651 0.314322 0.38815 0.375 0.534883 0 0.499999 0.170659 0.75 0 0.75 1 0 0.341317 0 0.341316 0.953488 0.116279 0.66279 1 
12 19 0.305428 0.227249 0.272939 0.25 0.302325 0 0.594737 0.284432 0.5 0 0.5 1 0.189473 0.341317 0.227545 0.0884887 0.488371 0.116279 0.294575 0 
13 13 0.374227 0.293008 0.548667 0.5 0.511627 0.75 0.48421 0.202572 0.5 0.5 0 0.48421 0.48421 0.202572 0.202572 0 0.511627 0.511627 0 1 
13 14 0.411471 0.439118 0.66928 0.625 0.60465 0.5 0.347368 0.190678 0.75 0.5 0.16667 0.48421 0.210527 0.202572 0.178786 0.0194244 0.697675 0.511627 0.0862157 1 
13 15 0.374227 0.576966 0.425023 0.375 0.302325 0.25 0.263158 0.445076 0.5 0.25 0.2 0.48421 0.042105 0.687582 0.202572 0.386663 0.511627 0.0930231 0.345804 1 
13 16 0.68713 0.646504 0.774344 0.75 0.523256 0.25 0.255262 0.353211 1 0.5 0.33333 0.48421 0.0263163 0.503851 0.202572 0.240188 0.534883 0.511627 0.010777 1 
13 17 0.374227 0.202198 0.276014 0.25 0.279069 0.25 0.557895 0.353211 0.5 0 0.5 0.631579 0.48421 0.503851 0.202572 0.240188 0.511627 0.0465116 0.420819 1 
13 18 0.536764 0.460821 0.633746 0.625 0.732558 0.125 0.242104 0.101285 0.75 0.5 0.16667 0.48421 0 0.202572 0 0.202574 0.953488 0.511627 0.204762 1 
13 19 0.492541 0.373749 0.518536 0.5 0.5 0.125 0.336842 0.215059 0.5 0.5 0 0.48421 0.189473 0.227545 0.202572 0.0199102 0.511627 0.488371 0.0110465 0 
14 14 0.448715 0.585229 0.789871 0.75 0.697675 0.875 0.210527 0.178786 0.75 0.75 0 0.210527 0.210527 0.178786 0.178786 0 0.697675 0.697675 0 1 
14 15 0.411471 0.723076 0.545636 0.5 0.395348 0.375 0.126315 0.433184 0.75 0.25 0.4 0.210527 0.042105 0.687582 0.178786 0.415517 0.697675 0.0930231 0.499492 1 
14 16 0.724374 0.792614 0.894936 0.875 0.616279 0.5 0.118422 0.341317 1 0.75 0.14286 0.210527 0.0263163 0.503851 0.178786 0.265466 0.697675 0.534883 0.0736448 1 
14 17 0.411471 0.348308 0.396627 0.375 0.372092 0.125 0.421052 0.341317 0.75 0 0.75 0.631579 0.210527 0.503851 0.178786 0.265466 0.697675 0.0465116 0.589145 1 
14 18 0.574009 0.606942 0.754359 0.75 0.825581 0.25 0.105263 0.0893928 0.75 0.75 0 0.210527 0 0.178786 0 0.178785 0.953488 0.697675 0.0991932 1 
14 19 0.529785 0.519859 0.639127 0.625 0.593023 0.25 0.199999 0.203166 0.75 0.5 0.16667 0.210527 0.189473 0.227545 0.178786 0.0398203 0.697675 0.488371 0.0994185 0 
15 15 0.374227 0.860935 0.301379 0.25 0.0930231 0.625 0.042105 0.687582 0.25 0.25 0 0.042105 0.042105 0.687582 0.687582 0 0.0930231 0.0930231 0 1 
15 16 0.68713 0.930462 0.650679 0.625 0.313954 0.125 0.0342097 0.595715 1 0.25 0.6 0.042105 0.0263163 0.687582 0.503851 0.112532 0.534883 0.0930231 0.365016 1 
15 17 0.374227 0.486156 0.15237 0.125 0.0697673 0 0.336842 0.595715 0.25 0 0.25 0.631579 0.042105 0.687582 0.503851 0.112532 0.0930231 0.0465116 0.0420828 1 
15 18 0.536764 0.744789 0.510102 0.5 0.523256 0.125 0.0210516 0.343791 0.75 0.25 0.4 0.042105 0 0.687582 0 0.687578 0.953488 0.0930231 0.71082 1 
15 19 0.492541 0.657717 0.394892 0.375 0.290698 0.125 0.115789 0.457563 0.5 0.25 0.2 0.189473 0.042105 0.687582 0.227545 0.35781 0.488371 0.0930231 0.326592 0 
16 16 1 1 1 1 0.534883 1 0.0263163 0.503851 1 1 0 0.0263163 0.0263163 0.503851 0.503851 0 0.534883 0.534883 0 1 
16 17 0.68713 0.555694 0.501691 0.5 0.290698 0.375 0.328947 0.503851 1 0 1 0.631579 0.0263163 0.503851 0.503851 0 0.534883 0.0465116 0.44186 1 
16 18 0.849668 0.814327 0.859424 0.875 0.744186 0.25 0.0131582 0.251924 1 0.75 0.14286 0.0263163 0 0.503851 0 0.503847 0.953488 0.534883 0.189368 1 
16 19 0.805444 0.727245 0.744191 0.75 0.511627 0.25 0.107894 0.365698 1 0.5 0.33333 0.189473 0.0263163 0.503851 0.227545 0.214902 0.534883 0.488371 0.022093 0 
17 17 0.374227 0.111377 0.00336013 0 0.0465116 0.5 0.631579 0.503851 0 0 0 0.631579 0.631579 0.503851 0.503851 0 0.0465116 0.0465116 0 1 
17 18 0.536764 0.370011 0.361093 0.375 0.5 0.25 0.315789 0.251924 0.75 0 0.75 0.631579 0 0.503851 0 0.503847 0.953488 0.0465116 0.820596 1 
17 19 0.492541 0.282939 0.245882 0.25 0.267441 0.25 0.410526 0.365698 0.5 0 0.5 0.631579 0.189473 0.503851 0.227545 0.214902 0.488371 0.0465116 0.399777 0 
18 18 0.699302 0.628644 0.718825 0.75 0.953488 0.875 0 0 0.75 0.75 0 0 0 0 0 0 0.953488 0.953488 0 1 
18 19 0.655079 0.541572 0.603615 0.625 0.720931 0.375 0.0947358 0.113774 0.75 0.5 0.16667 0.189473 0 0.227545 0 0.227541 0.953488 0.488371 0.22093 0 
19 19 0.610856 0.4545 0.488404 0.5 0.488371 0.75 0.189473 0.227545 0.5 0.5 0 0.189473 0.189473 0.227545 0.227545 0 0.488371 0.488371 0 1 
