0 0 0.663078 0.495541 0.487484 0.5 0.090909 0.75 0.222223 0.650299 0.5 0.5 0 0.222223 0.222223 0.650299 0.650299 0 0.090909 0.090909 0 1 
0 1 0.331539 0.247772 0.255251 0.25 0.090909 0.125 0.611111 0.444592 0.5 0 0.5 1 0.222223 0.650299 0.238885 0.291971 0.090909 0.090909 0 0 
0 2 0.613364 0.430357 0.508555 0.5 0.102272 0.25 0.274074 0.623467 0.5 0.5 0 0.325926 0.222223 0.650299 0.596636 0.0265401 0.113636 0.090909 0.0185932 0 
0 3 0.401985 0.268012 0.384393 0.375 0.193181 0.25 0.507408 0.398141 0.5 0.25 0.2 0.792593 0.222223 0.650299 0.145984 0.403451 0.295454 0.090909 0.167355 0 
0 4 0.771898 0.5918 0.508419 0.5 0.272727 0.125 0.274074 0.390458 0.5 0.5 0 0.325926 0.222223 0.650299 0.130618 0.424683 0.454545 0.090909 0.29752 0 
0 5 0.715846 0.470725 0.631269 0.625 0.159091 0.25 0.259259 0.598871 0.75 0.5 0.16667 0.296297 0.222223 0.650299 0.547445 0.0530861 0.227272 0.090909 0.111572 0 
0 6 0.715846 0.54074 0.638874 0.625 0.261363 0.125 0.259259 0.461271 0.75 0.5 0.16667 0.296297 0.222223 0.650299 0.272243 0.257845 0.431818 0.090909 0.278927 0 
0 7 0.715846 0.364686 0.358953 0.375 0.193181 0.375 0.274074 0.398141 0.5 0.25 0.2 0.325926 0.222223 0.650299 0.145984 0.403451 0.295454 0.090909 0.167355 0 
0 8 0.566399 0.328458 0.365268 0.375 0.0454545 0.125 0.274074 0.661727 0.5 0.25 0.2 0.325926 0.222223 0.673155 0.650299 0.0108146 0.090909 0 0.0909083 0 
0 9 0.771898 0.634355 0.634166 0.625 0.0681817 0.375 0.222223 0.825149 0.75 0.5 0.16667 0.222223 0.222223 1 0.650299 0.165448 0.090909 0.0454545 0.0409092 0 
0 10 0.479878 0.300098 0.243731 0.25 0.0454545 0 0.222223 0.536017 0.5 0 0.5 0.222223 0.222223 0.650299 0.421736 0.132712 0.090909 0 0.0909083 0 
0 11 0.663078 0.434589 0.495247 0.5 0.318181 0.25 0.170371 0.356431 0.5 0.5 0 0.222223 0.118519 0.650299 0.0625641 0.530855 0.545454 0.090909 0.371901 1 
0 12 0.566399 0.378355 0.501584 0.5 0.215908 0 0.325926 0.444592 0.5 0.5 0 0.42963 0.222223 0.650299 0.238885 0.291971 0.340909 0.090909 0.204546 1 
0 13 0.521955 0.344567 0.49923 0.5 0.204545 0.125 0.325926 0.457449 0.5 0.5 0 0.42963 0.222223 0.650299 0.264598 0.265431 0.318181 0.090909 0.185953 1 
0 14 0.439939 0.275312 0.361149 0.375 0.204545 0.25 0.507408 0.386737 0.5 0.25 0.2 0.792593 0.222223 0.650299 0.123175 0.435299 0.318181 0.090909 0.185953 1 
0 15 0.831539 0.747766 0.743731 0.75 0.545454 0.375 0.240742 0.325149 1 0.5 0.33333 0.259259 0.222223 0.650299 0 0.650301 1 0.090909 0.743802 1 
0 16 0.663078 0.440532 0.609995 0.625 0.238635 0.25 0.333333 0.485733 0.75 0.5 0.16667 0.444445 0.222223 0.650299 0.321168 0.212345 0.386363 0.090909 0.241736 1 
0 17 0.613364 0.356869 0.484157 0.5 0.227272 0.25 0.325926 0.432491 0.5 0.5 0 0.42963 0.222223 0.650299 0.214684 0.318511 0.363636 0.090909 0.223139 1 
0 18 0.831539 0.47437 0.611194 0.625 0.318181 0.25 0.259259 0.410308 0.75 0.5 0.16667 0.296297 0.222223 0.650299 0.170315 0.371597 0.545454 0.090909 0.371901 1 
0 19 0.831539 0.656013 0.629391 0.625 0.272727 0.375 0.111112 0.450004 0.75 0.5 0.16667 0.222223 0 0.650299 0.249712 0.280596 0.454545 0.090909 0.29752 1 
1 1 0 0 0.02304 0 0.090909 0.5 1 0.238885 0 0 0 1 1 0.238885 0.238885 0 0.090909 0.090909 0 1 
1 2 0.281787 0.182587 0.276322 0.25 0.102272 0.25 0.662963 0.41776 0.5 0 0.5 1 0.325926 0.596636 0.238885 0.253886 0.113636 0.090909 0.0185932 1 
1 3 0.0704467 0.0202409 0.152159 0.125 0.193181 0.375 0.896296 0.192435 0.25 0 0.25 1 0.792593 0.238885 0.145984 0.0743182 0.295454 0.090909 0.167355 1 
1 4 0.440321 0.344031 0.276186 0.25 0.272727 0.375 0.662963 0.184751 0.5 0 0.5 1 0.325926 0.238885 0.130618 0.0884788 0.454545 0.090909 0.29752 1 
1 5 0.384269 0.222956 0.399036 0.375 0.159091 0.375 0.648148 0.393165 0.75 0 0.75 1 0.296297 0.547445 0.238885 0.218978 0.227272 0.090909 0.111572 1 
1 6 0.384269 0.29297 0.406663 0.375 0.261363 0.25 0.648148 0.255564 0.75 0 0.75 1 0.296297 0.272243 0.238885 0.023673 0.431818 0.090909 0.278927 1 
1 7 0.384269 0.116917 0.126743 0.125 0.193181 0.125 0.662963 0.192435 0.25 0 0.25 1 0.325926 0.238885 0.145984 0.0743182 0.295454 0.090909 0.167355 1 
1 8 0.234822 0.0806872 0.133057 0.125 0.0454545 0 0.662963 0.45602 0.25 0 0.25 1 0.325926 0.673155 0.238885 0.308193 0.090909 0 0.0909083 1 
1 9 0.440321 0.386586 0.401955 0.375 0.0681817 0.125 0.611111 0.619442 0.75 0 0.75 1 0.222223 1 0.238885 0.540146 0.090909 0.0454545 0.0409092 1 
1 10 0.148301 0.0523281 0.01152 0 0.0454545 0 0.611111 0.330311 0 0 0 1 0.222223 0.421736 0.238885 0.129764 0.090909 0 0.0909083 1 
1 11 0.331539 0.18682 0.263014 0.25 0.318181 0 0.55926 0.150725 0.5 0 0.5 1 0.118519 0.238885 0.0625641 0.159258 0.545454 0.090909 0.371901 0 
1 12 0.234822 0.130585 0.269374 0.25 0.215908 0 0.714815 0.238885 0.5 0 0.5 1 0.42963 0.238885 0.238885 0 0.340909 0.090909 0.204546 0 
1 13 0.190416 0.0967982 0.266997 0.25 0.204545 0 0.714815 0.251741 0.5 0 0.5 1 0.42963 0.264598 0.238885 0.0182482 0.318181 0.090909 0.185953 0 
1 14 0.108362 0.0275471 0.128938 0.125 0.204545 0 0.896296 0.18103 0.25 0 0.25 1 0.792593 0.238885 0.123175 0.0955562 0.318181 0.090909 0.185953 0 
1 15 0.5 0.499996 0.51152 0.5 0.545454 0.125 0.62963 0.119442 1 0 1 1 0.259259 0.238885 0 0.238885 1 0.090909 0.743802 0 
1 16 0.331539 0.192753 0.377761 0.375 0.238635 0 0.722222 0.280027 0.75 0 0.75 1 0.444445 0.321168 0.238885 0.0583942 0.386363 0.090909 0.241736 0 
1 17 0.281787 0.10909 0.251924 0.25 0.227272 0 0.714815 0.226784 0.5 0 0.5 1 0.42963 0.238885 0.214684 0.0176934 0.363636 0.090909 0.223139 0 
1 18 0.5 0.226601 0.378961 0.375 0.318181 0.125 0.648148 0.204599 0.75 0 0.75 1 0.296297 0.238885 0.170315 0.0530861 0.545454 0.090909 0.371901 0 
1 19 0.5 0.408244 0.39718 0.375 0.272727 0.25 0.500001 0.244298 0.75 0 0.75 1 0 0.249712 0.238885 0.00768467 0.454545 0.090909 0.29752 0 
2 2 0.563612 0.365162 0.529626 0.5 0.113636 0.75 0.325926 0.596636 0.5 0.5 0 0.325926 0.325926 0.596636 0.596636 0 0.113636 0.113636 0 1 
2 3 0.352272 0.202827 0.405464 0.375 0.204545 0.375 0.55926 0.371311 0.5 0.25 0.2 0.792593 0.325926 0.596636 0.145984 0.36052 0.295454 0.113636 0.142294 1 
2 4 0.722146 0.526615 0.52949 0.5 0.28409 0.375 0.325926 0.363627 0.5 0.5 0 0.325926 0.325926 0.596636 0.130618 0.380829 0.454545 0.113636 0.266797 1 
2 5 0.666094 0.40554 0.65234 0.625 0.170454 0.125 0.311111 0.572041 0.75 0.5 0.16667 0.325926 0.296297 0.596636 0.547445 0.0253898 0.227272 0.113636 0.0889324 1 
2 6 0.666094 0.475545 0.659967 0.625 0.272727 0.5 0.311111 0.434439 0.75 0.5 0.16667 0.325926 0.296297 0.596636 0.272243 0.221244 0.431818 0.113636 0.249014 1 
2 7 0.666094 0.299501 0.380024 0.375 0.204545 0.25 0.325926 0.371311 0.5 0.25 0.2 0.325926 0.325926 0.596636 0.145984 0.36052 0.295454 0.113636 0.142294 1 
2 8 0.516648 0.263274 0.386339 0.375 0.0568174 0.25 0.325926 0.634895 0.5 0.25 0.2 0.325926 0.325926 0.673155 0.596636 0.0378453 0.113636 0 0.113637 1 
2 9 0.722146 0.56916 0.655237 0.625 0.0795446 0.125 0.274074 0.798318 0.75 0.5 0.16667 0.325926 0.222223 1 0.596636 0.199515 0.113636 0.0454545 0.0613637 1 
2 10 0.430126 0.234913 0.264824 0.25 0.0568174 0.125 0.274074 0.509185 0.5 0 0.5 0.325926 0.222223 0.596636 0.421736 0.101553 0.113636 0 0.113637 1 
2 11 0.613364 0.369394 0.516318 0.5 0.329546 0.125 0.222223 0.329599 0.5 0.5 0 0.325926 0.118519 0.596636 0.0625641 0.482388 0.545454 0.113636 0.337947 0 
2 12 0.516648 0.31317 0.522678 0.5 0.227272 0 0.377778 0.41776 0.5 0.5 0 0.42963 0.325926 0.596636 0.238885 0.253886 0.340909 0.113636 0.177865 0 
2 13 0.472241 0.279372 0.520301 0.5 0.215908 0 0.377778 0.430617 0.5 0.5 0 0.42963 0.325926 0.596636 0.264598 0.228496 0.318181 0.113636 0.160078 0 
2 14 0.390187 0.210127 0.38222 0.375 0.215908 0 0.55926 0.359905 0.5 0.25 0.2 0.792593 0.325926 0.596636 0.123175 0.39099 0.318181 0.113636 0.160078 0 
2 15 0.781825 0.682581 0.764824 0.75 0.556818 0.25 0.292593 0.298318 1 0.5 0.33333 0.325926 0.259259 0.596636 0 0.596636 1 0.113636 0.693676 0 
2 16 0.613364 0.375337 0.631066 0.625 0.25 0.25 0.385185 0.458901 0.75 0.5 0.16667 0.444445 0.325926 0.596636 0.321168 0.177723 0.386363 0.113636 0.213439 0 
2 17 0.563612 0.291674 0.505228 0.5 0.238635 0.125 0.377778 0.40566 0.5 0.5 0 0.42963 0.325926 0.596636 0.214684 0.279276 0.363636 0.113636 0.195652 0 
2 18 0.781825 0.409185 0.632265 0.625 0.329546 0.125 0.311111 0.383476 0.75 0.5 0.16667 0.325926 0.296297 0.596636 0.170315 0.330055 0.545454 0.113636 0.337947 0 
2 19 0.781825 0.590828 0.650462 0.625 0.28409 0.25 0.162964 0.423174 0.75 0.5 0.16667 0.325926 0 0.596636 0.249712 0.243007 0.454545 0.113636 0.266797 0 
3 3 0.140893 0.0404818 0.281301 0.25 0.295454 0.625 0.792593 0.145984 0.25 0.25 0 0.792593 0.792593 0.145984 0.145984 0 0.295454 0.295454 0 1 
3 4 0.510767 0.364271 0.405328 0.375 0.375 0.375 0.55926 0.138302 0.5 0.25 0.2 0.792593 0.325926 0.145984 0.130618 0.0125606 0.454545 0.295454 0.092377 1 
3 5 0.454754 0.243196 0.528178 0.5 0.261363 0.25 0.544444 0.346716 0.75 0.25 0.4 0.792593 0.296297 0.547445 0.145984 0.321168 0.295454 0.227272 0.0438301 1 
3 6 0.454754 0.31321 0.535782 0.5 0.363636 0.375 0.544444 0.209114 0.75 0.25 0.4 0.792593 0.296297 0.272243 0.145984 0.101004 0.431818 0.295454 0.0791797 1 
3 7 0.454754 0.137156 0.255862 0.25 0.295454 0.25 0.55926 0.145984 0.25 0.25 0 0.792593 0.325926 0.145984 0.145984 0 0.295454 0.295454 0 1 
3 8 0.305307 0.100929 0.262176 0.25 0.147726 0.125 0.55926 0.40957 0.25 0.25 0 0.792593 0.325926 0.673155 0.145984 0.421734 0.295454 0 0.295454 1 
3 9 0.510767 0.406826 0.531075 0.5 0.170454 0.25 0.507408 0.572993 0.75 0.25 0.4 0.792593 0.222223 1 0.145984 0.683212 0.295454 0.0454545 0.225 1 
3 10 0.218748 0.072569 0.140639 0.125 0.147726 0 0.507408 0.28386 0.25 0 0.25 0.792593 0.222223 0.421736 0.145984 0.220601 0.295454 0 0.295454 1 
3 11 0.401985 0.20706 0.392156 0.375 0.420455 0 0.455556 0.104274 0.5 0.25 0.2 0.792593 0.118519 0.145984 0.0625641 0.075346 0.545454 0.295454 0.145162 0 
3 12 0.305307 0.150825 0.398493 0.375 0.318181 0 0.611111 0.192435 0.5 0.25 0.2 0.792593 0.42963 0.238885 0.145984 0.0743182 0.340909 0.295454 0.0263946 0 
3 13 0.260863 0.117038 0.396139 0.375 0.306818 0 0.611111 0.205292 0.5 0.25 0.2 0.792593 0.42963 0.264598 0.145984 0.0948905 0.318181 0.295454 0.0131973 0 
3 14 0.178847 0.047788 0.258057 0.25 0.306818 0 0.792593 0.13458 0.25 0.25 0 0.792593 0.792593 0.145984 0.123175 0.018838 0.318181 0.295454 0.0131973 0 
3 15 0.570447 0.520236 0.640639 0.625 0.647727 0.125 0.525927 0.0729928 1 0.25 0.6 0.792593 0.259259 0.145984 0 0.145985 1 0.295454 0.409092 0 
3 16 0.401985 0.213003 0.506903 0.5 0.340909 0 0.618518 0.233576 0.75 0.25 0.4 0.792593 0.444445 0.321168 0.145984 0.140146 0.386363 0.295454 0.0527851 0 
3 17 0.352272 0.12934 0.381066 0.375 0.329546 0 0.611111 0.180335 0.5 0.25 0.2 0.792593 0.42963 0.214684 0.145984 0.0549606 0.363636 0.295454 0.0395878 0 
3 18 0.570447 0.246841 0.508102 0.5 0.420455 0.125 0.544444 0.15815 0.75 0.25 0.4 0.792593 0.296297 0.170315 0.145984 0.0194628 0.545454 0.295454 0.145162 0 
3 19 0.570447 0.428483 0.526299 0.5 0.375 0.25 0.396297 0.197849 0.75 0.25 0.4 0.792593 0 0.249712 0.145984 0.0829839 0.454545 0.295454 0.092377 0 
4 4 0.88068 0.688069 0.529355 0.5 0.454545 0.75 0.325926 0.130618 0.5 0.5 0 0.325926 0.325926 0.130618 0.130618 0 0.454545 0.454545 0 1 
4 5 0.824628 0.566994 0.652204 0.625 0.340909 0.375 0.311111 0.339032 0.75 0.5 0.16667 0.325926 0.296297 0.547445 0.130618 0.340631 0.454545 0.227272 0.146103 1 
4 6 0.824628 0.636998 0.659832 0.625 0.443182 0.25 0.311111 0.20143 0.75 0.5 0.16667 0.325926 0.296297 0.272243 0.130618 0.115737 0.454545 0.431818 0.0110577 1 
4 7 0.824628 0.460954 0.379889 0.375 0.375 0.25 0.325926 0.138302 0.5 0.25 0.2 0.325926 0.325926 0.145984 0.130618 0.0125606 0.454545 0.295454 0.092377 1 
4 8 0.675181 0.424717 0.386203 0.375 0.227272 0.125 0.325926 0.401886 0.5 0.25 0.2 0.325926 0.325926 0.673155 0.130618 0.443364 0.454545 0 0.454546 1 
4 9 0.88068 0.730614 0.655101 0.625 0.25 0.125 0.274074 0.565309 0.75 0.5 0.16667 0.325926 0.222223 1 0.130618 0.710464 0.454545 0.0454545 0.368182 1 
4 10 0.58866 0.396357 0.264689 0.25 0.227272 0.125 0.274074 0.276176 0.5 0 0.5 0.325926 0.222223 0.421736 0.130618 0.237904 0.454545 0 0.454546 1 
4 11 0.771898 0.530847 0.516182 0.5 0.499999 0.125 0.222223 0.096592 0.5 0.5 0 0.325926 0.118519 0.130618 0.0625641 0.0614657 0.545454 0.454545 0.043061 0 
4 12 0.675181 0.474613 0.522519 0.5 0.397727 0.125 0.377778 0.184751 0.5 0.5 0 0.42963 0.325926 0.238885 0.130618 0.0884788 0.454545 0.340909 0.0619856 0 
4 13 0.630737 0.440826 0.520166 0.5 0.386363 0.125 0.377778 0.197608 0.5 0.5 0 0.42963 0.325926 0.264598 0.130618 0.109489 0.454545 0.318181 0.0767047 0 
4 14 0.548721 0.371581 0.382084 0.375 0.386363 0.125 0.55926 0.126896 0.5 0.25 0.2 0.792593 0.325926 0.130618 0.123175 0.00614891 0.454545 0.318181 0.0767047 0 
4 15 0.940359 0.844034 0.764689 0.75 0.727273 0 0.292593 0.0653091 1 0.5 0.33333 0.325926 0.259259 0.130618 0 0.130616 1 0.454545 0.258374 0 
4 16 0.771898 0.536791 0.63093 0.625 0.420455 0.25 0.385185 0.225892 0.75 0.5 0.16667 0.444445 0.325926 0.321168 0.130618 0.15572 0.454545 0.386363 0.0350632 0 
4 17 0.722146 0.453128 0.505092 0.5 0.40909 0.125 0.377778 0.172651 0.5 0.5 0 0.42963 0.325926 0.214684 0.130618 0.0687007 0.454545 0.363636 0.0481296 0 
4 18 0.940359 0.570629 0.632129 0.625 0.499999 0.375 0.311111 0.150467 0.75 0.5 0.16667 0.325926 0.296297 0.170315 0.130618 0.0324438 0.545454 0.454545 0.043061 0 
4 19 0.940359 0.752271 0.650326 0.625 0.454545 0.125 0.162964 0.190165 0.75 0.5 0.16667 0.325926 0 0.249712 0.130618 0.0973255 0.454545 0.454545 0 0 
5 5 0.768576 0.445909 0.775032 0.75 0.227272 0.875 0.296297 0.547445 0.75 0.75 0 0.296297 0.296297 0.547445 0.547445 0 0.227272 0.227272 0 1 
5 6 0.768576 0.515923 0.782659 0.75 0.329546 0.5 0.296297 0.409844 0.75 0.75 0 0.296297 0.296297 0.547445 0.272243 0.187696 0.431818 0.227272 0.131494 1 
5 7 0.768576 0.339879 0.502739 0.5 0.261363 0.25 0.311111 0.346716 0.75 0.25 0.4 0.325926 0.296297 0.547445 0.145984 0.321168 0.295454 0.227272 0.0438301 1 
5 8 0.619129 0.303642 0.509053 0.5 0.113636 0.25 0.311111 0.610299 0.75 0.25 0.4 0.325926 0.296297 0.673155 0.547445 0.0648818 0.227272 0 0.227275 1 
5 9 0.824628 0.609539 0.777951 0.75 0.136363 0.375 0.259259 0.773723 0.75 0.75 0 0.296297 0.222223 1 0.547445 0.233577 0.227272 0.0454545 0.163637 1 
5 10 0.532608 0.275282 0.387516 0.375 0.113636 0.125 0.259259 0.48459 0.75 0 0.75 0.296297 0.222223 0.547445 0.421736 0.0729927 0.227272 0 0.227275 1 
5 11 0.715846 0.409772 0.639032 0.625 0.386363 0.25 0.207407 0.305004 0.75 0.5 0.16667 0.296297 0.118519 0.547445 0.0625641 0.437956 0.545454 0.227272 0.204546 0 
5 12 0.619129 0.353538 0.645369 0.625 0.28409 0.125 0.362963 0.393165 0.75 0.5 0.16667 0.42963 0.296297 0.547445 0.238885 0.218978 0.340909 0.227272 0.0730515 0 
5 13 0.574723 0.319751 0.643016 0.625 0.272727 0 0.362963 0.406022 0.75 0.5 0.16667 0.42963 0.296297 0.547445 0.264598 0.194645 0.318181 0.227272 0.0584428 0 
5 14 0.492669 0.250506 0.504934 0.5 0.272727 0 0.544444 0.33531 0.75 0.25 0.4 0.792593 0.296297 0.547445 0.123175 0.350365 0.318181 0.227272 0.0584428 0 
5 15 0.884307 0.722959 0.887516 0.875 0.613635 0.125 0.277778 0.273723 1 0.75 0.14286 0.296297 0.259259 0.547445 0 0.547445 1 0.227272 0.496756 0 
5 16 0.715846 0.415716 0.75378 0.75 0.306818 0.125 0.370371 0.434306 0.75 0.75 0 0.444445 0.296297 0.547445 0.321168 0.145985 0.386363 0.227272 0.102273 0 
5 17 0.666094 0.332053 0.627942 0.625 0.295454 0.125 0.362963 0.381065 0.75 0.5 0.16667 0.42963 0.296297 0.547445 0.214684 0.243311 0.363636 0.227272 0.0876643 0 
5 18 0.884307 0.449554 0.754957 0.75 0.386363 0.375 0.296297 0.35888 0.75 0.75 0 0.296297 0.296297 0.547445 0.170315 0.291971 0.545454 0.227272 0.204546 0 
5 19 0.884307 0.631196 0.773176 0.75 0.340909 0.25 0.148148 0.398579 0.75 0.75 0 0.296297 0 0.547445 0.249712 0.208549 0.454545 0.227272 0.146103 0 
6 6 0.768576 0.585927 0.790286 0.75 0.431818 0.875 0.296297 0.272243 0.75 0.75 0 0.296297 0.296297 0.272243 0.272243 0 0.431818 0.431818 0 1 
6 7 0.768576 0.409884 0.510366 0.5 0.363636 0.25 0.311111 0.209114 0.75 0.25 0.4 0.325926 0.296297 0.272243 0.145984 0.101004 0.431818 0.295454 0.0791797 1 
6 8 0.619129 0.373657 0.51668 0.5 0.215908 0.375 0.311111 0.472699 0.75 0.25 0.4 0.325926 0.296297 0.673155 0.272243 0.273431 0.431818 0 0.431821 1 
6 9 0.824628 0.679543 0.785578 0.75 0.238635 0.25 0.259259 0.636121 0.75 0.75 0 0.296297 0.222223 1 0.272243 0.49635 0.431818 0.0454545 0.347728 1 
6 10 0.532608 0.345296 0.395143 0.375 0.215908 0.125 0.259259 0.34699 0.75 0 0.75 0.296297 0.222223 0.421736 0.272243 0.101956 0.431818 0 0.431821 1 
6 11 0.715846 0.479777 0.646659 0.625 0.488636 0.125 0.207407 0.167404 0.75 0.5 0.16667 0.296297 0.118519 0.272243 0.0625641 0.189384 0.545454 0.431818 0.0552846 0 
6 12 0.619129 0.423553 0.652997 0.625 0.386363 0.125 0.362963 0.255564 0.75 0.5 0.16667 0.42963 0.296297 0.272243 0.238885 0.023673 0.431818 0.340909 0.049586 0 
6 13 0.574723 0.389755 0.65062 0.625 0.375 0 0.362963 0.26842 0.75 0.5 0.16667 0.42963 0.296297 0.272243 0.264598 0.00526131 0.431818 0.318181 0.0639206 0 
6 14 0.492669 0.32051 0.512561 0.5 0.375 0 0.544444 0.197709 0.75 0.25 0.4 0.792593 0.296297 0.272243 0.123175 0.123101 0.431818 0.318181 0.0639206 0 
6 15 0.884307 0.792964 0.895143 0.875 0.715909 0.25 0.277778 0.136121 1 0.75 0.14286 0.296297 0.259259 0.272243 0 0.272245 1 0.431818 0.276415 0 
6 16 0.715846 0.48572 0.761384 0.75 0.40909 0.125 0.370371 0.296706 0.75 0.75 0 0.444445 0.296297 0.321168 0.272243 0.0333664 0.431818 0.386363 0.0233755 0 
6 17 0.666094 0.402057 0.635547 0.625 0.397727 0.125 0.362963 0.243463 0.75 0.5 0.16667 0.42963 0.296297 0.272243 0.214684 0.0420847 0.431818 0.363636 0.0360982 0 
6 18 0.884307 0.519568 0.762584 0.75 0.488636 0.25 0.296297 0.22128 0.75 0.75 0 0.296297 0.296297 0.272243 0.170315 0.0789139 0.545454 0.431818 0.0552846 0 
6 19 0.884307 0.701211 0.780803 0.75 0.443182 0.125 0.148148 0.260977 0.75 0.75 0 0.296297 0 0.272243 0.249712 0.0157839 0.454545 0.431818 0.0110577 0 
7 7 0.768576 0.23384 0.230445 0.25 0.295454 0.625 0.325926 0.145984 0.25 0.25 0 0.325926 0.325926 0.145984 0.145984 0 0.295454 0.295454 0 1 
7 8 0.619129 0.197603 0.236737 0.25 0.147726 0.25 0.325926 0.40957 0.25 0.25 0 0.325926 0.325926 0.673155 0.145984 0.421734 0.295454 0 0.295454 1 
7 9 0.824628 0.5035 0.505658 0.5 0.170454 0.25 0.274074 0.572993 0.75 0.25 0.4 0.325926 0.222223 1 0.145984 0.683212 0.295454 0.0454545 0.225 1 
7 10 0.532608 0.169253 0.115223 0.125 0.147726 0.125 0.274074 0.28386 0.25 0 0.25 0.325926 0.222223 0.421736 0.145984 0.220601 0.295454 0 0.295454 1 
7 11 0.715846 0.303733 0.366716 0.375 0.420455 0.125 0.222223 0.104274 0.5 0.25 0.2 0.325926 0.118519 0.145984 0.0625641 0.075346 0.545454 0.295454 0.145162 0 
7 12 0.619129 0.247509 0.373076 0.375 0.318181 0.25 0.377778 0.192435 0.5 0.25 0.2 0.42963 0.325926 0.238885 0.145984 0.0743182 0.340909 0.295454 0.0263946 0 
7 13 0.574723 0.213712 0.3707 0.375 0.306818 0.125 0.377778 0.205292 0.5 0.25 0.2 0.42963 0.325926 0.264598 0.145984 0.0948905 0.318181 0.295454 0.0131973 0 
7 14 0.492669 0.144467 0.232618 0.25 0.306818 0.125 0.55926 0.13458 0.25 0.25 0 0.792593 0.325926 0.145984 0.123175 0.018838 0.318181 0.295454 0.0131973 0 
7 15 0.884307 0.61692 0.615223 0.625 0.647727 0.125 0.292593 0.0729928 1 0.25 0.6 0.325926 0.259259 0.145984 0 0.145985 1 0.295454 0.409092 0 
7 16 0.715846 0.309677 0.481464 0.5 0.340909 0.25 0.385185 0.233576 0.75 0.25 0.4 0.444445 0.325926 0.321168 0.145984 0.140146 0.386363 0.295454 0.0527851 0 
7 17 0.666094 0.226014 0.355626 0.375 0.329546 0.25 0.377778 0.180335 0.5 0.25 0.2 0.42963 0.325926 0.214684 0.145984 0.0549606 0.363636 0.295454 0.0395878 0 
7 18 0.884307 0.343514 0.482663 0.5 0.420455 0.125 0.311111 0.15815 0.75 0.25 0.4 0.325926 0.296297 0.170315 0.145984 0.0194628 0.545454 0.295454 0.145162 0 
7 19 0.884307 0.525157 0.50086 0.5 0.375 0.125 0.162964 0.197849 0.75 0.25 0.4 0.325926 0 0.249712 0.145984 0.0829839 0.454545 0.295454 0.092377 0 
8 8 0.469683 0.161376 0.243052 0.25 0 0.625 0.325926 0.673155 0.25 0.25 0 0.325926 0.325926 0.673155 0.673155 0 0 0 0 1 
8 9 0.675181 0.467272 0.511973 0.5 0.0227272 0.25 0.274074 0.836577 0.75 0.25 0.4 0.325926 0.222223 1 0.673155 0.151825 0.0454545 0 0.0454542 1 
8 10 0.383162 0.133015 0.121537 0.125 0 0.25 0.274074 0.547445 0.25 0 0.25 0.325926 0.222223 0.673155 0.421736 0.145985 0 0 0 1 
8 11 0.566399 0.267506 0.373031 0.375 0.272727 0.25 0.222223 0.36786 0.5 0.25 0.2 0.325926 0.118519 0.673155 0.0625641 0.551498 0.545454 0 0.545454 0 
8 12 0.469683 0.211272 0.379391 0.375 0.170454 0.25 0.377778 0.45602 0.5 0.25 0.2 0.42963 0.325926 0.673155 0.238885 0.308193 0.340909 0 0.340908 0 
8 13 0.425239 0.177484 0.377014 0.375 0.159091 0.125 0.377778 0.468877 0.5 0.25 0.2 0.42963 0.325926 0.673155 0.264598 0.281156 0.318181 0 0.318183 0 
8 14 0.343223 0.108229 0.238933 0.25 0.159091 0 0.55926 0.398165 0.25 0.25 0 0.792593 0.325926 0.673155 0.123175 0.454178 0.318181 0 0.318183 0 
8 15 0.734861 0.580683 0.621537 0.625 0.499999 0 0.292593 0.336577 1 0.25 0.6 0.325926 0.259259 0.673155 0 0.673156 1 0 1 0 
8 16 0.566399 0.273449 0.487778 0.5 0.193181 0.25 0.385185 0.497162 0.75 0.25 0.4 0.444445 0.325926 0.673155 0.321168 0.227089 0.386363 0 0.386363 0 
8 17 0.516648 0.189786 0.361941 0.375 0.181818 0.25 0.377778 0.443919 0.5 0.25 0.2 0.42963 0.325926 0.673155 0.214684 0.335223 0.363636 0 0.363637 0 
8 18 0.734861 0.307287 0.488978 0.5 0.272727 0.25 0.311111 0.421736 0.75 0.25 0.4 0.325926 0.296297 0.673155 0.170315 0.389296 0.545454 0 0.545454 0 
8 19 0.734861 0.48893 0.507175 0.5 0.227272 0.125 0.162964 0.461433 0.75 0.25 0.4 0.325926 0 0.673155 0.249712 0.296607 0.454545 0 0.454546 0 
9 9 0.88068 0.773159 0.780871 0.75 0.0454545 0.875 0.222223 1 0.75 0.75 0 0.222223 0.222223 1 1 0 0.0454545 0.0454545 0 1 
9 10 0.58866 0.438912 0.390435 0.375 0.0227272 0.125 0.222223 0.710867 0.75 0 0.75 0.222223 0.222223 1 0.421736 0.335766 0.0454545 0 0.0454542 1 
9 11 0.771898 0.573393 0.641929 0.625 0.295454 0.25 0.170371 0.531283 0.75 0.5 0.16667 0.222223 0.118519 1 0.0625641 0.846715 0.545454 0.0454545 0.450001 0 
9 12 0.675181 0.517168 0.648289 0.625 0.193181 0.25 0.325926 0.619442 0.75 0.5 0.16667 0.42963 0.222223 1 0.238885 0.540146 0.340909 0.0454545 0.26591 0 
9 13 0.630737 0.483371 0.645913 0.625 0.181818 0.375 0.325926 0.632299 0.75 0.5 0.16667 0.42963 0.222223 1 0.264598 0.506085 0.318181 0.0454545 0.245455 0 
9 14 0.548721 0.414126 0.507854 0.5 0.181818 0.125 0.507408 0.561587 0.75 0.25 0.4 0.792593 0.222223 1 0.123175 0.724088 0.318181 0.0454545 0.245455 0 
9 15 0.940359 0.88658 0.890435 0.875 0.522727 0.25 0.240742 0.5 1 0.75 0.14286 0.259259 0.222223 1 0 1 1 0.0454545 0.859092 0 
9 16 0.771898 0.579336 0.756677 0.75 0.215908 0 0.333333 0.660583 0.75 0.75 0 0.444445 0.222223 1 0.321168 0.437956 0.386363 0.0454545 0.306819 0 
9 17 0.722146 0.495673 0.630839 0.625 0.204545 0.125 0.325926 0.607342 0.75 0.5 0.16667 0.42963 0.222223 1 0.214684 0.574207 0.363636 0.0454545 0.286364 0 
9 18 0.940359 0.613184 0.757876 0.75 0.295454 0.125 0.259259 0.585158 0.75 0.75 0 0.296297 0.222223 1 0.170315 0.642336 0.545454 0.0454545 0.450001 0 
9 19 0.940359 0.794827 0.776095 0.75 0.25 0.375 0.111112 0.624856 0.75 0.75 0 0.222223 0 1 0.249712 0.525547 0.454545 0.0454545 0.368182 0 
10 10 0.29664 0.104655 0 0 0 0.5 0.222223 0.421736 0 0 0 0.222223 0.222223 0.421736 0.421736 0 0 0 0 1 
10 11 0.479878 0.239146 0.251494 0.25 0.272727 0.5 0.170371 0.24215 0.5 0 0.5 0.222223 0.118519 0.421736 0.0625641 0.324415 0.545454 0 0.545454 0 
10 12 0.383162 0.182911 0.257854 0.25 0.170454 0.25 0.325926 0.330311 0.5 0 0.5 0.42963 0.222223 0.421736 0.238885 0.129764 0.340909 0 0.340908 0 
10 13 0.338717 0.149124 0.255477 0.25 0.159091 0.125 0.325926 0.343166 0.5 0 0.5 0.42963 0.222223 0.421736 0.264598 0.10814 0.318181 0 0.318183 0 
10 14 0.256701 0.0798752 0.117418 0.125 0.159091 0.25 0.507408 0.272456 0.25 0 0.25 0.792593 0.222223 0.421736 0.123175 0.246552 0.318181 0 0.318183 0 
10 15 0.648301 0.552333 0.5 0.5 0.499999 0.25 0.240742 0.210867 1 0 1 0.259259 0.222223 0.421736 0 0.421734 1 0 1 0 
10 16 0.479878 0.245089 0.366241 0.375 0.193181 0.25 0.333333 0.371452 0.75 0 0.75 0.444445 0.222223 0.421736 0.321168 0.0648818 0.386363 0 0.386363 0 
10 17 0.430126 0.161426 0.240404 0.25 0.181818 0 0.325926 0.318209 0.5 0 0.5 0.42963 0.222223 0.421736 0.214684 0.151393 0.363636 0 0.363637 0 
10 18 0.648301 0.278927 0.367441 0.375 0.272727 0.125 0.259259 0.296026 0.75 0 0.75 0.296297 0.222223 0.421736 0.170315 0.194645 0.545454 0 0.545454 0 
10 19 0.648301 0.46057 0.38566 0.375 0.227272 0 0.111112 0.335723 0.75 0 0.75 0.222223 0 0.421736 0.249712 0.120496 0.454545 0 0.454546 0 
11 11 0.663078 0.373626 0.50301 0.5 0.545454 0.75 0.118519 0.0625641 0.5 0.5 0 0.118519 0.118519 0.0625641 0.0625641 0 0.545454 0.545454 0 1 
11 12 0.566399 0.317402 0.509347 0.5 0.443182 0.25 0.274074 0.150725 0.5 0.5 0 0.42963 0.118519 0.238885 0.0625641 0.159258 0.545454 0.340909 0.111572 1 
11 13 0.521955 0.283605 0.506993 0.5 0.431818 0.125 0.274074 0.163582 0.5 0.5 0 0.42963 0.118519 0.264598 0.0625641 0.182482 0.545454 0.318181 0.127841 1 
11 14 0.439939 0.21436 0.368912 0.375 0.431818 0.375 0.455556 0.0928697 0.5 0.25 0.2 0.792593 0.118519 0.123175 0.0625641 0.0547445 0.545454 0.318181 0.127841 1 
11 15 0.831539 0.686813 0.751516 0.75 0.772728 0.375 0.18889 0.0312813 1 0.5 0.33333 0.259259 0.118519 0.0625641 0 0.0625635 1 0.545454 0.194805 1 
11 16 0.663078 0.37957 0.617758 0.625 0.465909 0.375 0.281482 0.191866 0.75 0.5 0.16667 0.444445 0.118519 0.321168 0.0625641 0.233577 0.545454 0.386363 0.0818183 1 
11 17 0.613364 0.295907 0.49192 0.5 0.454545 0 0.274074 0.138623 0.5 0.5 0 0.42963 0.118519 0.214684 0.0625641 0.137396 0.545454 0.363636 0.0962552 1 
11 18 0.831539 0.413417 0.618957 0.625 0.545454 0.25 0.207407 0.11644 0.75 0.5 0.16667 0.296297 0.118519 0.170315 0.0625641 0.0973255 0.545454 0.545454 0 1 
11 19 0.831539 0.59506 0.637154 0.625 0.499999 0.125 0.0592602 0.156139 0.75 0.5 0.16667 0.118519 0 0.249712 0.0625641 0.169034 0.545454 0.454545 0.043061 1 
12 12 0.469683 0.261168 0.515707 0.5 0.340909 0.75 0.42963 0.238885 0.5 0.5 0 0.42963 0.42963 0.238885 0.238885 0 0.340909 0.340909 0 1 
12 13 0.425239 0.22738 0.513331 0.5 0.329546 0.5 0.42963 0.251741 0.5 0.5 0 0.42963 0.42963 0.264598 0.238885 0.0182482 0.340909 0.318181 0.0127841 1 
12 14 0.343223 0.158135 0.375272 0.375 0.329546 0.25 0.611111 0.18103 0.5 0.25 0.2 0.792593 0.42963 0.238885 0.123175 0.0955562 0.340909 0.318181 0.0127841 1 
12 15 0.734861 0.630589 0.757854 0.75 0.670454 0.25 0.344445 0.119442 1 0.5 0.33333 0.42963 0.259259 0.238885 0 0.238885 1 0.340909 0.359506 1 
12 16 0.566399 0.323345 0.624095 0.625 0.363636 0.375 0.437037 0.280027 0.75 0.5 0.16667 0.444445 0.42963 0.321168 0.238885 0.0583942 0.386363 0.340909 0.024795 1 
12 17 0.516648 0.239682 0.498257 0.5 0.352273 0.375 0.42963 0.226784 0.5 0.5 0 0.42963 0.42963 0.238885 0.214684 0.0176934 0.363636 0.340909 0.0123955 1 
12 18 0.734861 0.357183 0.625294 0.625 0.443182 0.125 0.362963 0.204599 0.75 0.5 0.16667 0.42963 0.296297 0.238885 0.170315 0.0530861 0.545454 0.340909 0.111572 1 
12 19 0.734861 0.538826 0.643513 0.625 0.397727 0.25 0.214816 0.244298 0.75 0.5 0.16667 0.42963 0 0.249712 0.238885 0.00768467 0.454545 0.340909 0.0619856 1 
13 13 0.380832 0.193583 0.510977 0.5 0.318181 0.75 0.42963 0.264598 0.5 0.5 0 0.42963 0.42963 0.264598 0.264598 0 0.318181 0.318181 0 1 
13 14 0.298778 0.124338 0.372895 0.375 0.318181 0.375 0.611111 0.193886 0.5 0.25 0.2 0.792593 0.42963 0.264598 0.123175 0.116788 0.318181 0.318181 0 1 
13 15 0.690416 0.596792 0.755477 0.75 0.659091 0.375 0.344445 0.132299 1 0.5 0.33333 0.42963 0.259259 0.264598 0 0.264601 1 0.318181 0.383523 1 
13 16 0.521955 0.289548 0.621741 0.625 0.352273 0.25 0.437037 0.292882 0.75 0.5 0.16667 0.444445 0.42963 0.321168 0.264598 0.0389314 0.386363 0.318181 0.0383523 1 
13 17 0.472241 0.205885 0.495903 0.5 0.340909 0.5 0.42963 0.239641 0.5 0.5 0 0.42963 0.42963 0.264598 0.214684 0.0364964 0.363636 0.318181 0.0255682 1 
13 18 0.690416 0.323396 0.62294 0.625 0.431818 0.25 0.362963 0.217456 0.75 0.5 0.16667 0.42963 0.296297 0.264598 0.170315 0.0729927 0.545454 0.318181 0.127841 1 
13 19 0.690416 0.505029 0.641137 0.625 0.386363 0.375 0.214816 0.257155 0.75 0.5 0.16667 0.42963 0 0.264598 0.249712 0.0104292 0.454545 0.318181 0.0767047 1 
14 14 0.216762 0.0550942 0.234814 0.25 0.318181 0.625 0.792593 0.123175 0.25 0.25 0 0.792593 0.792593 0.123175 0.123175 0 0.318181 0.318181 0 1 
14 15 0.6084 0.527547 0.617418 0.625 0.659091 0.5 0.525927 0.0615869 1 0.25 0.6 0.792593 0.259259 0.123175 0 0.123177 1 0.318181 0.383523 1 
14 16 0.439939 0.220303 0.483659 0.5 0.352273 0.375 0.618518 0.222172 0.75 0.25 0.4 0.792593 0.444445 0.321168 0.123175 0.163504 0.386363 0.318181 0.0383523 1 
14 17 0.390187 0.13664 0.357822 0.375 0.340909 0.25 0.611111 0.168929 0.5 0.25 0.2 0.792593 0.42963 0.214684 0.123175 0.0755679 0.363636 0.318181 0.0255682 1 
14 18 0.6084 0.254141 0.484859 0.5 0.431818 0.375 0.544444 0.146746 0.75 0.25 0.4 0.792593 0.296297 0.170315 0.123175 0.0389314 0.545454 0.318181 0.127841 1 
14 19 0.6084 0.435784 0.503055 0.5 0.386363 0.125 0.396297 0.186443 0.75 0.25 0.4 0.792593 0 0.249712 0.123175 0.104496 0.454545 0.318181 0.0767047 1 
15 15 1 1 1 1 1 1 0.259259 0 1 1 0 0.259259 0.259259 0 0 0 1 1 0 1 
15 16 0.831539 0.692756 0.866241 0.875 0.693182 0.5 0.351852 0.160583 1 0.75 0.14286 0.444445 0.259259 0.321168 0 0.321168 1 0.386363 0.315586 1 
15 17 0.781825 0.609093 0.740404 0.75 0.681819 0.375 0.344445 0.107342 1 0.5 0.33333 0.42963 0.259259 0.214684 0 0.214686 1 0.363636 0.336899 1 
15 18 1 0.726594 0.867441 0.875 0.772728 0.375 0.277778 0.0851575 1 0.75 0.14286 0.296297 0.259259 0.170315 0 0.170318 1 0.545454 0.194805 1 
15 19 1 0.908237 0.88566 0.875 0.727273 0.375 0.12963 0.124856 1 0.75 0.14286 0.259259 0 0.249712 0 0.249711 1 0.454545 0.258374 1 
16 16 0.663078 0.385513 0.732505 0.75 0.386363 0.875 0.444445 0.321168 0.75 0.75 0 0.444445 0.444445 0.321168 0.321168 0 0.386363 0.386363 0 1 
16 17 0.613364 0.30185 0.606668 0.625 0.375 0.5 0.437037 0.267925 0.75 0.5 0.16667 0.444445 0.42963 0.321168 0.214684 0.0778569 0.386363 0.363636 0.0120314 1 
16 18 0.831539 0.419361 0.733705 0.75 0.465909 0.5 0.370371 0.245742 0.75 0.75 0 0.444445 0.296297 0.321168 0.170315 0.116788 0.545454 0.386363 0.0818183 1 
16 19 0.831539 0.600993 0.751901 0.75 0.420455 0.125 0.222223 0.285439 0.75 0.75 0 0.444445 0 0.321168 0.249712 0.0500496 0.454545 0.386363 0.0350632 1 
17 17 0.563612 0.218187 0.48083 0.5 0.363636 0.75 0.42963 0.214684 0.5 0.5 0 0.42963 0.42963 0.214684 0.214684 0 0.363636 0.363636 0 1 
17 18 0.781825 0.335698 0.607867 0.625 0.454545 0.375 0.362963 0.1925 0.75 0.5 0.16667 0.42963 0.296297 0.214684 0.170315 0.0343474 0.545454 0.363636 0.0962552 1 
17 19 0.781825 0.51733 0.626064 0.625 0.40909 0.375 0.214816 0.232198 0.75 0.5 0.16667 0.42963 0 0.249712 0.214684 0.0256117 0.454545 0.363636 0.0481296 1 
18 18 1 0.453199 0.734881 0.75 0.545454 0.875 0.296297 0.170315 0.75 0.75 0 0.296297 0.296297 0.170315 0.170315 0 0.545454 0.545454 0 1 
18 19 1 0.634841 0.753101 0.75 0.499999 0.25 0.148148 0.210013 0.75 0.75 0 0.296297 0 0.249712 0.170315 0.0614657 0.545454 0.454545 0.043061 1 
19 19 1 0.816484 0.771297 0.75 0.454545 0.875 0 0.249712 0.75 0.75 0 0 0 0.249712 0.249712 0 0.454545 0.454545 0 1 
