0 0 0.847658 0.826657 0.700041 0.75 1 0.875 0.4 0.119258 0.75 0.75 0 0.4 0.4 0.119258 0.119258 0 1 1 0 1 
0 1 0.70877 0.675236 0.578939 0.625 0.942308 0.25 0.3 0.0762952 0.75 0.5 0.16667 0.4 0.2 0.119258 0.0333326 0.0829639 1 0.884615 0.0521989 0 
0 2 0.528543 0.413329 0.453153 0.5 0.576924 0.5 0.35 0.32847 0.75 0.25 0.4 0.4 0.3 0.537682 0.119258 0.371018 1 0.153846 0.698996 0 
0 3 0.776093 0.592619 0.702417 0.75 0.846154 0.25 0.471429 0.233052 0.75 0.75 0 0.542858 0.4 0.346846 0.119258 0.201805 1 0.692307 0.158007 0 
0 4 0.923853 0.856916 0.707803 0.75 0.750001 0.375 0.257142 0.333067 0.75 0.75 0 0.4 0.114286 0.546875 0.119258 0.379166 1 0.5 0.296875 1 
0 5 0.645249 0.445354 0.576563 0.625 0.730769 0.25 0.4 0.247801 0.75 0.5 0.16667 0.4 0.4 0.376343 0.119258 0.227957 1 0.461539 0.330023 1 
0 6 0.776093 0.738778 0.838275 0.875 0.884615 0.25 0.435714 0.28698 1 0.75 0.14286 0.471429 0.4 0.454701 0.119258 0.297434 1 0.769231 0.112429 1 
0 7 0.645249 0.512836 0.584597 0.625 0.865384 0.25 0.3 0.127173 0.75 0.5 0.16667 0.4 0.2 0.135088 0.119258 0.0140373 1 0.730769 0.134615 1 
0 8 0.474821 0.468165 0.461617 0.5 0.5 0.25 0.5 0.483314 0.75 0.25 0.4 0.6 0.4 0.847369 0.119258 0.645614 1 0 1 1 
0 9 0.776093 0.507091 0.460168 0.5 0.615385 0.25 0.35 0.269629 0.75 0.25 0.4 0.4 0.3 0.42 0.119258 0.266662 1 0.23077 0.584616 1 
0 10 0.923853 0.835629 0.71801 0.75 0.961539 0.125 0.257142 0.143738 0.75 0.75 0 0.4 0.114286 0.168216 0.119258 0.0434093 1 0.923078 0.0339881 1 
0 11 0.585287 0.561153 0.485516 0.5 0.557692 0.125 0.35 0.361901 0.75 0.25 0.4 0.4 0.3 0.604546 0.119258 0.430303 1 0.115385 0.763983 1 
0 12 0.645249 0.558319 0.473385 0.5 0.596155 0 0.2 0.297824 0.75 0.25 0.4 0.4 0 0.476389 0.119258 0.31667 1 0.192307 0.639424 1 
0 13 0.776093 0.761298 0.607794 0.625 0.923078 0.125 0.2 0.0880847 0.75 0.5 0.16667 0.4 0 0.119258 0.0569096 0.0587626 1 0.846154 0.0712939 1 
0 14 0.423829 0.43431 0.35002 0.375 0.692307 0.25 0.4 0.0596298 0.75 0 0.75 0.4 0.4 0.119258 0 0.119261 1 0.384615 0.40318 0 
0 15 0.474821 0.457478 0.47162 0.5 0.653846 0.25 0.5 0.219505 0.75 0.25 0.4 0.6 0.4 0.319752 0.119258 0.177781 1 0.307693 0.487182 0 
0 16 0.645249 0.495819 0.592111 0.625 0.615385 0.5 0.6 0.404962 0.75 0.5 0.16667 0.8 0.4 0.690666 0.119258 0.506669 1 0.23077 0.584616 0 
0 17 0.645249 0.463908 0.597429 0.625 0.538461 0.25 0.7 0.559629 0.75 0.5 0.16667 1 0.4 1 0.119258 0.780947 1 0.076924 0.835168 0 
0 18 0.923853 0.913329 0.85002 0.875 0.942308 0.375 0.435714 0.237408 1 0.75 0.14286 0.471429 0.4 0.355556 0.119258 0.209524 1 0.884615 0.0521989 0 
0 19 0.70877 0.623996 0.581881 0.625 0.807693 0.25 0.4 0.172962 0.75 0.5 0.16667 0.4 0.4 0.226666 0.119258 0.0952372 1 0.615385 0.208788 0 
1 1 0.569834 0.523816 0.457837 0.5 0.884615 0.75 0.2 0.0333326 0.5 0.5 0 0.2 0.2 0.0333326 0.0333326 0 0.884615 0.884615 0 1 
1 2 0.389655 0.261908 0.332028 0.375 0.519231 0.125 0.25 0.285507 0.5 0.25 0.2 0.3 0.2 0.537682 0.0333326 0.486957 0.884615 0.153846 0.603682 1 
1 3 0.637206 0.441198 0.581293 0.625 0.788462 0.25 0.371429 0.190089 0.75 0.5 0.16667 0.542858 0.2 0.346846 0.0333326 0.302698 0.884615 0.692307 0.0987562 1 
1 4 0.784917 0.705495 0.586679 0.625 0.692307 0.25 0.157142 0.290103 0.75 0.5 0.16667 0.2 0.114286 0.546875 0.0333326 0.495833 0.884615 0.5 0.228366 0 
1 5 0.506362 0.293933 0.455461 0.5 0.673077 0.5 0.3 0.204839 0.5 0.5 0 0.4 0.2 0.376343 0.0333326 0.331184 0.884615 0.461539 0.259306 0 
1 6 0.637206 0.587358 0.717173 0.75 0.826923 0.375 0.335714 0.244016 1 0.5 0.33333 0.471429 0.2 0.454701 0.0333326 0.406839 0.884615 0.769231 0.0562108 0 
1 7 0.506362 0.361415 0.463495 0.5 0.807693 0 0.2 0.0842103 0.5 0.5 0 0.2 0.2 0.135088 0.0333326 0.0982425 0.884615 0.730769 0.0769208 0 
1 8 0.335933 0.316745 0.340492 0.375 0.442308 0.25 0.4 0.44035 0.5 0.25 0.2 0.6 0.2 0.847369 0.0333326 0.785968 0.884615 0 0.884619 0 
1 9 0.637206 0.35567 0.339044 0.375 0.557692 0.25 0.25 0.226666 0.5 0.25 0.2 0.3 0.2 0.42 0.0333326 0.373333 0.884615 0.23077 0.496923 0 
1 10 0.784917 0.684209 0.596909 0.625 0.903845 0.125 0.157142 0.100775 0.75 0.5 0.16667 0.2 0.114286 0.168216 0.0333326 0.130228 0.923078 0.884615 0.0173996 0 
1 11 0.4464 0.409732 0.364414 0.375 0.5 0 0.25 0.318938 0.5 0.25 0.2 0.3 0.2 0.604546 0.0333326 0.551515 0.884615 0.115385 0.664336 0 
1 12 0.506362 0.406898 0.352284 0.375 0.538461 0 0.1 0.25486 0.5 0.25 0.2 0.2 0 0.476389 0.0333326 0.427774 0.884615 0.192307 0.548077 0 
1 13 0.637206 0.609877 0.486693 0.5 0.865384 0.125 0.1 0.0451221 0.5 0.5 0 0.2 0 0.0569096 0.0333326 0.022764 0.884615 0.846154 0.0178235 0 
1 14 0.284941 0.282889 0.228919 0.25 0.634616 0.125 0.3 0.0166653 0.5 0 0.5 0.4 0.2 0.0333326 0 0.0333293 0.884615 0.384615 0.327589 1 
1 15 0.335933 0.306057 0.350518 0.375 0.596155 0.25 0.4 0.176542 0.5 0.25 0.2 0.6 0.2 0.319752 0.0333326 0.276546 0.884615 0.307693 0.405986 1 
1 16 0.506362 0.344398 0.470986 0.5 0.557692 0.125 0.5 0.362 0.5 0.5 0 0.8 0.2 0.690666 0.0333326 0.634666 0.884615 0.23077 0.496923 1 
1 17 0.506362 0.312487 0.476305 0.5 0.480769 0.375 0.6 0.516666 0.5 0.5 0 1 0.2 1 0.0333326 0.933332 0.884615 0.076924 0.73077 1 
1 18 0.784917 0.761908 0.728919 0.75 0.884615 0.25 0.335714 0.194443 1 0.5 0.33333 0.471429 0.2 0.355556 0.0333326 0.311108 0.884615 0.884615 0 1 
1 19 0.569834 0.472575 0.460757 0.5 0.750001 0.5 0.3 0.129999 0.5 0.5 0 0.4 0.2 0.226666 0.0333326 0.186666 0.884615 0.615385 0.146154 1 
2 2 0.209477 0 0.206242 0.25 0.153846 0.625 0.3 0.537682 0.25 0.25 0 0.3 0.3 0.537682 0.537682 0 0.153846 0.153846 0 1 
2 3 0.457027 0.179303 0.455506 0.5 0.423078 0.375 0.421429 0.442264 0.75 0.25 0.4 0.542858 0.3 0.537682 0.346846 0.139132 0.692307 0.153846 0.44482 1 
2 4 0.604738 0.443587 0.460893 0.5 0.326923 0.5 0.207142 0.542277 0.75 0.25 0.4 0.3 0.114286 0.546875 0.537682 0.00583333 0.5 0.153846 0.28595 0 
2 5 0.326183 0.0320379 0.329675 0.375 0.307693 0.125 0.35 0.457011 0.5 0.25 0.2 0.4 0.3 0.537682 0.376343 0.114977 0.461539 0.153846 0.254184 0 
2 6 0.457027 0.325463 0.591386 0.625 0.461539 0.125 0.385714 0.49619 1 0.25 0.6 0.471429 0.3 0.537682 0.454701 0.0557946 0.769231 0.153846 0.50836 0 
2 7 0.326183 0.0995069 0.337709 0.375 0.442308 0.375 0.25 0.336385 0.5 0.25 0.2 0.3 0.2 0.537682 0.135088 0.351689 0.730769 0.153846 0.476586 0 
2 8 0.155706 0.0548368 0.214706 0.25 0.076924 0.25 0.45 0.692524 0.25 0.25 0 0.6 0.3 0.847369 0.537682 0.196494 0.153846 0 0.153849 0 
2 9 0.457027 0.0937754 0.213258 0.25 0.192307 0.125 0.3 0.478841 0.25 0.25 0 0.3 0.3 0.537682 0.42 0.0811626 0.23077 0.153846 0.0635477 0 
2 10 0.604738 0.422301 0.471122 0.5 0.538461 0.25 0.207142 0.35295 0.75 0.25 0.4 0.3 0.114286 0.537682 0.168216 0.31304 0.923078 0.153846 0.635455 0 
2 11 0.266173 0.147824 0.238628 0.25 0.134616 0 0.3 0.571113 0.25 0.25 0 0.3 0.3 0.604546 0.537682 0.0424199 0.153846 0.115385 0.0332135 0 
2 12 0.326183 0.14499 0.226474 0.25 0.173077 0.125 0.15 0.507034 0.25 0.25 0 0.3 0 0.537682 0.476389 0.0405813 0.192307 0.153846 0.0317739 0 
2 13 0.457027 0.347969 0.360906 0.375 0.5 0 0.15 0.297295 0.5 0.25 0.2 0.3 0 0.537682 0.0569096 0.453142 0.846154 0.153846 0.571908 0 
2 14 0.104714 0.0209943 0.103132 0.125 0.269231 0 0.35 0.26884 0.25 0 0.25 0.4 0.3 0.537682 0 0.537683 0.384615 0.153846 0.190636 1 
2 15 0.155706 0.044149 0.224732 0.25 0.23077 0 0.45 0.428717 0.25 0.25 0 0.6 0.3 0.537682 0.319752 0.162316 0.307693 0.153846 0.127088 1 
2 16 0.326183 0.0824903 0.3452 0.375 0.192307 0.25 0.55 0.614174 0.5 0.25 0.2 0.8 0.3 0.690666 0.537682 0.0970665 0.23077 0.153846 0.0635477 1 
2 17 0.326183 0.0505795 0.350518 0.375 0.115385 0.125 0.65 0.768841 0.5 0.25 0.2 1 0.3 1 0.537682 0.293337 0.153846 0.076924 0.0695985 1 
2 18 0.604738 0.5 0.603132 0.625 0.519231 0.25 0.385714 0.446618 1 0.25 0.6 0.471429 0.3 0.537682 0.355556 0.13188 0.884615 0.153846 0.603682 1 
2 19 0.389655 0.210667 0.33497 0.375 0.384615 0 0.35 0.382174 0.5 0.25 0.2 0.4 0.3 0.537682 0.226666 0.250245 0.615385 0.153846 0.381272 1 
3 3 0.704529 0.358593 0.704771 0.75 0.692307 0.875 0.542858 0.346846 0.75 0.75 0 0.542858 0.542858 0.346846 0.346846 0 0.692307 0.692307 0 1 
3 4 0.852289 0.62289 0.710157 0.75 0.596155 0.25 0.328571 0.446861 0.75 0.75 0 0.542858 0.114286 0.546875 0.346846 0.145833 0.692307 0.5 0.114183 0 
3 5 0.573685 0.211328 0.578916 0.625 0.576924 0.375 0.471429 0.361595 0.75 0.5 0.16667 0.542858 0.4 0.376343 0.346846 0.021504 0.692307 0.461539 0.14144 0 
3 6 0.704529 0.504753 0.840651 0.875 0.730769 0.375 0.507142 0.400773 1 0.75 0.14286 0.542858 0.471429 0.454701 0.346846 0.0786332 0.769231 0.692307 0.0394981 0 
3 7 0.573685 0.278797 0.586951 0.625 0.711538 0.625 0.371429 0.240967 0.75 0.5 0.16667 0.542858 0.2 0.346846 0.135088 0.184986 0.730769 0.692307 0.0197527 0 
3 8 0.403256 0.234127 0.46397 0.5 0.346154 0.125 0.571429 0.597107 0.75 0.25 0.4 0.6 0.542858 0.847369 0.346846 0.364914 0.692307 0 0.692309 0 
3 9 0.704529 0.273066 0.462522 0.5 0.461539 0.125 0.421429 0.383423 0.75 0.25 0.4 0.542858 0.3 0.42 0.346846 0.0533306 0.692307 0.23077 0.35077 0 
3 10 0.852289 0.601591 0.720387 0.75 0.807693 0.5 0.328571 0.257532 0.75 0.75 0 0.542858 0.114286 0.346846 0.168216 0.151349 0.923078 0.692307 0.118502 0 
3 11 0.513723 0.327115 0.487892 0.5 0.403847 0.125 0.421429 0.475695 0.75 0.25 0.4 0.542858 0.3 0.604546 0.346846 0.18788 0.692307 0.115385 0.498253 0 
3 12 0.573685 0.324281 0.475739 0.5 0.442308 0.25 0.271429 0.411617 0.75 0.25 0.4 0.542858 0 0.476389 0.346846 0.0944439 0.692307 0.192307 0.395836 0 
3 13 0.704529 0.527272 0.610171 0.625 0.769231 0.125 0.271429 0.201879 0.75 0.5 0.16667 0.542858 0 0.346846 0.0569096 0.27327 0.846154 0.692307 0.0790035 0 
3 14 0.352264 0.200285 0.352374 0.375 0.538461 0 0.471429 0.173422 0.75 0 0.75 0.542858 0.4 0.346846 0 0.346845 0.692307 0.384615 0.20159 1 
3 15 0.403256 0.223439 0.473974 0.5 0.5 0 0.571429 0.333299 0.75 0.25 0.4 0.6 0.542858 0.346846 0.319752 0.0201786 0.692307 0.307693 0.270655 1 
3 16 0.573685 0.261781 0.594464 0.625 0.461539 0.125 0.671429 0.518756 0.75 0.5 0.16667 0.8 0.542858 0.690666 0.346846 0.250665 0.692307 0.23077 0.35077 1 
3 17 0.573685 0.22987 0.599783 0.625 0.384615 0.125 0.771429 0.673423 0.75 0.5 0.16667 1 0.542858 1 0.346846 0.476186 0.692307 0.076924 0.556774 1 
3 18 0.852289 0.67929 0.852374 0.875 0.788462 0.25 0.507142 0.3512 1 0.75 0.14286 0.542858 0.471429 0.355556 0.346846 0.00634666 0.884615 0.692307 0.0987562 1 
3 19 0.637206 0.389971 0.584235 0.625 0.653846 0.375 0.471429 0.286756 0.75 0.5 0.16667 0.542858 0.4 0.346846 0.226666 0.0966932 0.692307 0.615385 0.0417562 1 
4 4 1 0.887175 0.715543 0.75 0.5 0.875 0.114286 0.546875 0.75 0.75 0 0.114286 0.114286 0.546875 0.546875 0 0.5 0.5 0 1 
4 5 0.721445 0.475625 0.584325 0.625 0.480769 0.25 0.257142 0.461609 0.75 0.5 0.16667 0.4 0.114286 0.546875 0.376343 0.121529 0.5 0.461539 0.0235746 1 
4 6 0.852289 0.76905 0.846037 0.875 0.634616 0.375 0.292858 0.500788 1 0.75 0.14286 0.471429 0.114286 0.546875 0.454701 0.0619826 0.769231 0.5 0.159856 1 
4 7 0.721445 0.543094 0.59236 0.625 0.615385 0.25 0.157142 0.34098 0.75 0.5 0.16667 0.2 0.114286 0.546875 0.135088 0.359725 0.730769 0.5 0.137019 1 
4 8 0.550968 0.498424 0.469357 0.5 0.250001 0.375 0.357142 0.697122 0.75 0.25 0.4 0.6 0.114286 0.847369 0.546875 0.189476 0.5 0 0.5 1 
4 9 0.852289 0.537363 0.467908 0.5 0.365384 0.375 0.207142 0.483436 0.75 0.25 0.4 0.3 0.114286 0.546875 0.42 0.0874999 0.5 0.23077 0.204616 1 
4 10 1 0.865888 0.725773 0.75 0.711538 0.375 0.114286 0.357545 0.75 0.75 0 0.114286 0.114286 0.546875 0.168216 0.320833 0.923078 0.5 0.251202 1 
4 11 0.661483 0.591412 0.493278 0.5 0.307693 0.25 0.207142 0.57571 0.75 0.25 0.4 0.3 0.114286 0.604546 0.546875 0.0363626 0.5 0.115385 0.332171 1 
4 12 0.721445 0.588578 0.481125 0.5 0.346154 0.125 0.0571424 0.511632 0.75 0.25 0.4 0.114286 0 0.546875 0.476389 0.0466666 0.5 0.192307 0.243587 1 
4 13 0.852289 0.791557 0.615557 0.625 0.673077 0 0.0571424 0.301892 0.75 0.5 0.16667 0.114286 0 0.546875 0.0569096 0.461803 0.846154 0.5 0.205529 1 
4 14 0.500024 0.464582 0.357783 0.375 0.442308 0.125 0.257142 0.273437 0.75 0 0.75 0.4 0.114286 0.546875 0 0.546877 0.5 0.384615 0.0755981 0 
4 15 0.550968 0.487736 0.479383 0.5 0.403847 0.25 0.357142 0.433314 0.75 0.25 0.4 0.6 0.114286 0.546875 0.319752 0.169166 0.5 0.307693 0.135331 0 
4 16 0.721445 0.526078 0.599851 0.625 0.365384 0.25 0.457142 0.618772 0.75 0.5 0.16667 0.8 0.114286 0.690666 0.546875 0.0906639 0.5 0.23077 0.204616 0 
4 17 0.721445 0.494167 0.605169 0.625 0.288462 0.125 0.557142 0.773436 0.75 0.5 0.16667 1 0.114286 1 0.546875 0.285712 0.5 0.076924 0.382785 0 
4 18 1 0.943587 0.857783 0.875 0.692307 0.125 0.292858 0.451215 1 0.75 0.14286 0.471429 0.114286 0.546875 0.355556 0.138544 0.884615 0.5 0.228366 0 
4 19 0.784917 0.654255 0.589621 0.625 0.557692 0 0.257142 0.386771 0.75 0.5 0.16667 0.4 0.114286 0.546875 0.226666 0.257637 0.615385 0.5 0.0685097 0 
5 5 0.442841 0.0640631 0.453085 0.5 0.461539 0.75 0.4 0.376343 0.5 0.5 0 0.4 0.4 0.376343 0.376343 0 0.461539 0.461539 0 1 
5 6 0.573685 0.357488 0.714797 0.75 0.615385 0.625 0.435714 0.415522 1 0.5 0.33333 0.471429 0.4 0.454701 0.376343 0.0558413 0.769231 0.461539 0.188582 1 
5 7 0.442841 0.131532 0.461119 0.5 0.596155 0.125 0.3 0.255714 0.5 0.5 0 0.4 0.2 0.376343 0.135088 0.210756 0.730769 0.461539 0.165015 1 
5 8 0.272413 0.086862 0.338139 0.375 0.23077 0.375 0.5 0.611856 0.5 0.25 0.2 0.6 0.4 0.847369 0.376343 0.335673 0.461539 0 0.46154 1 
5 9 0.573685 0.125801 0.33669 0.375 0.346154 0.25 0.35 0.398172 0.5 0.25 0.2 0.4 0.3 0.42 0.376343 0.031108 0.461539 0.23077 0.175385 1 
5 10 0.721445 0.454326 0.594532 0.625 0.692307 0.125 0.257142 0.272279 0.75 0.5 0.16667 0.4 0.114286 0.376343 0.168216 0.176344 0.923078 0.461539 0.282881 1 
5 11 0.382879 0.17985 0.362038 0.375 0.288462 0.125 0.35 0.490444 0.5 0.25 0.2 0.4 0.3 0.604546 0.376343 0.162624 0.461539 0.115385 0.298951 1 
5 12 0.442841 0.177016 0.349907 0.375 0.326923 0.125 0.2 0.426366 0.5 0.25 0.2 0.4 0 0.476389 0.376343 0.0712972 0.461539 0.192307 0.213144 1 
5 13 0.573685 0.380007 0.484316 0.5 0.653846 0.25 0.2 0.216626 0.5 0.5 0 0.4 0 0.376343 0.0569096 0.301074 0.846154 0.461539 0.235732 1 
5 14 0.221421 0.0530195 0.226542 0.25 0.423078 0 0.4 0.188171 0.5 0 0.5 0.4 0.4 0.376343 0 0.376347 0.461539 0.384615 0.0504012 0 
5 15 0.272413 0.0761743 0.348142 0.375 0.384615 0 0.5 0.348049 0.5 0.25 0.2 0.6 0.4 0.376343 0.319752 0.0421493 0.461539 0.307693 0.108264 0 
5 16 0.442841 0.114516 0.468633 0.5 0.346154 0 0.6 0.533506 0.5 0.5 0 0.8 0.4 0.690666 0.376343 0.224 0.461539 0.23077 0.175385 0 
5 17 0.442841 0.0826047 0.473951 0.5 0.269231 0.125 0.7 0.688172 0.5 0.5 0 1 0.4 1 0.376343 0.444443 0.461539 0.076924 0.347985 0 
5 18 0.721445 0.532025 0.726542 0.75 0.673077 0.125 0.435714 0.365949 1 0.5 0.33333 0.471429 0.4 0.376343 0.355556 0.0150546 0.884615 0.461539 0.259306 0 
5 19 0.506362 0.242705 0.458403 0.5 0.538461 0.375 0.4 0.301505 0.5 0.5 0 0.4 0.4 0.376343 0.226666 0.120428 0.615385 0.461539 0.0942912 0 
6 6 0.704529 0.650912 0.976508 1 0.769231 1 0.471429 0.454701 1 1 0 0.471429 0.471429 0.454701 0.454701 0 0.769231 0.769231 0 1 
6 7 0.573685 0.424957 0.722831 0.75 0.750001 0.375 0.335714 0.294893 1 0.5 0.33333 0.471429 0.2 0.454701 0.135088 0.279206 0.769231 0.730769 0.0192339 1 
6 8 0.403256 0.380287 0.599851 0.625 0.384615 0.375 0.535714 0.651035 1 0.25 0.6 0.6 0.471429 0.847369 0.454701 0.26403 0.769231 0 0.76923 1 
6 9 0.704529 0.419225 0.598402 0.625 0.5 0.375 0.385714 0.437349 1 0.25 0.6 0.471429 0.3 0.454701 0.42 0.0239306 0.769231 0.23077 0.409231 1 
6 10 0.852289 0.747751 0.856244 0.875 0.846154 0.25 0.292858 0.311458 1 0.75 0.14286 0.471429 0.114286 0.454701 0.168216 0.242732 0.923078 0.769231 0.0749477 1 
6 11 0.513723 0.473274 0.623772 0.625 0.442308 0.375 0.385714 0.529624 1 0.25 0.6 0.471429 0.3 0.604546 0.454701 0.100753 0.769231 0.115385 0.564688 1 
6 12 0.573685 0.47044 0.611619 0.625 0.480769 0.25 0.235714 0.465545 1 0.25 0.6 0.471429 0 0.476389 0.454701 0.0145786 0.769231 0.192307 0.456731 1 
6 13 0.704529 0.673432 0.746051 0.75 0.807693 0.25 0.235714 0.255805 1 0.5 0.33333 0.471429 0 0.454701 0.0569096 0.374929 0.846154 0.769231 0.0374739 1 
6 14 0.352264 0.346444 0.488254 0.5 0.576924 0 0.435714 0.227351 1 0 1 0.471429 0.4 0.454701 0 0.454701 0.769231 0.384615 0.251991 0 
6 15 0.403256 0.369599 0.609854 0.625 0.538461 0.125 0.535714 0.387226 1 0.25 0.6 0.6 0.471429 0.454701 0.319752 0.100511 0.769231 0.307693 0.324783 0 
6 16 0.573685 0.40794 0.730344 0.75 0.5 0 0.635714 0.572683 1 0.5 0.33333 0.8 0.471429 0.690666 0.454701 0.158666 0.769231 0.23077 0.409231 0 
6 17 0.573685 0.376029 0.735663 0.75 0.423078 0 0.735714 0.72735 1 0.5 0.33333 1 0.471429 1 0.454701 0.366669 0.769231 0.076924 0.626372 0 
6 18 0.852289 0.82545 0.988254 1 0.826923 0.125 0.471429 0.405128 1 1 0 0.471429 0.471429 0.454701 0.355556 0.0717919 0.884615 0.769231 0.0562108 0 
6 19 0.637206 0.536117 0.720115 0.75 0.692307 0.25 0.435714 0.340683 1 0.5 0.33333 0.471429 0.4 0.454701 0.226666 0.183474 0.769231 0.615385 0.0835197 0 
7 7 0.442841 0.199014 0.469153 0.5 0.730769 0.75 0.2 0.135088 0.5 0.5 0 0.2 0.2 0.135088 0.135088 0 0.730769 0.730769 0 1 
7 8 0.272413 0.154344 0.346173 0.375 0.365384 0.125 0.4 0.491227 0.5 0.25 0.2 0.6 0.2 0.847369 0.135088 0.622225 0.730769 0 0.73077 1 
7 9 0.573685 0.19327 0.344725 0.375 0.480769 0.125 0.25 0.277544 0.5 0.25 0.2 0.3 0.2 0.42 0.135088 0.248892 0.730769 0.23077 0.38 1 
7 10 0.721445 0.521808 0.602566 0.625 0.826923 0.5 0.157142 0.151653 0.75 0.5 0.16667 0.2 0.114286 0.168216 0.135088 0.0289426 0.923078 0.730769 0.0961547 1 
7 11 0.382879 0.247331 0.370072 0.375 0.423078 0.125 0.25 0.369816 0.5 0.25 0.2 0.3 0.2 0.604546 0.135088 0.410097 0.730769 0.115385 0.531467 1 
7 12 0.442841 0.244497 0.357941 0.375 0.461539 0.375 0.1 0.305738 0.5 0.25 0.2 0.2 0 0.476389 0.135088 0.298144 0.730769 0.192307 0.42628 1 
7 13 0.573685 0.447476 0.492351 0.5 0.788462 0.125 0.1 0.0959978 0.5 0.5 0 0.2 0 0.135088 0.0569096 0.0736866 0.846154 0.730769 0.0576943 1 
7 14 0.221421 0.120489 0.234577 0.25 0.557692 0 0.3 0.067543 0.5 0 0.5 0.4 0.2 0.135088 0 0.13509 0.730769 0.384615 0.226787 0 
7 15 0.272413 0.143656 0.356176 0.375 0.519231 0 0.4 0.22742 0.5 0.25 0.2 0.6 0.2 0.319752 0.135088 0.161317 0.730769 0.307693 0.297723 0 
7 16 0.442841 0.181997 0.476667 0.5 0.480769 0.125 0.5 0.412877 0.5 0.5 0 0.8 0.2 0.690666 0.135088 0.485333 0.730769 0.23077 0.38 0 
7 17 0.442841 0.150086 0.481985 0.5 0.403847 0 0.6 0.567544 0.5 0.5 0 1 0.2 1 0.135088 0.755551 0.730769 0.076924 0.591573 0 
7 18 0.721445 0.599507 0.734577 0.75 0.807693 0.25 0.335714 0.245321 1 0.5 0.33333 0.471429 0.2 0.355556 0.135088 0.192593 0.884615 0.730769 0.0769208 0 
7 19 0.506362 0.310174 0.466437 0.5 0.673077 0.125 0.3 0.180877 0.5 0.5 0 0.4 0.2 0.226666 0.135088 0.0799959 0.730769 0.615385 0.0626343 0 
8 8 0.101984 0.109661 0.22317 0.25 0 0.625 0.6 0.847369 0.25 0.25 0 0.6 0.6 0.847369 0.847369 0 0 0 0 1 
8 9 0.403256 0.1486 0.221722 0.25 0.115385 0.375 0.45 0.633683 0.25 0.25 0 0.6 0.3 0.847369 0.42 0.294737 0.23077 0 0.23077 1 
8 10 0.550968 0.477125 0.479586 0.5 0.461539 0.25 0.357142 0.507792 0.75 0.25 0.4 0.6 0.114286 0.847369 0.168216 0.575437 0.923078 0 0.923079 1 
8 11 0.212451 0.202661 0.247092 0.25 0.0576934 0.125 0.45 0.725958 0.25 0.25 0 0.6 0.3 0.847369 0.604546 0.147364 0.115385 0 0.115381 1 
8 12 0.272413 0.199827 0.234939 0.25 0.0961546 0.25 0.3 0.661879 0.25 0.25 0 0.6 0 0.847369 0.476389 0.245616 0.192307 0 0.192309 1 
8 13 0.403256 0.402806 0.36937 0.375 0.423078 0.25 0.3 0.452139 0.5 0.25 0.2 0.6 0 0.847369 0.0569096 0.745032 0.846154 0 0.846151 1 
8 14 0.0509921 0.0758184 0.111596 0.125 0.192307 0.125 0.5 0.423685 0.25 0 0.25 0.6 0.4 0.847369 0 0.847363 0.384615 0 0.384619 0 
8 15 0.101984 0.0989732 0.233196 0.25 0.153846 0 0.6 0.58356 0.25 0.25 0 0.6 0.6 0.847369 0.319752 0.392979 0.307693 0 0.307691 0 
8 16 0.272413 0.137327 0.353664 0.375 0.115385 0 0.7 0.769017 0.5 0.25 0.2 0.8 0.6 0.847369 0.690666 0.0900572 0.23077 0 0.23077 0 
8 17 0.272413 0.105404 0.358982 0.375 0.0384611 0 0.8 0.923684 0.5 0.25 0.2 1 0.6 1 0.847369 0.0799959 0.076924 0 0.0769208 0 
8 18 0.550968 0.554837 0.611596 0.625 0.442308 0 0.535714 0.601462 1 0.25 0.6 0.6 0.471429 0.847369 0.355556 0.356141 0.884615 0 0.884619 0 
8 19 0.335933 0.265504 0.343435 0.375 0.307693 0 0.5 0.537017 0.5 0.25 0.2 0.6 0.4 0.847369 0.226666 0.499417 0.615385 0 0.615389 0 
9 9 0.704529 0.187538 0.220273 0.25 0.23077 0.625 0.3 0.42 0.25 0.25 0 0.3 0.3 0.42 0.42 0 0.23077 0.23077 0 1 
9 10 0.852289 0.516063 0.478138 0.5 0.576924 0.125 0.207142 0.294109 0.75 0.25 0.4 0.3 0.114286 0.42 0.168216 0.213332 0.923078 0.23077 0.526154 1 
9 11 0.513723 0.241587 0.245643 0.25 0.173077 0.25 0.3 0.512272 0.25 0.25 0 0.3 0.3 0.604546 0.42 0.127269 0.23077 0.115385 0.0996478 1 
9 12 0.573685 0.238753 0.23349 0.25 0.211538 0.125 0.15 0.448193 0.25 0.25 0 0.3 0 0.476389 0.42 0.0388919 0.23077 0.192307 0.0304512 1 
9 13 0.704529 0.441745 0.367922 0.375 0.538461 0.125 0.15 0.238456 0.5 0.25 0.2 0.3 0 0.42 0.0569096 0.342225 0.846154 0.23077 0.467693 1 
9 14 0.352264 0.114757 0.110148 0.125 0.307693 0.125 0.35 0.209999 0.25 0 0.25 0.4 0.3 0.42 0 0.419999 0.384615 0.23077 0.116923 0 
9 15 0.403256 0.137912 0.231748 0.25 0.269231 0.25 0.45 0.369876 0.25 0.25 0 0.6 0.3 0.42 0.319752 0.0746666 0.307693 0.23077 0.0584616 0 
9 16 0.573685 0.176253 0.352216 0.375 0.23077 0.125 0.55 0.555333 0.5 0.25 0.2 0.8 0.3 0.690666 0.42 0.186666 0.23077 0.23077 0 0 
9 17 0.573685 0.144342 0.357534 0.375 0.153846 0.125 0.65 0.71 0.5 0.25 0.2 1 0.3 1 0.42 0.399998 0.23077 0.076924 0.139197 0 
9 18 0.852289 0.593775 0.610148 0.625 0.557692 0 0.385714 0.387777 1 0.25 0.6 0.471429 0.3 0.42 0.355556 0.0466666 0.884615 0.23077 0.496923 0 
9 19 0.637206 0.304443 0.341986 0.375 0.423078 0.125 0.35 0.323333 0.5 0.25 0.2 0.4 0.3 0.42 0.226666 0.155558 0.615385 0.23077 0.292308 0 
10 10 1 0.844589 0.73598 0.75 0.923078 0.875 0.114286 0.168216 0.75 0.75 0 0.114286 0.114286 0.168216 0.168216 0 0.923078 0.923078 0 1 
10 11 0.661483 0.570125 0.503508 0.5 0.519231 0.25 0.207142 0.386381 0.75 0.25 0.4 0.3 0.114286 0.604546 0.168216 0.369693 0.923078 0.115385 0.697556 1 
10 12 0.721445 0.567291 0.491355 0.5 0.557692 0.375 0.0571424 0.322302 0.75 0.25 0.4 0.114286 0 0.476389 0.168216 0.261109 0.923078 0.192307 0.578529 1 
10 13 0.852289 0.77027 0.625786 0.625 0.884615 0.125 0.0571424 0.112563 0.75 0.5 0.16667 0.114286 0 0.168216 0.0569096 0.104907 0.923078 0.846154 0.035647 1 
10 14 0.500024 0.443282 0.36799 0.375 0.653846 0.25 0.257142 0.0841078 0.75 0 0.75 0.4 0.114286 0.168216 0 0.168214 0.923078 0.384615 0.352786 0 
10 15 0.550968 0.466437 0.489589 0.5 0.615385 0.125 0.357142 0.243985 0.75 0.25 0.4 0.6 0.114286 0.319752 0.168216 0.128398 0.923078 0.307693 0.433047 0 
10 16 0.721445 0.504778 0.61008 0.625 0.576924 0.125 0.457142 0.429442 0.75 0.5 0.16667 0.8 0.114286 0.690666 0.168216 0.44267 0.923078 0.23077 0.526154 0 
10 17 0.721445 0.472868 0.615399 0.625 0.5 0.125 0.557142 0.584109 0.75 0.5 0.16667 1 0.114286 1 0.168216 0.704759 0.923078 0.076924 0.765569 0 
10 18 1 0.922301 0.86799 0.875 0.903845 0.25 0.292858 0.261886 1 0.75 0.14286 0.471429 0.114286 0.355556 0.168216 0.158732 0.923078 0.884615 0.0173996 0 
10 19 0.784917 0.632968 0.599851 0.625 0.769231 0.125 0.257142 0.197442 0.75 0.5 0.16667 0.4 0.114286 0.226666 0.168216 0.0495226 0.923078 0.615385 0.167032 0 
11 11 0.322917 0.295649 0.271013 0.25 0.115385 0.625 0.3 0.604546 0.25 0.25 0 0.3 0.3 0.604546 0.604546 0 0.115385 0.115385 0 1 
11 12 0.382879 0.292815 0.25886 0.25 0.153846 0 0.15 0.540468 0.25 0.25 0 0.3 0 0.604546 0.476389 0.0848492 0.192307 0.115385 0.0664343 1 
11 13 0.513723 0.495794 0.393292 0.375 0.480769 0.25 0.15 0.330728 0.5 0.25 0.2 0.3 0 0.604546 0.0569096 0.516161 0.846154 0.115385 0.631122 1 
11 14 0.161459 0.168806 0.135495 0.125 0.250001 0.125 0.35 0.302273 0.25 0 0.25 0.4 0.3 0.604546 0 0.604547 0.384615 0.115385 0.232516 0 
11 15 0.212451 0.191973 0.257095 0.25 0.211538 0.25 0.45 0.462148 0.25 0.25 0 0.6 0.3 0.604546 0.319752 0.212118 0.307693 0.115385 0.166082 0 
11 16 0.382879 0.230315 0.377586 0.375 0.173077 0.125 0.55 0.647605 0.5 0.25 0.2 0.8 0.3 0.690666 0.604546 0.0522666 0.23077 0.115385 0.0996478 0 
11 17 0.382879 0.198404 0.382904 0.375 0.0961546 0.125 0.65 0.802272 0.5 0.25 0.2 1 0.3 1 0.604546 0.239997 0.115385 0.076924 0.0347993 0 
11 18 0.661483 0.647824 0.635495 0.625 0.5 0.125 0.385714 0.480051 1 0.25 0.6 0.471429 0.3 0.604546 0.355556 0.180301 0.884615 0.115385 0.664336 0 
11 19 0.4464 0.358492 0.367356 0.375 0.365384 0 0.35 0.415605 0.5 0.25 0.2 0.4 0.3 0.604546 0.226666 0.304042 0.615385 0.115385 0.431819 0 
12 12 0.442841 0.289981 0.24673 0.25 0.192307 0.625 0 0.476389 0.25 0.25 0 0 0 0.476389 0.476389 0 0.192307 0.192307 0 1 
12 13 0.573685 0.49296 0.381139 0.375 0.519231 0.375 0 0.266649 0.5 0.25 0.2 0 0 0.476389 0.0569096 0.395369 0.846154 0.192307 0.517626 1 
12 14 0.221421 0.165972 0.123365 0.125 0.288462 0.125 0.2 0.238195 0.25 0 0.25 0.4 0 0.476389 0 0.476391 0.384615 0.192307 0.152241 0 
12 15 0.272413 0.189139 0.244964 0.25 0.250001 0 0.3 0.39807 0.25 0.25 0 0.6 0 0.476389 0.319752 0.116667 0.307693 0.192307 0.0913462 0 
12 16 0.442841 0.227481 0.365432 0.375 0.211538 0.125 0.4 0.583527 0.5 0.25 0.2 0.8 0 0.690666 0.476389 0.141866 0.23077 0.192307 0.0304512 0 
12 17 0.442841 0.19557 0.370751 0.375 0.134616 0.125 0.5 0.738194 0.5 0.25 0.2 1 0 1 0.476389 0.346668 0.192307 0.076924 0.104398 0 
12 18 0.721445 0.64499 0.623365 0.625 0.538461 0.25 0.235714 0.415972 1 0.25 0.6 0.471429 0 0.476389 0.355556 0.0874999 0.884615 0.192307 0.548077 0 
12 19 0.506362 0.355658 0.355203 0.375 0.403847 0.125 0.2 0.351527 0.5 0.25 0.2 0.4 0 0.476389 0.226666 0.200928 0.615385 0.192307 0.334934 0 
13 13 0.704529 0.695938 0.515571 0.5 0.846154 0.75 0 0.0569096 0.5 0.5 0 0 0 0.0569096 0.0569096 0 0.846154 0.846154 0 1 
13 14 0.352264 0.368964 0.257774 0.25 0.615385 0.125 0.2 0.0284548 0.5 0 0.5 0.4 0 0.0569096 0 0.0569146 0.846154 0.384615 0.302385 0 
13 15 0.403256 0.392118 0.379374 0.375 0.576924 0.125 0.3 0.188332 0.5 0.25 0.2 0.6 0 0.319752 0.0569096 0.247734 0.846154 0.307693 0.378919 0 
13 16 0.573685 0.43046 0.499864 0.5 0.538461 0.125 0.4 0.373789 0.5 0.5 0 0.8 0 0.690666 0.0569096 0.597333 0.846154 0.23077 0.467693 0 
13 17 0.573685 0.398549 0.505183 0.5 0.461539 0.375 0.5 0.528456 0.5 0.5 0 1 0 1 0.0569096 0.888887 0.846154 0.076924 0.695971 0 
13 18 0.852289 0.847969 0.757774 0.75 0.865384 0.375 0.235714 0.206233 1 0.5 0.33333 0.471429 0 0.355556 0.0569096 0.281484 0.884615 0.846154 0.0178235 0 
13 19 0.637206 0.558637 0.489635 0.5 0.730769 0.25 0.2 0.141789 0.5 0.5 0 0.4 0 0.226666 0.0569096 0.160001 0.846154 0.615385 0.125276 0 
14 14 0 0.0419759 0 0 0.384615 0.5 0.4 0 0 0 0 0.4 0.4 0 0 0 0.384615 0.384615 0 1 
14 15 0.0509921 0.0651306 0.1216 0.125 0.346154 0.375 0.5 0.159875 0.25 0 0.25 0.6 0.4 0.319752 0 0.31975 0.384615 0.307693 0.0541281 1 
14 16 0.221421 0.103472 0.24209 0.25 0.307693 0.375 0.6 0.345332 0.5 0 0.5 0.8 0.4 0.690666 0 0.690666 0.384615 0.23077 0.116923 1 
14 17 0.221421 0.0715611 0.247409 0.25 0.23077 0.125 0.7 0.499999 0.5 0 0.5 1 0.4 1 0 1 0.384615 0.076924 0.278387 1 
14 18 0.500024 0.520982 0.5 0.5 0.634616 0.125 0.435714 0.177778 1 0 1 0.471429 0.4 0.355556 0 0.355553 0.884615 0.384615 0.327589 1 
14 19 0.284941 0.231649 0.231838 0.25 0.5 0.25 0.4 0.113332 0.5 0 0.5 0.4 0.4 0.226666 0 0.226669 0.615385 0.384615 0.151196 1 
15 15 0.101984 0.0882854 0.243199 0.25 0.307693 0.625 0.6 0.319752 0.25 0.25 0 0.6 0.6 0.319752 0.319752 0 0.307693 0.307693 0 1 
15 16 0.272413 0.126627 0.36369 0.375 0.269231 0.375 0.7 0.505209 0.5 0.25 0.2 0.8 0.6 0.690666 0.319752 0.276266 0.307693 0.23077 0.0584616 1 
15 17 0.272413 0.0947158 0.369008 0.375 0.192307 0.25 0.8 0.659876 0.5 0.25 0.2 1 0.6 1 0.319752 0.506669 0.307693 0.076924 0.208788 1 
15 18 0.550968 0.544149 0.6216 0.625 0.596155 0.25 0.535714 0.337653 1 0.25 0.6 0.6 0.471429 0.355556 0.319752 0.0266653 0.884615 0.307693 0.405986 1 
15 19 0.335933 0.254816 0.353438 0.375 0.461539 0.375 0.5 0.273209 0.5 0.25 0.2 0.6 0.4 0.319752 0.226666 0.0748999 0.615385 0.307693 0.216527 1 
16 16 0.442841 0.164981 0.484158 0.5 0.23077 0.75 0.8 0.690666 0.5 0.5 0 0.8 0.8 0.690666 0.690666 0 0.23077 0.23077 0 1 
16 17 0.442841 0.13307 0.489476 0.5 0.153846 0.375 0.9 0.845333 0.5 0.5 0 1 0.8 1 0.690666 0.177781 0.23077 0.076924 0.139197 1 
16 18 0.721445 0.58249 0.74209 0.75 0.557692 0.5 0.635714 0.52311 1 0.5 0.33333 0.8 0.471429 0.690666 0.355556 0.242666 0.884615 0.23077 0.496923 1 
16 19 0.506362 0.293158 0.473928 0.5 0.423078 0.25 0.6 0.458666 0.5 0.5 0 0.8 0.4 0.690666 0.226666 0.373333 0.615385 0.23077 0.292308 1 
17 17 0.442841 0.101159 0.494795 0.5 0.076924 0.75 1 1 0.5 0.5 0 1 1 1 1 0 0.076924 0.076924 0 1 
17 18 0.721445 0.55058 0.747409 0.75 0.480769 0.625 0.735714 0.677777 1 0.5 0.33333 1 0.471429 1 0.355556 0.466666 0.884615 0.076924 0.73077 1 
17 19 0.506362 0.261247 0.479247 0.5 0.346154 0.375 0.7 0.613333 0.5 0.5 0 1 0.4 1 0.226666 0.622225 0.615385 0.076924 0.487182 1 
18 18 1 1 1 1 0.884615 1 0.471429 0.355556 1 1 0 0.471429 0.471429 0.355556 0.355556 0 0.884615 0.884615 0 1 
18 19 0.784917 0.710667 0.731861 0.75 0.750001 0.375 0.435714 0.29111 1 0.5 0.33333 0.471429 0.4 0.355556 0.226666 0.103703 0.884615 0.615385 0.146154 1 
19 19 0.569834 0.421335 0.463699 0.5 0.615385 0.75 0.4 0.226666 0.5 0.5 0 0.4 0.4 0.226666 0.226666 0 0.615385 0.615385 0 1 
