0 0 0.277766 0.235877 0.324434 0.333333 0.5 0.75 0.733333 0.242106 0.333333 0.333333 0 0.733333 0.733333 0.242106 0.242106 0 0.5 0.5 0 1 
0 1 0.228973 0.173474 0.162616 0.166667 0.5 0.5 0.766667 0.121053 0.333333 0 0.333333 0.8 0.733333 0.242106 0 0.242104 0.5 0.5 0 1 
0 2 0.441912 0.420095 0.495112 0.5 0.5625 0.25 0.647619 0.296261 0.666667 0.333333 0.277783 0.733333 0.561905 0.350415 0.242106 0.0902565 0.625 0.5 0.0821386 1 
0 3 0.638905 0.617933 0.655306 0.666667 0.749999 0.125 0.588095 0.236955 1 0.333333 0.55555 0.733333 0.442857 0.242106 0.231802 0.00864313 1 0.5 0.328574 1 
0 4 0.441912 0.385237 0.32343 0.333333 0.354167 0.25 0.6 0.423685 0.333333 0.333333 0 0.733333 0.466667 0.605264 0.242106 0.30263 0.5 0.208333 0.239583 1 
0 5 0.329376 0.251443 0.325024 0.333333 0.395832 0.25 0.733333 0.363158 0.333333 0.333333 0 0.733333 0.733333 0.484211 0.242106 0.201758 0.5 0.291667 0.159725 1 
0 6 0.383975 0.33899 0.332024 0.333333 0.625 0.25 0.6 0.135815 0.333333 0.333333 0 0.733333 0.466667 0.242106 0.029526 0.20752 0.749999 0.5 0.164287 1 
0 7 0.329376 0.214695 0.165717 0.166667 0.249999 0.125 0.566667 0.436842 0.333333 0 0.333333 0.733333 0.4 0.631578 0.242106 0.324565 0.5 0 0.5 1 
0 8 0.277766 0.22905 0.328923 0.333333 0.416667 0 0.666666 0.335823 0.333333 0.333333 0 0.733333 0.6 0.429541 0.242106 0.156194 0.5 0.333332 0.123654 1 
0 9 0.329376 0.263716 0.33421 0.333333 0.458333 0 0.6 0.286124 0.333333 0.333333 0 0.733333 0.466667 0.330144 0.242106 0.0733697 0.5 0.416667 0.0580845 0 
0 10 0.441912 0.357953 0.165658 0.166667 0.291667 0.25 0.366666 0.363158 0.333333 0 0.333333 0.733333 0 0.484211 0.242106 0.201758 0.5 0.083333 0.383333 0 
0 11 0.277766 0.18072 0.332615 0.333333 0.4375 0 0.733333 0.310196 0.333333 0.333333 0 0.733333 0.733333 0.37829 0.242106 0.113486 0.5 0.375 0.0898436 0 
0 12 0.277766 0.276905 0.334032 0.333333 0.312499 0 0.6 0.493522 0.333333 0.333333 0 0.733333 0.466667 0.744938 0.242106 0.419022 0.5 0.124999 0.331727 0 
0 13 0.503488 0.372852 0.3177 0.333333 0.375 0.25 0.6 0.392377 0.333333 0.333333 0 0.733333 0.466667 0.542649 0.242106 0.250457 0.5 0.249999 0.198279 0 
0 14 0.329376 0.2605 0.326472 0.333333 0.354167 0.25 0.733333 0.423685 0.333333 0.333333 0 0.733333 0.733333 0.605264 0.242106 0.30263 0.5 0.208333 0.239583 0 
0 15 0.441912 0.405072 0.322662 0.333333 0.249999 0.25 0.6 0.621052 0.333333 0.333333 0 0.733333 0.466667 1 0.242106 0.631578 0.5 0 0.5 0 
0 16 0.569008 0.615804 0.662217 0.666667 0.666666 0.375 0.623809 0.30404 1 0.333333 0.55555 0.733333 0.514285 0.365972 0.242106 0.103221 0.833334 0.5 0.219046 0 
0 17 0.383975 0.294792 0.162232 0.166667 0.354167 0.25 0.666666 0.272368 0.333333 0 0.333333 0.733333 0.6 0.302632 0.242106 0.0504424 0.5 0.208333 0.239583 0 
0 18 0.228973 0.242273 0.33418 0.333333 0.5625 0.375 0.733333 0.184765 0.333333 0.333333 0 0.733333 0.733333 0.242106 0.127424 0.103754 0.625 0.5 0.0821386 0 
0 19 0.138883 0.117933 0.163324 0.166667 0.458333 0.375 0.866667 0.157734 0.333333 0 0.333333 1 0.733333 0.242106 0.0733652 0.159099 0.5 0.416667 0.0580845 1 
1 1 0.180179 0.111083 0.000826959 0 0.5 0.625 0.8 0 0 0 0 0.8 0.8 0 0 0 0.5 0.5 0 1 
1 2 0.393119 0.357704 0.333294 0.333333 0.5625 0.375 0.680952 0.175209 0.666667 0 0.666667 0.8 0.561905 0.350415 0 0.35041 0.625 0.5 0.0821386 1 
1 3 0.590111 0.555542 0.493517 0.5 0.749999 0.25 0.621429 0.115902 1 0 1 0.8 0.442857 0.231802 0 0.231803 1 0.5 0.328574 1 
1 4 0.393119 0.322846 0.161641 0.166667 0.354167 0.25 0.633333 0.302632 0.333333 0 0.333333 0.8 0.466667 0.605264 0 0.605261 0.5 0.208333 0.239583 1 
1 5 0.280582 0.189041 0.163206 0.166667 0.395832 0.375 0.766667 0.242106 0.333333 0 0.333333 0.8 0.733333 0.484211 0 0.484209 0.5 0.291667 0.159725 1 
1 6 0.335182 0.276588 0.170235 0.166667 0.625 0.125 0.633333 0.0147619 0.333333 0 0.333333 0.8 0.466667 0.029526 0 0.0295246 0.749999 0.5 0.164287 1 
1 7 0.280582 0.152293 0.00392805 0 0.249999 0.125 0.6 0.315789 0 0 0 0.8 0.4 0.631578 0 0.631578 0.5 0 0.5 1 
1 8 0.228973 0.166659 0.167134 0.166667 0.416667 0 0.7 0.21477 0.333333 0 0.333333 0.8 0.6 0.429541 0 0.429542 0.5 0.333332 0.123654 1 
1 9 0.280582 0.201325 0.172421 0.166667 0.458333 0.125 0.633333 0.165071 0.333333 0 0.333333 0.8 0.466667 0.330144 0 0.330146 0.5 0.416667 0.0580845 0 
1 10 0.393119 0.295562 0.00386899 0 0.291667 0.125 0.4 0.242106 0 0 0 0.8 0 0.484211 0 0.484209 0.5 0.083333 0.383333 0 
1 11 0.228973 0.118318 0.170826 0.166667 0.4375 0 0.766667 0.189146 0.333333 0 0.333333 0.8 0.733333 0.37829 0 0.378288 0.5 0.375 0.0898436 0 
1 12 0.228973 0.214502 0.172214 0.166667 0.312499 0 0.633333 0.372469 0.333333 0 0.333333 0.8 0.466667 0.744938 0 0.744931 0.5 0.124999 0.331727 0 
1 13 0.454695 0.310461 0.155882 0.166667 0.375 0.125 0.633333 0.271324 0.333333 0 0.333333 0.8 0.466667 0.542649 0 0.542653 0.5 0.249999 0.198279 0 
1 14 0.280582 0.198098 0.164683 0.166667 0.354167 0 0.766667 0.302632 0.333333 0 0.333333 0.8 0.733333 0.605264 0 0.605261 0.5 0.208333 0.239583 0 
1 15 0.393119 0.34267 0.160873 0.166667 0.249999 0.25 0.633333 0.500001 0.333333 0 0.333333 0.8 0.466667 1 0 1 0.5 0 0.5 0 
1 16 0.520215 0.553402 0.500399 0.5 0.666666 0.25 0.657143 0.182987 1 0 1 0.8 0.514285 0.365972 0 0.365977 0.833334 0.5 0.219046 0 
1 17 0.335182 0.23239 0.000413479 0 0.354167 0.125 0.7 0.151315 0 0 0 0.8 0.6 0.302632 0 0.30263 0.5 0.208333 0.239583 0 
1 18 0.180179 0.179882 0.172362 0.166667 0.5625 0.125 0.766667 0.0637118 0.333333 0 0.333333 0.8 0.733333 0.127424 0 0.12742 0.625 0.5 0.0821386 0 
1 19 0.0900897 0.0555417 0.00153578 0 0.458333 0.25 0.9 0.0366837 0 0 0 1 0.8 0.0733652 0 0.0733697 0.5 0.416667 0.0580845 1 
2 2 0.606058 0.604325 0.665761 0.666667 0.625 0.875 0.561905 0.350415 0.666667 0.666667 0 0.561905 0.561905 0.350415 0.350415 0 0.625 0.625 0 1 
2 3 0.803051 0.802162 0.825984 0.833333 0.812499 0.5 0.50238 0.291109 1 0.666667 0.2381 0.561905 0.442857 0.350415 0.231802 0.0995533 1 0.625 0.226971 1 
2 4 0.606058 0.569467 0.494108 0.5 0.416667 0.375 0.514285 0.477838 0.666667 0.333333 0.277783 0.561905 0.466667 0.605264 0.350415 0.197642 0.625 0.208333 0.342259 1 
2 5 0.493522 0.435662 0.495673 0.5 0.458333 0.25 0.647619 0.417314 0.666667 0.333333 0.277783 0.733333 0.561905 0.484211 0.350415 0.103754 0.625 0.291667 0.255558 1 
2 6 0.548122 0.523208 0.502702 0.5 0.687501 0.25 0.514285 0.18997 0.666667 0.333333 0.277783 0.561905 0.466667 0.350415 0.029526 0.313247 0.749999 0.625 0.0756603 1 
2 7 0.493522 0.398913 0.336395 0.333333 0.312499 0.375 0.480952 0.490998 0.666667 0 0.666667 0.561905 0.4 0.631578 0.350415 0.218039 0.625 0 0.624995 1 
2 8 0.441912 0.41328 0.499601 0.5 0.479167 0.125 0.580953 0.389979 0.666667 0.333333 0.277783 0.6 0.561905 0.429541 0.350415 0.0613614 0.625 0.333332 0.216401 1 
2 9 0.493522 0.447945 0.504888 0.5 0.520833 0.25 0.514285 0.34028 0.666667 0.333333 0.277783 0.561905 0.466667 0.350415 0.330144 0.0159305 0.625 0.416667 0.145206 0 
2 10 0.606058 0.542183 0.336336 0.333333 0.354167 0 0.280953 0.417314 0.666667 0 0.666667 0.561905 0 0.484211 0.350415 0.103754 0.625 0.083333 0.498333 0 
2 11 0.441912 0.364938 0.503293 0.5 0.5 0.125 0.647619 0.364352 0.666667 0.333333 0.277783 0.733333 0.561905 0.37829 0.350415 0.0216199 0.625 0.375 0.179687 0 
2 12 0.441912 0.461123 0.504681 0.5 0.375 0 0.514285 0.547678 0.666667 0.333333 0.277783 0.561905 0.466667 0.744938 0.350415 0.305959 0.625 0.124999 0.442308 0 
2 13 0.667634 0.557081 0.488349 0.5 0.4375 0.125 0.514285 0.446533 0.666667 0.333333 0.277783 0.561905 0.466667 0.542649 0.350415 0.149076 0.625 0.249999 0.297409 0 
2 14 0.493522 0.444719 0.49715 0.5 0.416667 0 0.647619 0.477838 0.666667 0.333333 0.277783 0.733333 0.561905 0.605264 0.350415 0.197642 0.625 0.208333 0.342259 0 
2 15 0.606058 0.58929 0.49334 0.5 0.312499 0.125 0.514285 0.675207 0.666667 0.333333 0.277783 0.561905 0.466667 1 0.350415 0.503759 0.625 0 0.624995 0 
2 16 0.733154 0.800023 0.832895 0.833333 0.729166 0.375 0.538095 0.358194 1 0.666667 0.2381 0.561905 0.514285 0.365972 0.350415 0.0120689 0.833334 0.625 0.126097 0 
2 17 0.548122 0.479011 0.33288 0.333333 0.416667 0.125 0.580953 0.326523 0.666667 0 0.666667 0.6 0.561905 0.350415 0.302632 0.0382283 0.625 0.208333 0.342259 0 
2 18 0.393119 0.426503 0.504829 0.5 0.625 0.375 0.647619 0.23892 0.666667 0.333333 0.277783 0.733333 0.561905 0.350415 0.127424 0.201758 0.625 0.625 0 0 
2 19 0.303029 0.302162 0.334003 0.333333 0.520833 0.25 0.780952 0.21189 0.666667 0 0.666667 1 0.561905 0.350415 0.0733652 0.261219 0.625 0.416667 0.145206 1 
3 3 1 1 0.986208 1 1 1 0.442857 0.231802 1 1 0 0.442857 0.442857 0.231802 0.231802 0 1 1 0 1 
3 4 0.803051 0.767304 0.654331 0.666667 0.604166 0.375 0.454762 0.418532 1 0.333333 0.55555 0.466667 0.442857 0.605264 0.231802 0.31344 1 0.208333 0.650295 1 
3 5 0.690471 0.633499 0.655897 0.666667 0.645833 0.5 0.588095 0.358006 1 0.333333 0.55555 0.733333 0.442857 0.484211 0.231802 0.211841 1 0.291667 0.543058 1 
3 6 0.745114 0.721046 0.662926 0.666667 0.875 0.25 0.454762 0.130664 1 0.333333 0.55555 0.466667 0.442857 0.231802 0.029526 0.19746 1 0.749999 0.140242 1 
3 7 0.690471 0.596751 0.496589 0.5 0.5 0.25 0.421428 0.431691 1 0 1 0.442857 0.4 0.631578 0.231802 0.33552 1 0 1 1 
3 8 0.638905 0.611117 0.659795 0.666667 0.666666 0.375 0.521428 0.330673 1 0.333333 0.55555 0.6 0.442857 0.429541 0.231802 0.165963 1 0.333332 0.494624 1 
3 9 0.690471 0.645783 0.665111 0.666667 0.708333 0.25 0.454762 0.280973 1 0.333333 0.55555 0.466667 0.442857 0.330144 0.231802 0.0825334 1 0.416667 0.406563 0 
3 10 0.803051 0.74002 0.496559 0.5 0.541666 0.25 0.221428 0.358006 1 0 1 0.442857 0 0.484211 0.231802 0.211841 1 0.083333 0.843332 0 
3 11 0.638905 0.562776 0.663516 0.666667 0.687501 0.125 0.588095 0.305046 1 0.333333 0.55555 0.733333 0.442857 0.37829 0.231802 0.122941 1 0.375 0.449218 0 
3 12 0.638905 0.658961 0.664904 0.666667 0.5625 0.125 0.454762 0.488372 1 0.333333 0.55555 0.466667 0.442857 0.744938 0.231802 0.430667 1 0.124999 0.774035 0 
3 13 0.864584 0.754919 0.648572 0.666667 0.625 0 0.454762 0.387227 1 0.333333 0.55555 0.466667 0.442857 0.542649 0.231802 0.260892 1 0.249999 0.594827 0 
3 14 0.690471 0.642556 0.657373 0.666667 0.604166 0.125 0.588095 0.418532 1 0.333333 0.55555 0.733333 0.442857 0.605264 0.231802 0.31344 1 0.208333 0.650295 0 
3 15 0.803051 0.787139 0.653563 0.666667 0.5 0.25 0.454762 0.615901 1 0.333333 0.55555 0.466667 0.442857 1 0.231802 0.644736 1 0 1 0 
3 16 0.930104 0.99786 0.993089 1 0.916667 0.25 0.478571 0.298887 1 1 0 0.514285 0.442857 0.365972 0.231802 0.112603 1 0.833334 0.089144 0 
3 17 0.745114 0.676848 0.493104 0.5 0.604166 0.25 0.521428 0.267217 1 0 1 0.6 0.442857 0.302632 0.231802 0.0594487 1 0.208333 0.650295 0 
3 18 0.590111 0.624341 0.665052 0.666667 0.812499 0.25 0.588095 0.179614 1 0.333333 0.55555 0.733333 0.442857 0.231802 0.127424 0.0944328 1 0.625 0.226971 0 
3 19 0.500022 0.5 0.494226 0.5 0.708333 0.375 0.721428 0.152584 1 0 1 1 0.442857 0.231802 0.0733652 0.149378 1 0.416667 0.406563 1 
4 4 0.606058 0.534598 0.322455 0.333333 0.208333 0.75 0.466667 0.605264 0.333333 0.333333 0 0.466667 0.466667 0.605264 0.605264 0 0.208333 0.208333 0 1 
4 5 0.493522 0.400804 0.32402 0.333333 0.249999 0.25 0.6 0.544738 0.333333 0.333333 0 0.733333 0.466667 0.605264 0.484211 0.0864676 0.291667 0.208333 0.0684536 1 
4 6 0.548122 0.488351 0.331049 0.333333 0.479167 0.375 0.466667 0.317394 0.333333 0.333333 0 0.466667 0.466667 0.605264 0.029526 0.562033 0.749999 0.208333 0.444944 1 
4 7 0.493522 0.364055 0.164712 0.166667 0.104166 0.25 0.433333 0.618421 0.333333 0 0.333333 0.466667 0.4 0.631578 0.605264 0.0175405 0.208333 0 0.208332 1 
4 8 0.441912 0.378411 0.327919 0.333333 0.270834 0.25 0.533333 0.517402 0.333333 0.333333 0 0.6 0.466667 0.605264 0.429541 0.129695 0.333332 0.208333 0.102676 1 
4 9 0.493522 0.413076 0.333235 0.333333 0.312499 0 0.466667 0.467703 0.333333 0.333333 0 0.466667 0.466667 0.605264 0.330144 0.216163 0.416667 0.208333 0.171129 0 
4 10 0.606058 0.507313 0.164653 0.166667 0.145833 0.25 0.233333 0.544738 0.333333 0 0.333333 0.466667 0 0.605264 0.484211 0.0864676 0.208333 0.083333 0.115 0 
4 11 0.441912 0.33008 0.33164 0.333333 0.291667 0.125 0.6 0.491776 0.333333 0.333333 0 0.733333 0.466667 0.605264 0.37829 0.172935 0.375 0.208333 0.136907 0 
4 12 0.441912 0.426265 0.333028 0.333333 0.166666 0.25 0.466667 0.675101 0.333333 0.333333 0 0.466667 0.466667 0.744938 0.605264 0.0931133 0.208333 0.124999 0.0737149 0 
4 13 0.667634 0.522212 0.316696 0.333333 0.229166 0.25 0.466667 0.573956 0.333333 0.333333 0 0.466667 0.466667 0.605264 0.542649 0.0432277 0.249999 0.208333 0.034222 0 
4 14 0.493522 0.409861 0.325497 0.333333 0.208333 0.125 0.6 0.605264 0.333333 0.333333 0 0.733333 0.466667 0.605264 0.605264 0 0.208333 0.208333 0 0 
4 15 0.606058 0.554432 0.321687 0.333333 0.104166 0 0.466667 0.802631 0.333333 0.333333 0 0.466667 0.466667 1 0.605264 0.263155 0.208333 0 0.208332 0 
4 16 0.733154 0.765165 0.661213 0.666667 0.520833 0.125 0.490476 0.485617 1 0.333333 0.55555 0.514285 0.466667 0.605264 0.365972 0.183745 0.833334 0.208333 0.513388 0 
4 17 0.548122 0.444153 0.161227 0.166667 0.208333 0 0.533333 0.453947 0.333333 0 0.333333 0.6 0.466667 0.605264 0.302632 0.242104 0.208333 0.208333 0 0 
4 18 0.393119 0.391634 0.333176 0.333333 0.416667 0.25 0.6 0.366344 0.333333 0.333333 0 0.733333 0.466667 0.605264 0.127424 0.432326 0.625 0.208333 0.342259 0 
4 19 0.303029 0.267293 0.16235 0.166667 0.312499 0.25 0.733333 0.339314 0.333333 0 0.333333 1 0.466667 0.605264 0.0733652 0.501507 0.416667 0.208333 0.171129 1 
5 5 0.380942 0.266999 0.325586 0.333333 0.291667 0.75 0.733333 0.484211 0.333333 0.333333 0 0.733333 0.733333 0.484211 0.484211 0 0.291667 0.291667 0 1 
5 6 0.435585 0.354557 0.332615 0.333333 0.520833 0.375 0.6 0.256868 0.333333 0.333333 0 0.733333 0.466667 0.484211 0.029526 0.443862 0.749999 0.291667 0.351391 1 
5 7 0.380942 0.23025 0.166307 0.166667 0.145833 0.25 0.566667 0.557895 0.333333 0 0.333333 0.733333 0.4 0.631578 0.484211 0.105267 0.291667 0 0.291668 1 
5 8 0.329376 0.244617 0.329514 0.333333 0.312499 0.125 0.666666 0.456876 0.333333 0.333333 0 0.733333 0.6 0.484211 0.429541 0.0403467 0.333332 0.291667 0.0319412 1 
5 9 0.380942 0.279282 0.3348 0.333333 0.354167 0.375 0.6 0.407177 0.333333 0.333333 0 0.733333 0.466667 0.484211 0.330144 0.121052 0.416667 0.291667 0.0958332 0 
5 10 0.493522 0.37352 0.166248 0.166667 0.187499 0.25 0.366666 0.484211 0.333333 0 0.333333 0.733333 0 0.484211 0.484211 0 0.291667 0.083333 0.191666 0 
5 11 0.329376 0.196287 0.333205 0.333333 0.333332 0.125 0.733333 0.431249 0.333333 0.333333 0 0.733333 0.733333 0.484211 0.37829 0.0807055 0.375 0.291667 0.063892 0 
5 12 0.329376 0.292471 0.334593 0.333333 0.208333 0.25 0.6 0.614575 0.333333 0.333333 0 0.733333 0.466667 0.744938 0.484211 0.186239 0.291667 0.124999 0.147439 0 
5 13 0.555055 0.388418 0.318261 0.333333 0.270834 0.25 0.6 0.51343 0.333333 0.333333 0 0.733333 0.466667 0.542649 0.484211 0.0417388 0.291667 0.249999 0.0330433 0 
5 14 0.380942 0.276056 0.327062 0.333333 0.249999 0 0.733333 0.544738 0.333333 0.333333 0 0.733333 0.733333 0.605264 0.484211 0.0864676 0.291667 0.208333 0.0684536 0 
5 15 0.493522 0.420639 0.323252 0.333333 0.145833 0.125 0.6 0.742105 0.333333 0.333333 0 0.733333 0.466667 1 0.484211 0.368422 0.291667 0 0.291668 0 
5 16 0.620575 0.63136 0.662808 0.666667 0.5625 0 0.623809 0.425091 1 0.333333 0.55555 0.733333 0.514285 0.484211 0.365972 0.0907891 0.833334 0.291667 0.415274 0 
5 17 0.435585 0.310348 0.162793 0.166667 0.249999 0.125 0.666666 0.393421 0.333333 0 0.333333 0.733333 0.6 0.484211 0.302632 0.145263 0.291667 0.208333 0.0684536 0 
5 18 0.280582 0.25784 0.334741 0.333333 0.458333 0 0.733333 0.305817 0.333333 0.333333 0 0.733333 0.733333 0.484211 0.127424 0.32281 0.625 0.291667 0.255558 0 
5 19 0.190493 0.133499 0.163915 0.166667 0.354167 0.125 0.866667 0.278787 0.333333 0 0.333333 1 0.733333 0.484211 0.0733652 0.387367 0.416667 0.291667 0.0958332 1 
6 6 0.490185 0.442103 0.339644 0.333333 0.749999 0.75 0.466667 0.029526 0.333333 0.333333 0 0.466667 0.466667 0.029526 0.029526 0 0.749999 0.749999 0 1 
6 7 0.435585 0.317808 0.173307 0.166667 0.375 0.25 0.433333 0.330551 0.333333 0 0.333333 0.466667 0.4 0.631578 0.029526 0.58772 0.749999 0 0.75 1 
6 8 0.383975 0.332163 0.336513 0.333333 0.541666 0.25 0.533333 0.229534 0.333333 0.333333 0 0.6 0.466667 0.429541 0.029526 0.39049 0.749999 0.333332 0.309139 1 
6 9 0.435585 0.366829 0.341829 0.333333 0.583333 0.125 0.466667 0.179835 0.333333 0.333333 0 0.466667 0.466667 0.330144 0.029526 0.293455 0.749999 0.416667 0.232319 0 
6 10 0.548122 0.461066 0.173248 0.166667 0.416667 0.25 0.233333 0.256868 0.333333 0 0.333333 0.466667 0 0.484211 0.029526 0.443862 0.749999 0.083333 0.613332 0 
6 11 0.383975 0.283833 0.340205 0.333333 0.5625 0.25 0.6 0.203908 0.333333 0.333333 0 0.733333 0.466667 0.37829 0.029526 0.340459 0.749999 0.375 0.269531 0 
6 12 0.383975 0.380018 0.341623 0.333333 0.4375 0.375 0.466667 0.387231 0.333333 0.333333 0 0.466667 0.466667 0.744938 0.029526 0.698374 0.749999 0.124999 0.552881 0 
6 13 0.609698 0.475965 0.32529 0.333333 0.5 0.25 0.466667 0.286088 0.333333 0.333333 0 0.466667 0.466667 0.542649 0.029526 0.500902 0.749999 0.249999 0.396548 0 
6 14 0.435585 0.363614 0.334091 0.333333 0.479167 0.125 0.6 0.317394 0.333333 0.333333 0 0.733333 0.466667 0.605264 0.029526 0.562033 0.749999 0.208333 0.444944 0 
6 15 0.548122 0.508185 0.330252 0.333333 0.375 0 0.466667 0.514763 0.333333 0.333333 0 0.466667 0.466667 1 0.029526 0.947367 0.749999 0 0.75 0 
6 16 0.675218 0.718906 0.669807 0.666667 0.791667 0.125 0.490476 0.197749 1 0.333333 0.55555 0.514285 0.466667 0.365972 0.029526 0.328439 0.833334 0.749999 0.0467474 0 
6 17 0.490185 0.397906 0.169822 0.166667 0.479167 0 0.533333 0.166079 0.333333 0 0.333333 0.6 0.466667 0.302632 0.029526 0.266605 0.749999 0.208333 0.444944 0 
6 18 0.335182 0.345387 0.34177 0.333333 0.687501 0.125 0.6 0.0784737 0.333333 0.333333 0 0.733333 0.466667 0.127424 0.029526 0.0955707 0.749999 0.625 0.0756603 0 
6 19 0.245093 0.221046 0.170944 0.166667 0.583333 0 0.733333 0.0514456 0.333333 0 0.333333 1 0.466667 0.0733652 0.029526 0.0427919 0.749999 0.416667 0.232319 1 
7 7 0.380942 0.193502 0.00699962 0 0 0.625 0.4 0.631578 0 0 0 0.4 0.4 0.631578 0.631578 0 0 0 0 1 
7 8 0.329376 0.207868 0.170206 0.166667 0.166666 0.375 0.499999 0.530559 0.333333 0 0.333333 0.6 0.4 0.631578 0.429541 0.149124 0.333332 0 0.333337 1 
7 9 0.380942 0.242534 0.175492 0.166667 0.208333 0.375 0.433333 0.480862 0.333333 0 0.333333 0.466667 0.4 0.631578 0.330144 0.236839 0.416667 0 0.416663 0 
7 10 0.493522 0.336771 0.00694055 0 0.0416655 0 0.199999 0.557895 0 0 0 0.4 0 0.631578 0.484211 0.105267 0.083333 0 0.0833365 0 
7 11 0.329376 0.159538 0.173898 0.166667 0.187499 0.25 0.566667 0.504935 0.333333 0 0.333333 0.733333 0.4 0.631578 0.37829 0.192981 0.375 0 0.374995 0 
7 12 0.329376 0.255723 0.175315 0.166667 0.0625002 0 0.433333 0.688258 0.333333 0 0.333333 0.466667 0.4 0.744938 0.631578 0.0744955 0.124999 0 0.124995 0 
7 13 0.555055 0.35167 0.158983 0.166667 0.124999 0.125 0.433333 0.587114 0.333333 0 0.333333 0.466667 0.4 0.631578 0.542649 0.0613977 0.249999 0 0.25 0 
7 14 0.380942 0.239307 0.167784 0.166667 0.104166 0.125 0.566667 0.618421 0.333333 0 0.333333 0.733333 0.4 0.631578 0.605264 0.0175405 0.208333 0 0.208332 0 
7 15 0.493522 0.38389 0.163945 0.166667 0 0.125 0.433333 0.81579 0.333333 0 0.333333 0.466667 0.4 1 0.631578 0.242104 0 0 0 0 
7 16 0.620575 0.594611 0.5035 0.5 0.416667 0.125 0.457143 0.498776 1 0 1 0.514285 0.4 0.631578 0.365972 0.203949 0.833334 0 0.833337 0 
7 17 0.435585 0.273599 0.00351458 0 0.104166 0.125 0.499999 0.467106 0 0 0 0.6 0.4 0.631578 0.302632 0.263155 0.208333 0 0.208332 0 
7 18 0.280582 0.221091 0.175463 0.166667 0.312499 0 0.566667 0.379501 0.333333 0 0.333333 0.733333 0.4 0.631578 0.127424 0.456137 0.625 0 0.624995 0 
7 19 0.190493 0.0967508 0.00460734 0 0.208333 0 0.7 0.352473 0 0 0 1 0.4 0.631578 0.0733652 0.526311 0.416667 0 0.416663 1 
8 8 0.277766 0.222223 0.333412 0.333333 0.333332 0.75 0.6 0.429541 0.333333 0.333333 0 0.6 0.6 0.429541 0.429541 0 0.333332 0.333332 0 1 
8 9 0.329376 0.256889 0.338699 0.333333 0.375 0.375 0.533333 0.379844 0.333333 0.333333 0 0.6 0.466667 0.429541 0.330144 0.0781029 0.416667 0.333332 0.0618316 0 
8 10 0.441912 0.351138 0.170147 0.166667 0.208333 0.25 0.3 0.456876 0.333333 0 0.333333 0.6 0 0.484211 0.429541 0.0403467 0.333332 0.083333 0.23 0 
8 11 0.277766 0.173893 0.337104 0.333333 0.354167 0.375 0.666666 0.403916 0.333333 0.333333 0 0.733333 0.6 0.429541 0.37829 0.0390514 0.375 0.333332 0.0309158 0 
8 12 0.277766 0.270078 0.338522 0.333333 0.229166 0.25 0.533333 0.58724 0.333333 0.333333 0 0.6 0.466667 0.744938 0.429541 0.232795 0.333332 0.124999 0.184297 0 
8 13 0.503488 0.366025 0.322189 0.333333 0.291667 0.125 0.533333 0.486095 0.333333 0.333333 0 0.6 0.466667 0.542649 0.429541 0.0834897 0.333332 0.249999 0.0660961 0 
8 14 0.329376 0.253674 0.33099 0.333333 0.270834 0.375 0.666666 0.517402 0.333333 0.333333 0 0.733333 0.6 0.605264 0.429541 0.129695 0.333332 0.208333 0.102676 0 
8 15 0.441912 0.398245 0.327151 0.333333 0.166666 0.25 0.533333 0.714771 0.333333 0.333333 0 0.6 0.466667 1 0.429541 0.421056 0.333332 0 0.333337 0 
8 16 0.569008 0.608978 0.666706 0.666667 0.583333 0.125 0.557142 0.397758 1 0.333333 0.55555 0.6 0.514285 0.429541 0.365972 0.0488082 0.833334 0.333332 0.37097 0 
8 17 0.383975 0.287966 0.166721 0.166667 0.270834 0.125 0.6 0.366087 0.333333 0 0.333333 0.6 0.6 0.429541 0.302632 0.101526 0.333332 0.208333 0.102676 0 
8 18 0.228973 0.235447 0.338669 0.333333 0.479167 0 0.666666 0.278482 0.333333 0.333333 0 0.733333 0.6 0.429541 0.127424 0.273348 0.625 0.333332 0.216401 0 
8 19 0.138883 0.111106 0.167843 0.166667 0.375 0 0.8 0.251454 0.333333 0 0.333333 1 0.6 0.429541 0.0733652 0.335823 0.416667 0.333332 0.0618316 1 
9 9 0.380942 0.291554 0.344015 0.333333 0.416667 0.75 0.466667 0.330144 0.333333 0.333333 0 0.466667 0.466667 0.330144 0.330144 0 0.416667 0.416667 0 1 
9 10 0.493522 0.385803 0.175433 0.166667 0.249999 0.125 0.233333 0.407177 0.333333 0 0.333333 0.466667 0 0.484211 0.330144 0.121052 0.416667 0.083333 0.306666 1 
9 11 0.329376 0.208559 0.34242 0.333333 0.395832 0.375 0.6 0.354217 0.333333 0.333333 0 0.733333 0.466667 0.37829 0.330144 0.0378288 0.416667 0.375 0.0299479 1 
9 12 0.329376 0.304744 0.343808 0.333333 0.270834 0.25 0.466667 0.537542 0.333333 0.333333 0 0.466667 0.466667 0.744938 0.330144 0.325909 0.416667 0.124999 0.258012 1 
9 13 0.555055 0.400691 0.327476 0.333333 0.333332 0.25 0.466667 0.436398 0.333333 0.333333 0 0.466667 0.466667 0.542649 0.330144 0.166967 0.416667 0.249999 0.132183 1 
9 14 0.380942 0.288339 0.336277 0.333333 0.312499 0.25 0.6 0.467703 0.333333 0.333333 0 0.733333 0.466667 0.605264 0.330144 0.216163 0.416667 0.208333 0.171129 1 
9 15 0.493522 0.432911 0.332467 0.333333 0.208333 0.25 0.466667 0.665072 0.333333 0.333333 0 0.466667 0.466667 1 0.330144 0.526311 0.416667 0 0.416663 1 
9 16 0.620575 0.643643 0.671993 0.666667 0.625 0.125 0.490476 0.348058 1 0.333333 0.55555 0.514285 0.466667 0.365972 0.330144 0.0281567 0.833334 0.416667 0.290403 1 
9 17 0.435585 0.322631 0.172007 0.166667 0.312499 0.125 0.533333 0.316388 0.333333 0 0.333333 0.6 0.466667 0.330144 0.302632 0.0220073 0.416667 0.208333 0.171129 1 
9 18 0.280582 0.270112 0.343956 0.333333 0.520833 0 0.6 0.228783 0.333333 0.333333 0 0.733333 0.466667 0.330144 0.127424 0.183418 0.625 0.416667 0.145206 1 
9 19 0.190493 0.145772 0.17313 0.166667 0.416667 0 0.733333 0.201755 0.333333 0 0.333333 1 0.466667 0.330144 0.0733652 0.242104 0.416667 0.416667 0 0 
10 10 0.606058 0.480041 0.00688148 0 0.083333 0.625 0 0.484211 0 0 0 0 0 0.484211 0.484211 0 0.083333 0.083333 0 1 
10 11 0.441912 0.302796 0.173839 0.166667 0.229166 0.125 0.366666 0.431249 0.333333 0 0.333333 0.733333 0 0.484211 0.37829 0.0807055 0.375 0.083333 0.268333 1 
10 12 0.441912 0.398981 0.175256 0.166667 0.104166 0.375 0.233333 0.614575 0.333333 0 0.333333 0.466667 0 0.744938 0.484211 0.186239 0.124999 0.083333 0.0383333 1 
10 13 0.667634 0.494939 0.158924 0.166667 0.166666 0.25 0.233333 0.51343 0.333333 0 0.333333 0.466667 0 0.542649 0.484211 0.0417388 0.249999 0.083333 0.153333 1 
10 14 0.493522 0.382577 0.167725 0.166667 0.145833 0.25 0.366666 0.544738 0.333333 0 0.333333 0.733333 0 0.605264 0.484211 0.0864676 0.208333 0.083333 0.115 1 
10 15 0.606058 0.527148 0.163886 0.166667 0.0416655 0.125 0.233333 0.742105 0.333333 0 0.333333 0.466667 0 1 0.484211 0.368422 0.083333 0 0.0833365 1 
10 16 0.733154 0.737881 0.503441 0.5 0.458333 0 0.257142 0.425091 1 0 1 0.514285 0 0.484211 0.365972 0.0907891 0.833334 0.083333 0.689999 1 
10 17 0.548122 0.416869 0.00345551 0 0.145833 0.125 0.3 0.393421 0 0 0 0.6 0 0.484211 0.302632 0.145263 0.208333 0.083333 0.115 1 
10 18 0.393119 0.364361 0.175404 0.166667 0.354167 0.125 0.366666 0.305817 0.333333 0 0.333333 0.733333 0 0.484211 0.127424 0.32281 0.625 0.083333 0.498333 1 
10 19 0.303029 0.24002 0.00457781 0 0.249999 0.25 0.499999 0.278787 0 0 0 1 0 0.484211 0.0733652 0.387367 0.416667 0.083333 0.306666 0 
11 11 0.277766 0.125563 0.340796 0.333333 0.375 0.75 0.733333 0.37829 0.333333 0.333333 0 0.733333 0.733333 0.37829 0.37829 0 0.375 0.375 0 1 
11 12 0.277766 0.221748 0.342213 0.333333 0.249999 0.375 0.6 0.561615 0.333333 0.333333 0 0.733333 0.466667 0.744938 0.37829 0.279352 0.375 0.124999 0.221154 1 
11 13 0.503488 0.317695 0.325881 0.333333 0.312499 0.25 0.6 0.46047 0.333333 0.333333 0 0.733333 0.466667 0.542649 0.37829 0.125228 0.375 0.249999 0.0991394 1 
11 14 0.329376 0.205344 0.334682 0.333333 0.291667 0.25 0.733333 0.491776 0.333333 0.333333 0 0.733333 0.733333 0.605264 0.37829 0.172935 0.375 0.208333 0.136907 1 
11 15 0.441912 0.349915 0.330843 0.333333 0.187499 0.375 0.6 0.689145 0.333333 0.333333 0 0.733333 0.466667 1 0.37829 0.473677 0.375 0 0.374995 1 
11 16 0.569008 0.560648 0.670398 0.666667 0.604166 0.375 0.623809 0.372131 1 0.333333 0.55555 0.733333 0.514285 0.37829 0.365972 0.00945418 0.833334 0.375 0.329427 1 
11 17 0.383975 0.239635 0.170413 0.166667 0.291667 0.125 0.666666 0.340461 0.333333 0 0.333333 0.733333 0.6 0.37829 0.302632 0.0605261 0.375 0.208333 0.136907 1 
11 18 0.228973 0.187116 0.342361 0.333333 0.5 0 0.733333 0.252858 0.333333 0.333333 0 0.733333 0.733333 0.37829 0.127424 0.226973 0.625 0.375 0.179687 1 
11 19 0.138883 0.062776 0.171535 0.166667 0.395832 0 0.866667 0.225827 0.333333 0 0.333333 1 0.733333 0.37829 0.0733652 0.287499 0.416667 0.375 0.0299479 0 
12 12 0.277766 0.317933 0.343601 0.333333 0.124999 0.75 0.466667 0.744938 0.333333 0.333333 0 0.466667 0.466667 0.744938 0.744938 0 0.124999 0.124999 0 1 
12 13 0.503488 0.41388 0.327269 0.333333 0.187499 0.5 0.466667 0.643794 0.333333 0.333333 0 0.466667 0.466667 0.744938 0.542649 0.13967 0.249999 0.124999 0.110572 1 
12 14 0.329376 0.301528 0.33607 0.333333 0.166666 0.25 0.6 0.675101 0.333333 0.333333 0 0.733333 0.466667 0.744938 0.605264 0.0931133 0.208333 0.124999 0.0737149 1 
12 15 0.441912 0.4461 0.33226 0.333333 0.0625002 0.125 0.466667 0.87247 0.333333 0.333333 0 0.466667 0.466667 1 0.744938 0.157888 0.124999 0 0.124995 1 
12 16 0.569008 0.656821 0.671815 0.666667 0.479167 0.25 0.490476 0.555457 1 0.333333 0.55555 0.514285 0.466667 0.744938 0.365972 0.290985 0.833334 0.124999 0.626605 1 
12 17 0.383975 0.33582 0.171801 0.166667 0.166666 0.125 0.533333 0.523786 0.333333 0 0.333333 0.6 0.466667 0.744938 0.302632 0.353848 0.208333 0.124999 0.0737149 1 
12 18 0.228973 0.283301 0.343749 0.333333 0.375 0.125 0.6 0.436181 0.333333 0.333333 0 0.733333 0.466667 0.744938 0.127424 0.558704 0.625 0.124999 0.442308 1 
12 19 0.138883 0.158961 0.172923 0.166667 0.270834 0 0.733333 0.409153 0.333333 0 0.333333 1 0.466667 0.744938 0.0733652 0.6332 0.416667 0.124999 0.258012 0 
13 13 0.729168 0.509827 0.310937 0.333333 0.249999 0.75 0.466667 0.542649 0.333333 0.333333 0 0.466667 0.466667 0.542649 0.542649 0 0.249999 0.249999 0 1 
13 14 0.555055 0.397475 0.319738 0.333333 0.229166 0.375 0.6 0.573956 0.333333 0.333333 0 0.733333 0.466667 0.605264 0.542649 0.0432277 0.249999 0.208333 0.034222 1 
13 15 0.667634 0.542047 0.315928 0.333333 0.124999 0.25 0.466667 0.771325 0.333333 0.333333 0 0.466667 0.466667 1 0.542649 0.315789 0.249999 0 0.25 1 
13 16 0.794687 0.752779 0.655483 0.666667 0.541666 0.25 0.490476 0.454312 1 0.333333 0.55555 0.514285 0.466667 0.542649 0.365972 0.135663 0.833334 0.249999 0.462644 1 
13 17 0.609698 0.431767 0.155468 0.166667 0.229166 0.25 0.533333 0.422642 0.333333 0 0.333333 0.6 0.466667 0.542649 0.302632 0.192013 0.249999 0.208333 0.034222 1 
13 18 0.454695 0.379248 0.327417 0.333333 0.4375 0.25 0.6 0.335036 0.333333 0.333333 0 0.733333 0.466667 0.542649 0.127424 0.375673 0.625 0.249999 0.297409 1 
13 19 0.364605 0.254908 0.156591 0.166667 0.333332 0.125 0.733333 0.308008 0.333333 0 0.333333 1 0.466667 0.542649 0.0733652 0.44247 0.416667 0.249999 0.132183 0 
14 14 0.380942 0.285113 0.328539 0.333333 0.208333 0.75 0.733333 0.605264 0.333333 0.333333 0 0.733333 0.733333 0.605264 0.605264 0 0.208333 0.208333 0 1 
14 15 0.493522 0.429695 0.324729 0.333333 0.104166 0.375 0.6 0.802631 0.333333 0.333333 0 0.733333 0.466667 1 0.605264 0.263155 0.208333 0 0.208332 1 
14 16 0.620575 0.640417 0.664284 0.666667 0.520833 0.375 0.623809 0.485617 1 0.333333 0.55555 0.733333 0.514285 0.605264 0.365972 0.183745 0.833334 0.208333 0.513388 1 
14 17 0.435585 0.319405 0.164269 0.166667 0.208333 0.125 0.666666 0.453947 0.333333 0 0.333333 0.733333 0.6 0.605264 0.302632 0.242104 0.208333 0.208333 0 1 
14 18 0.280582 0.266897 0.336218 0.333333 0.416667 0.375 0.733333 0.366344 0.333333 0.333333 0 0.733333 0.733333 0.605264 0.127424 0.432326 0.625 0.208333 0.342259 1 
14 19 0.190493 0.142556 0.165392 0.166667 0.312499 0.125 0.866667 0.339314 0.333333 0 0.333333 1 0.733333 0.605264 0.0733652 0.501507 0.416667 0.208333 0.171129 0 
15 15 0.606058 0.574267 0.32089 0.333333 0 0.75 0.466667 1 0.333333 0.333333 0 0.466667 0.466667 1 1 0 0 0 0 1 
15 16 0.733154 0.784999 0.660445 0.666667 0.416667 0.375 0.490476 0.682986 1 0.333333 0.55555 0.514285 0.466667 1 0.365972 0.486836 0.833334 0 0.833337 1 
15 17 0.548122 0.463987 0.16046 0.166667 0.104166 0.375 0.533333 0.651316 0.333333 0 0.333333 0.6 0.466667 1 0.302632 0.557893 0.208333 0 0.208332 1 
15 18 0.393119 0.411468 0.332408 0.333333 0.312499 0.125 0.6 0.563713 0.333333 0.333333 0 0.733333 0.466667 1 0.127424 0.789466 0.625 0 0.624995 1 
15 19 0.303029 0.287128 0.161582 0.166667 0.208333 0.25 0.733333 0.536683 0.333333 0 0.333333 1 0.466667 1 0.0733652 0.873682 0.416667 0 0.416663 0 
16 16 0.860207 0.995721 1 1 0.833334 1 0.514285 0.365972 1 1 0 0.514285 0.514285 0.365972 0.365972 0 0.833334 0.833334 0 1 
16 17 0.675218 0.674708 0.500015 0.5 0.520833 0.375 0.557142 0.334302 1 0 1 0.6 0.514285 0.365972 0.302632 0.0506724 0.833334 0.208333 0.513388 1 
16 18 0.520215 0.622201 0.671963 0.666667 0.729166 0.5 0.623809 0.246699 1 0.333333 0.55555 0.733333 0.514285 0.365972 0.127424 0.215824 0.833334 0.625 0.126097 1 
16 19 0.430125 0.49786 0.501108 0.5 0.625 0.25 0.757143 0.219669 1 0 1 1 0.514285 0.365972 0.0733652 0.27589 0.833334 0.416667 0.290403 0 
17 17 0.490185 0.353708 0 0 0.208333 0.625 0.6 0.302632 0 0 0 0.6 0.6 0.302632 0.302632 0 0.208333 0.208333 0 1 
17 18 0.335182 0.301189 0.171948 0.166667 0.416667 0.25 0.666666 0.215027 0.333333 0 0.333333 0.733333 0.6 0.302632 0.127424 0.158518 0.625 0.208333 0.342259 1 
17 19 0.245093 0.176848 0.0011223 0 0.312499 0.375 0.8 0.187999 0 0 0 1 0.6 0.302632 0.0733652 0.216163 0.416667 0.208333 0.171129 0 
18 18 0.180179 0.24867 0.343897 0.333333 0.625 0.75 0.733333 0.127424 0.333333 0.333333 0 0.733333 0.733333 0.127424 0.127424 0 0.625 0.625 0 1 
18 19 0.0900897 0.124341 0.173071 0.166667 0.520833 0.375 0.866667 0.100395 0.333333 0 0.333333 1 0.733333 0.127424 0.0733652 0.0509751 0.625 0.416667 0.145206 0 
19 19 0 0 0.0022446 0 0.416667 0.625 1 0.0733652 0 0 0 1 1 0.0733652 0.0733652 0 0.416667 0.416667 0 1 
