0 0 0.871874 0.433493 0.330143 0.333333 0.527777 0.75 0.428572 0.242936 0.333333 0.333333 0 0.428572 0.428572 0.242936 0.242936 0 0.527777 0.527777 0 1 
0 1 0.871874 0.541352 0.338761 0.333333 0.513889 0.5 0.238096 0.253882 0.333333 0.333333 0 0.428572 0.0476177 0.264828 0.242936 0.0137917 0.527777 0.5 0.01111 1 
0 2 0.603485 0.251152 0.17603 0.166667 0.263889 0.25 0.428572 0.621468 0.333333 0 0.333333 0.428572 0.428572 1 0.242936 0.477012 0.527777 0 0.527777 1 
0 3 0.603485 0.472168 0.349914 0.333333 0.652777 0.125 0.333333 0.169054 0.333333 0.333333 0 0.428572 0.238096 0.242936 0.0951723 0.120132 0.777777 0.527777 0.0967733 0 
0 4 0.65121 0.323488 0.344695 0.333333 0.486111 0.125 0.333333 0.278119 0.333333 0.333333 0 0.428572 0.238096 0.313301 0.242936 0.0443337 0.527777 0.444444 0.0357133 0 
0 5 0.515416 0.220689 0.179817 0.166667 0.444444 0.125 0.428572 0.253882 0.333333 0 0.333333 0.428572 0.428572 0.264828 0.242936 0.0137917 0.527777 0.361111 0.08 0 
0 6 0.603485 0.261182 0.344695 0.333333 0.541667 0.125 0.619048 0.232675 0.333333 0.333333 0 0.809524 0.428572 0.242936 0.222414 0.0133489 0.555556 0.527777 0.0107533 0 
0 7 0.755064 0.468486 0.334556 0.333333 0.583333 0.125 0.238096 0.205409 0.333333 0.333333 0 0.428572 0.0476177 0.242936 0.167882 0.0533917 0.638889 0.527777 0.04301 0 
0 8 0.603485 0.323454 0.336942 0.333333 0.527777 0.125 0.428572 0.242936 0.333333 0.333333 0 0.428572 0.428572 0.242936 0.242936 0 0.527777 0.527777 0 0 
0 9 0.65121 0.283897 0.327399 0.333333 0.486111 0.125 0.619048 0.278119 0.333333 0.333333 0 0.809524 0.428572 0.313301 0.242936 0.0443337 0.527777 0.444444 0.0357133 0 
0 10 0.935957 0.716746 0.665056 0.666667 0.763889 0 0.214286 0.19733 1 0.333333 0.55555 0.428572 0 0.242936 0.151724 0.0667406 1 0.527777 0.182797 0 
0 11 0.70164 0.377163 0.326952 0.333333 0.597223 0.125 0.619048 0.19733 0.333333 0.333333 0 0.809524 0.428572 0.242936 0.151724 0.0667406 0.666667 0.527777 0.0537633 0 
0 12 0.70164 0.35342 0.32394 0.333333 0.541667 0.25 0.523809 0.232675 0.333333 0.333333 0 0.619048 0.428572 0.242936 0.222414 0.0133489 0.555556 0.527777 0.0107533 0 
0 13 0.558303 0.242353 0.165056 0.166667 0.583333 0.125 0.714285 0.156937 0.333333 0 0.333333 1 0.428572 0.242936 0.0709357 0.14683 0.638889 0.527777 0.04301 1 
0 14 0.811685 0.55232 0.497942 0.5 0.708333 0.25 0.469387 0.184477 0.666667 0.333333 0.277783 0.510204 0.428572 0.242936 0.126018 0.0896233 0.888889 0.527777 0.139783 1 
0 15 0.435916 0.216746 0.1695 0.166667 0.666667 0.375 0.714285 0.121469 0.333333 0 0.333333 1 0.428572 0.242936 0 0.242938 0.805556 0.527777 0.107527 1 
0 16 0.70164 0.444992 0.500596 0.5 0.638889 0.25 0.469387 0.219081 0.666667 0.333333 0.277783 0.510204 0.428572 0.242936 0.195225 0.0324165 0.75 0.527777 0.08602 1 
0 17 0.65121 0.376293 0.499732 0.5 0.638889 0.375 0.537415 0.219081 0.666667 0.333333 0.277783 0.646259 0.428572 0.242936 0.195225 0.0324165 0.75 0.527777 0.08602 1 
0 18 0.515416 0.240862 0.171319 0.166667 0.513889 0.25 0.571428 0.19733 0.333333 0 0.333333 0.714285 0.428572 0.242936 0.151724 0.0667406 0.527777 0.5 0.01111 1 
0 19 0.65121 0.320754 0.335421 0.333333 0.513889 0.5 0.619048 0.253882 0.333333 0.333333 0 0.809524 0.428572 0.264828 0.242936 0.0137917 0.527777 0.5 0.01111 1 
1 1 0.871874 0.649212 0.347379 0.333333 0.5 0.75 0.0476177 0.264828 0.333333 0.333333 0 0.0476177 0.0476177 0.264828 0.264828 0 0.5 0.5 0 1 
1 2 0.603485 0.359011 0.184648 0.166667 0.25 0.25 0.238096 0.632414 0.333333 0 0.333333 0.428572 0.0476177 1 0.264828 0.448274 0.5 0 0.5 1 
1 3 0.603485 0.580028 0.358532 0.333333 0.638889 0.375 0.142857 0.18 0.333333 0.333333 0 0.238096 0.0476177 0.264828 0.0951723 0.137929 0.777777 0.5 0.11111 0 
1 4 0.65121 0.431347 0.353343 0.333333 0.472223 0.125 0.142857 0.289064 0.333333 0.333333 0 0.238096 0.0476177 0.313301 0.264828 0.0295572 0.5 0.444444 0.02381 0 
1 5 0.515416 0.328548 0.188436 0.166667 0.430556 0.125 0.238096 0.264828 0.333333 0 0.333333 0.428572 0.0476177 0.264828 0.264828 0 0.5 0.361111 0.0666667 0 
1 6 0.603485 0.369042 0.353313 0.333333 0.527777 0.125 0.428572 0.243621 0.333333 0.333333 0 0.809524 0.0476177 0.264828 0.222414 0.0275875 0.555556 0.5 0.0222233 0 
1 7 0.755064 0.576345 0.343174 0.333333 0.569444 0.25 0.0476177 0.216354 0.333333 0.333333 0 0.0476177 0.0476177 0.264828 0.167882 0.0689668 0.638889 0.5 0.0555567 0 
1 8 0.603485 0.431313 0.34556 0.333333 0.513889 0.25 0.238096 0.253882 0.333333 0.333333 0 0.428572 0.0476177 0.264828 0.242936 0.0137917 0.527777 0.5 0.01111 0 
1 9 0.65121 0.391757 0.336017 0.333333 0.472223 0.125 0.428572 0.289064 0.333333 0.333333 0 0.809524 0.0476177 0.313301 0.264828 0.0295572 0.5 0.444444 0.02381 0 
1 10 0.935957 0.824606 0.673674 0.666667 0.75 0.125 0.0238097 0.208276 1 0.333333 0.55555 0.0476177 0 0.264828 0.151724 0.0827585 1 0.5 0.2 0 
1 11 0.70164 0.485022 0.33557 0.333333 0.583333 0.125 0.428572 0.208276 0.333333 0.333333 0 0.809524 0.0476177 0.264828 0.151724 0.0827585 0.666667 0.5 0.0666667 0 
1 12 0.70164 0.46128 0.332558 0.333333 0.527777 0.125 0.333333 0.243621 0.333333 0.333333 0 0.619048 0.0476177 0.264828 0.222414 0.0275875 0.555556 0.5 0.0222233 0 
1 13 0.558303 0.350212 0.173674 0.166667 0.569444 0.125 0.523809 0.167882 0.333333 0 0.333333 1 0.0476177 0.264828 0.0709357 0.165517 0.638889 0.5 0.0555567 1 
1 14 0.811685 0.660179 0.506561 0.5 0.694444 0.125 0.278911 0.195423 0.666667 0.333333 0.277783 0.510204 0.0476177 0.264828 0.126018 0.106403 0.888889 0.5 0.155557 1 
1 15 0.435916 0.324606 0.178118 0.166667 0.652777 0.25 0.523809 0.132413 0.333333 0 0.333333 1 0.0476177 0.264828 0 0.264827 0.805556 0.5 0.122223 1 
1 16 0.70164 0.552851 0.509215 0.5 0.625 0.125 0.278911 0.230027 0.666667 0.333333 0.277783 0.510204 0.0476177 0.264828 0.195225 0.0472923 0.75 0.5 0.1 1 
1 17 0.65121 0.484141 0.50838 0.5 0.625 0.375 0.346939 0.230027 0.666667 0.333333 0.277783 0.646259 0.0476177 0.264828 0.195225 0.0472923 0.75 0.5 0.1 1 
1 18 0.515416 0.348721 0.179937 0.166667 0.5 0.125 0.380952 0.208276 0.333333 0 0.333333 0.714285 0.0476177 0.264828 0.151724 0.0827585 0.5 0.5 0 1 
1 19 0.65121 0.428613 0.344039 0.333333 0.5 0.25 0.428572 0.264828 0.333333 0.333333 0 0.809524 0.0476177 0.264828 0.264828 0 0.5 0.5 0 1 
2 2 0.335137 0.0688226 0.0219181 0 0 0.625 0.428572 1 0 0 0 0.428572 0.428572 1 1 0 0 0 0 1 
2 3 0.335137 0.289839 0.195801 0.166667 0.388889 0.25 0.333333 0.547586 0.333333 0 0.333333 0.428572 0.238096 1 0.0951723 0.735632 0.777777 0 0.777777 0 
2 4 0.382821 0.141147 0.190583 0.166667 0.222223 0.25 0.333333 0.65665 0.333333 0 0.333333 0.428572 0.238096 1 0.313301 0.390802 0.444444 0 0.444443 0 
2 5 0.247027 0.0383477 0.0257053 0 0.180556 0.125 0.428572 0.632414 0 0 0 0.428572 0.428572 1 0.264828 0.448274 0.361111 0 0.36111 0 
2 6 0.335137 0.0788415 0.190583 0.166667 0.277777 0.375 0.619048 0.611207 0.333333 0 0.333333 0.809524 0.428572 1 0.222414 0.505746 0.555556 0 0.555557 0 
2 7 0.486675 0.286156 0.180444 0.166667 0.319444 0.375 0.238096 0.58394 0.333333 0 0.333333 0.428572 0.0476177 1 0.167882 0.591955 0.638889 0 0.63889 0 
2 8 0.335137 0.141113 0.182829 0.166667 0.263889 0.375 0.428572 0.621468 0.333333 0 0.333333 0.428572 0.428572 1 0.242936 0.477012 0.527777 0 0.527777 0 
2 9 0.382821 0.101568 0.173287 0.166667 0.222223 0.125 0.619048 0.65665 0.333333 0 0.333333 0.809524 0.428572 1 0.313301 0.390802 0.444444 0 0.444443 0 
2 10 0.667569 0.534406 0.510944 0.5 0.5 0.125 0.214286 0.575862 1 0 1 0.428572 0 1 0.151724 0.620689 1 0 1 0 
2 11 0.433292 0.194834 0.17284 0.166667 0.333333 0.125 0.619048 0.575862 0.333333 0 0.333333 0.809524 0.428572 1 0.151724 0.620689 0.666667 0 0.666667 0 
2 12 0.433292 0.171079 0.169828 0.166667 0.277777 0.125 0.523809 0.611207 0.333333 0 0.333333 0.619048 0.428572 1 0.222414 0.505746 0.555556 0 0.555557 0 
2 13 0.289914 0.0600122 0.0109441 0 0.319444 0 0.714285 0.535469 0 0 0 1 0.428572 1 0.0709357 0.793104 0.638889 0 0.63889 1 
2 14 0.543337 0.369979 0.34383 0.333333 0.444444 0 0.469387 0.563009 0.666667 0 0.666667 0.510204 0.428572 1 0.126018 0.669951 0.888889 0 0.88889 1 
2 15 0.167569 0.0344056 0.0153874 0 0.402777 0 0.714285 0.499999 0 0 0 1 0.428572 1 0 1 0.805556 0 0.805557 1 
2 16 0.433292 0.262662 0.346484 0.333333 0.375 0.125 0.469387 0.597613 0.666667 0 0.666667 0.510204 0.428572 1 0.195225 0.546798 0.75 0 0.75 1 
2 17 0.382821 0.193952 0.345619 0.333333 0.375 0 0.537415 0.597613 0.666667 0 0.666667 0.646259 0.428572 1 0.195225 0.546798 0.75 0 0.75 1 
2 18 0.247027 0.0585212 0.0172064 0 0.25 0.125 0.571428 0.575862 0 0 0 0.714285 0.428572 1 0.151724 0.620689 0.5 0 0.5 1 
2 19 0.382821 0.138413 0.181309 0.166667 0.25 0.25 0.619048 0.632414 0.333333 0 0.333333 0.809524 0.428572 1 0.264828 0.448274 0.5 0 0.5 1 
3 3 0.335137 0.510855 0.369714 0.333333 0.777777 0.75 0.238096 0.0951723 0.333333 0.333333 0 0.238096 0.238096 0.0951723 0.0951723 0 0.777777 0.777777 0 1 
3 4 0.382821 0.362163 0.364496 0.333333 0.611111 0.25 0.238096 0.204237 0.333333 0.333333 0 0.238096 0.238096 0.313301 0.0951723 0.177339 0.777777 0.444444 0.142857 1 
3 5 0.247027 0.259364 0.199618 0.166667 0.569444 0.25 0.333333 0.18 0.333333 0 0.333333 0.428572 0.238096 0.264828 0.0951723 0.137929 0.777777 0.361111 0.2 1 
3 6 0.335137 0.299869 0.364466 0.333333 0.666667 0.25 0.523809 0.158793 0.333333 0.333333 0 0.809524 0.238096 0.222414 0.0951723 0.103448 0.777777 0.555556 0.0833333 1 
3 7 0.486675 0.507173 0.354327 0.333333 0.708333 0.375 0.142857 0.131527 0.333333 0.333333 0 0.238096 0.0476177 0.167882 0.0951723 0.0591144 0.777777 0.638889 0.04762 1 
3 8 0.335137 0.36214 0.356742 0.333333 0.652777 0.375 0.333333 0.169054 0.333333 0.333333 0 0.428572 0.238096 0.242936 0.0951723 0.120132 0.777777 0.527777 0.0967733 1 
3 9 0.382821 0.322584 0.3472 0.333333 0.611111 0.125 0.523809 0.204237 0.333333 0.333333 0 0.809524 0.238096 0.313301 0.0951723 0.177339 0.777777 0.444444 0.142857 1 
3 10 0.667569 0.755422 0.684857 0.666667 0.888889 0.25 0.119047 0.123448 1 0.333333 0.55555 0.238096 0 0.151724 0.0951723 0.0459765 1 0.777777 0.0666667 1 
3 11 0.433292 0.41585 0.346723 0.333333 0.722223 0 0.523809 0.123448 0.333333 0.333333 0 0.809524 0.238096 0.151724 0.0951723 0.0459765 0.777777 0.666667 0.0370367 1 
3 12 0.433292 0.392096 0.343741 0.333333 0.666667 0 0.428572 0.158793 0.333333 0.333333 0 0.619048 0.238096 0.222414 0.0951723 0.103448 0.777777 0.555556 0.0833333 1 
3 13 0.289914 0.281028 0.184857 0.166667 0.708333 0 0.619048 0.0830547 0.333333 0 0.333333 1 0.238096 0.0951723 0.0709357 0.0206896 0.777777 0.638889 0.04762 0 
3 14 0.543337 0.591007 0.517713 0.5 0.833333 0 0.37415 0.110595 0.666667 0.333333 0.277783 0.510204 0.238096 0.126018 0.0951723 0.02508 0.888889 0.777777 0.0333333 0 
3 15 0.167569 0.255422 0.189271 0.166667 0.791667 0 0.619048 0.0475855 0.333333 0 0.333333 1 0.238096 0.0951723 0 0.0951723 0.805556 0.777777 0.00833333 0 
3 16 0.433292 0.483678 0.520367 0.5 0.763889 0.25 0.37415 0.145199 0.666667 0.333333 0.277783 0.510204 0.238096 0.195225 0.0951723 0.0813433 0.777777 0.75 0.00854667 0 
3 17 0.382821 0.414969 0.519532 0.5 0.763889 0.25 0.442176 0.145199 0.666667 0.333333 0.277783 0.646259 0.238096 0.195225 0.0951723 0.0813433 0.777777 0.75 0.00854667 0 
3 18 0.247027 0.279537 0.191119 0.166667 0.638889 0.25 0.476189 0.123448 0.333333 0 0.333333 0.714285 0.238096 0.151724 0.0951723 0.0459765 0.777777 0.5 0.11111 0 
3 19 0.382821 0.359429 0.355222 0.333333 0.638889 0.125 0.523809 0.18 0.333333 0.333333 0 0.809524 0.238096 0.264828 0.0951723 0.137929 0.777777 0.5 0.11111 0 
4 4 0.430545 0.213482 0.359277 0.333333 0.444444 0.75 0.238096 0.313301 0.333333 0.333333 0 0.238096 0.238096 0.313301 0.313301 0 0.444444 0.444444 0 1 
4 5 0.294752 0.110683 0.1944 0.166667 0.402777 0.625 0.333333 0.289064 0.333333 0 0.333333 0.428572 0.238096 0.313301 0.264828 0.0295572 0.444444 0.361111 0.04 1 
4 6 0.382821 0.151177 0.359247 0.333333 0.5 0.375 0.523809 0.267857 0.333333 0.333333 0 0.809524 0.238096 0.313301 0.222414 0.0591144 0.555556 0.444444 0.04762 1 
4 7 0.534399 0.358481 0.349108 0.333333 0.541667 0.125 0.142857 0.240591 0.333333 0.333333 0 0.238096 0.0476177 0.313301 0.167882 0.103448 0.638889 0.444444 0.0833333 1 
4 8 0.382821 0.213448 0.351524 0.333333 0.486111 0.125 0.333333 0.278119 0.333333 0.333333 0 0.428572 0.238096 0.313301 0.242936 0.0443337 0.527777 0.444444 0.0357133 1 
4 9 0.430545 0.173892 0.341981 0.333333 0.444444 0.375 0.523809 0.313301 0.333333 0.333333 0 0.809524 0.238096 0.313301 0.313301 0 0.444444 0.444444 0 1 
4 10 0.715293 0.606741 0.679639 0.666667 0.722223 0.5 0.119047 0.232512 1 0.333333 0.55555 0.238096 0 0.313301 0.151724 0.118225 1 0.444444 0.238097 1 
4 11 0.480976 0.267158 0.341504 0.333333 0.555556 0.125 0.523809 0.232512 0.333333 0.333333 0 0.809524 0.238096 0.313301 0.151724 0.118225 0.666667 0.444444 0.0952367 1 
4 12 0.480976 0.243415 0.338522 0.333333 0.5 0 0.428572 0.267857 0.333333 0.333333 0 0.619048 0.238096 0.313301 0.222414 0.0591144 0.555556 0.444444 0.04762 1 
4 13 0.337638 0.132348 0.179639 0.166667 0.541667 0 0.619048 0.192118 0.333333 0 0.333333 1 0.238096 0.313301 0.0709357 0.206896 0.638889 0.444444 0.0833333 0 
4 14 0.591021 0.442315 0.512495 0.5 0.666667 0.125 0.37415 0.21966 0.666667 0.333333 0.277783 0.510204 0.238096 0.313301 0.126018 0.143561 0.888889 0.444444 0.190477 0 
4 15 0.215252 0.106741 0.184052 0.166667 0.625 0 0.619048 0.15665 0.333333 0 0.333333 1 0.238096 0.313301 0 0.313299 0.805556 0.444444 0.154763 0 
4 16 0.480976 0.334986 0.515149 0.5 0.597223 0.125 0.37415 0.254262 0.666667 0.333333 0.277783 0.510204 0.238096 0.313301 0.195225 0.0802261 0.75 0.444444 0.130953 0 
4 17 0.430545 0.266288 0.514314 0.5 0.597223 0 0.442176 0.254262 0.666667 0.333333 0.277783 0.646259 0.238096 0.313301 0.195225 0.0802261 0.75 0.444444 0.130953 0 
4 18 0.294752 0.130857 0.185901 0.166667 0.472223 0.125 0.476189 0.232512 0.333333 0 0.333333 0.714285 0.238096 0.313301 0.151724 0.118225 0.5 0.444444 0.02381 0 
4 19 0.430545 0.210749 0.350003 0.333333 0.472223 0.25 0.523809 0.289064 0.333333 0.333333 0 0.809524 0.238096 0.313301 0.264828 0.0295572 0.5 0.444444 0.02381 0 
5 5 0.158959 0.00788415 0.0294925 0 0.361111 0.625 0.428572 0.264828 0 0 0 0.428572 0.428572 0.264828 0.264828 0 0.361111 0.361111 0 1 
5 6 0.247027 0.048378 0.19437 0.166667 0.458333 0.375 0.619048 0.243621 0.333333 0 0.333333 0.809524 0.428572 0.264828 0.222414 0.0275875 0.555556 0.361111 0.0933333 1 
5 7 0.398606 0.255682 0.184231 0.166667 0.5 0.125 0.238096 0.216354 0.333333 0 0.333333 0.428572 0.0476177 0.264828 0.167882 0.0689668 0.638889 0.361111 0.133333 1 
5 8 0.247027 0.110649 0.186617 0.166667 0.444444 0.125 0.428572 0.253882 0.333333 0 0.333333 0.428572 0.428572 0.264828 0.242936 0.0137917 0.527777 0.361111 0.08 1 
5 9 0.294752 0.0710929 0.177074 0.166667 0.402777 0.375 0.619048 0.289064 0.333333 0 0.333333 0.809524 0.428572 0.313301 0.264828 0.0295572 0.444444 0.361111 0.04 1 
5 10 0.5795 0.503942 0.514761 0.5 0.680556 0.375 0.214286 0.208276 1 0 1 0.428572 0 0.264828 0.151724 0.0827585 1 0.361111 0.306667 1 
5 11 0.345182 0.164359 0.176627 0.166667 0.513889 0.125 0.619048 0.208276 0.333333 0 0.333333 0.809524 0.428572 0.264828 0.151724 0.0827585 0.666667 0.361111 0.146667 1 
5 12 0.345182 0.140616 0.173615 0.166667 0.458333 0 0.523809 0.243621 0.333333 0 0.333333 0.619048 0.428572 0.264828 0.222414 0.0275875 0.555556 0.361111 0.0933333 1 
5 13 0.201845 0.0295486 0.0147611 0 0.5 0 0.714285 0.167882 0 0 0 1 0.428572 0.264828 0.0709357 0.165517 0.638889 0.361111 0.133333 0 
5 14 0.455228 0.339516 0.347617 0.333333 0.625 0.125 0.469387 0.195423 0.666667 0 0.666667 0.510204 0.428572 0.264828 0.126018 0.106403 0.888889 0.361111 0.253333 0 
5 15 0.0794588 0.00394208 0.0191746 0 0.583333 0 0.714285 0.132413 0 0 0 1 0.428572 0.264828 0 0.264827 0.805556 0.361111 0.213333 0 
5 16 0.345182 0.232199 0.350271 0.333333 0.555556 0 0.469387 0.230027 0.666667 0 0.666667 0.510204 0.428572 0.264828 0.195225 0.0472923 0.75 0.361111 0.186667 0 
5 17 0.294752 0.163489 0.349436 0.333333 0.555556 0 0.537415 0.230027 0.666667 0 0.666667 0.646259 0.428572 0.264828 0.195225 0.0472923 0.75 0.361111 0.186667 0 
5 18 0.158959 0.0280577 0.0209936 0 0.430556 0 0.571428 0.208276 0 0 0 0.714285 0.428572 0.264828 0.151724 0.0827585 0.5 0.361111 0.0666667 0 
5 19 0.294752 0.10795 0.185096 0.166667 0.430556 0.125 0.619048 0.264828 0.333333 0 0.333333 0.809524 0.428572 0.264828 0.264828 0 0.5 0.361111 0.0666667 0 
6 6 0.335137 0.0888718 0.359247 0.333333 0.555556 0.75 0.809524 0.222414 0.333333 0.333333 0 0.809524 0.809524 0.222414 0.222414 0 0.555556 0.555556 0 1 
6 7 0.486675 0.296187 0.349108 0.333333 0.597223 0.375 0.428572 0.195147 0.333333 0.333333 0 0.809524 0.0476177 0.222414 0.167882 0.038793 0.638889 0.555556 0.03125 1 
6 8 0.335137 0.151143 0.351494 0.333333 0.541667 0.375 0.619048 0.232675 0.333333 0.333333 0 0.809524 0.428572 0.242936 0.222414 0.0133489 0.555556 0.527777 0.0107533 1 
6 9 0.382821 0.111587 0.341951 0.333333 0.5 0.25 0.809524 0.267857 0.333333 0.333333 0 0.809524 0.809524 0.313301 0.222414 0.0591144 0.555556 0.444444 0.04762 1 
6 10 0.667569 0.544436 0.679609 0.666667 0.777777 0.375 0.404762 0.187069 1 0.333333 0.55555 0.809524 0 0.222414 0.151724 0.0517241 1 0.555556 0.166667 1 
6 11 0.433292 0.204864 0.341504 0.333333 0.611111 0.25 0.809524 0.187069 0.333333 0.333333 0 0.809524 0.809524 0.222414 0.151724 0.0517241 0.666667 0.555556 0.0416667 1 
6 12 0.433292 0.18111 0.338492 0.333333 0.555556 0.125 0.714285 0.222414 0.333333 0.333333 0 0.809524 0.619048 0.222414 0.222414 0 0.555556 0.555556 0 1 
6 13 0.289914 0.0700425 0.179609 0.166667 0.597223 0 0.904761 0.146675 0.333333 0 0.333333 1 0.809524 0.222414 0.0709357 0.12931 0.638889 0.555556 0.03125 0 
6 14 0.543337 0.380009 0.512465 0.5 0.722223 0.125 0.659863 0.174216 0.666667 0.333333 0.277783 0.809524 0.510204 0.222414 0.126018 0.0738909 0.888889 0.555556 0.125 0 
6 15 0.167569 0.0444359 0.184022 0.166667 0.680556 0 0.904761 0.111206 0.333333 0 0.333333 1 0.809524 0.222414 0 0.222413 0.805556 0.555556 0.09375 0 
6 16 0.433292 0.272692 0.515149 0.5 0.652777 0 0.659863 0.20882 0.666667 0.333333 0.277783 0.809524 0.510204 0.222414 0.195225 0.0184717 0.75 0.555556 0.0729167 0 
6 17 0.382821 0.203983 0.514284 0.5 0.652777 0 0.727891 0.20882 0.666667 0.333333 0.277783 0.809524 0.646259 0.222414 0.195225 0.0184717 0.75 0.555556 0.0729167 0 
6 18 0.247027 0.0685515 0.185871 0.166667 0.527777 0 0.761904 0.187069 0.333333 0 0.333333 0.809524 0.714285 0.222414 0.151724 0.0517241 0.555556 0.5 0.0222233 0 
6 19 0.382821 0.148444 0.349973 0.333333 0.527777 0.125 0.809524 0.243621 0.333333 0.333333 0 0.809524 0.809524 0.264828 0.222414 0.0275875 0.555556 0.5 0.0222233 0 
7 7 0.638212 0.50349 0.338969 0.333333 0.638889 0.75 0.0476177 0.167882 0.333333 0.333333 0 0.0476177 0.0476177 0.167882 0.167882 0 0.638889 0.638889 0 1 
7 8 0.486675 0.358458 0.341355 0.333333 0.583333 0.625 0.238096 0.205409 0.333333 0.333333 0 0.428572 0.0476177 0.242936 0.167882 0.0533917 0.638889 0.527777 0.04301 1 
7 9 0.534399 0.318902 0.331812 0.333333 0.541667 0.25 0.428572 0.240591 0.333333 0.333333 0 0.809524 0.0476177 0.313301 0.167882 0.103448 0.638889 0.444444 0.0833333 1 
7 10 0.819106 0.751739 0.66947 0.666667 0.819444 0.125 0.0238097 0.159802 1 0.333333 0.55555 0.0476177 0 0.167882 0.151724 0.0118221 1 0.638889 0.12381 1 
7 11 0.58483 0.412167 0.331365 0.333333 0.652777 0.375 0.428572 0.159802 0.333333 0.333333 0 0.809524 0.0476177 0.167882 0.151724 0.0118221 0.666667 0.638889 0.00952333 1 
7 12 0.58483 0.388413 0.328353 0.333333 0.597223 0.375 0.333333 0.195147 0.333333 0.333333 0 0.619048 0.0476177 0.222414 0.167882 0.038793 0.638889 0.555556 0.03125 1 
7 13 0.441492 0.277346 0.16947 0.166667 0.638889 0.125 0.523809 0.119409 0.333333 0 0.333333 1 0.0476177 0.167882 0.0709357 0.0827585 0.638889 0.638889 0 0 
7 14 0.694875 0.587313 0.502356 0.5 0.763889 0 0.278911 0.14695 0.666667 0.333333 0.277783 0.510204 0.0476177 0.167882 0.126018 0.0320896 0.888889 0.638889 0.0857133 0 
7 15 0.319106 0.251739 0.173913 0.166667 0.722223 0.125 0.523809 0.0839411 0.333333 0 0.333333 1 0.0476177 0.167882 0 0.16788 0.805556 0.638889 0.0571433 0 
7 16 0.58483 0.479996 0.50501 0.5 0.694444 0.125 0.278911 0.181554 0.666667 0.333333 0.277783 0.510204 0.0476177 0.195225 0.167882 0.0194524 0.75 0.638889 0.0380967 0 
7 17 0.534399 0.411286 0.504145 0.5 0.694444 0.125 0.346939 0.181554 0.666667 0.333333 0.277783 0.646259 0.0476177 0.195225 0.167882 0.0194524 0.75 0.638889 0.0380967 0 
7 18 0.398606 0.275855 0.175732 0.166667 0.569444 0 0.380952 0.159802 0.333333 0 0.333333 0.714285 0.0476177 0.167882 0.151724 0.0118221 0.638889 0.5 0.0555567 0 
7 19 0.534399 0.355747 0.339834 0.333333 0.569444 0 0.428572 0.216354 0.333333 0.333333 0 0.809524 0.0476177 0.264828 0.167882 0.0689668 0.638889 0.5 0.0555567 0 
8 8 0.335137 0.213414 0.343771 0.333333 0.527777 0.75 0.428572 0.242936 0.333333 0.333333 0 0.428572 0.428572 0.242936 0.242936 0 0.527777 0.527777 0 1 
8 9 0.382821 0.173858 0.334198 0.333333 0.486111 0.375 0.619048 0.278119 0.333333 0.333333 0 0.809524 0.428572 0.313301 0.242936 0.0443337 0.527777 0.444444 0.0357133 1 
8 10 0.667569 0.606707 0.671885 0.666667 0.763889 0.25 0.214286 0.19733 1 0.333333 0.55555 0.428572 0 0.242936 0.151724 0.0667406 1 0.527777 0.182797 1 
8 11 0.433292 0.267135 0.333751 0.333333 0.597223 0.25 0.619048 0.19733 0.333333 0.333333 0 0.809524 0.428572 0.242936 0.151724 0.0667406 0.666667 0.527777 0.0537633 1 
8 12 0.433292 0.243381 0.330769 0.333333 0.541667 0.375 0.523809 0.232675 0.333333 0.333333 0 0.619048 0.428572 0.242936 0.222414 0.0133489 0.555556 0.527777 0.0107533 1 
8 13 0.289914 0.132314 0.171885 0.166667 0.583333 0.125 0.714285 0.156937 0.333333 0 0.333333 1 0.428572 0.242936 0.0709357 0.14683 0.638889 0.527777 0.04301 0 
8 14 0.543337 0.442281 0.504741 0.5 0.708333 0.125 0.469387 0.184477 0.666667 0.333333 0.277783 0.510204 0.428572 0.242936 0.126018 0.0896233 0.888889 0.527777 0.139783 0 
8 15 0.167569 0.106707 0.176299 0.166667 0.666667 0 0.714285 0.121469 0.333333 0 0.333333 1 0.428572 0.242936 0 0.242938 0.805556 0.527777 0.107527 0 
8 16 0.433292 0.334964 0.507395 0.5 0.638889 0 0.469387 0.219081 0.666667 0.333333 0.277783 0.510204 0.428572 0.242936 0.195225 0.0324165 0.75 0.527777 0.08602 0 
8 17 0.382821 0.266254 0.506561 0.5 0.638889 0 0.537415 0.219081 0.666667 0.333333 0.277783 0.646259 0.428572 0.242936 0.195225 0.0324165 0.75 0.527777 0.08602 0 
8 18 0.247027 0.130823 0.178148 0.166667 0.513889 0 0.571428 0.19733 0.333333 0 0.333333 0.714285 0.428572 0.242936 0.151724 0.0667406 0.527777 0.5 0.01111 0 
8 19 0.382821 0.210715 0.34225 0.333333 0.513889 0 0.619048 0.253882 0.333333 0.333333 0 0.809524 0.428572 0.264828 0.242936 0.0137917 0.527777 0.5 0.01111 0 
9 9 0.430545 0.134313 0.324656 0.333333 0.444444 0.75 0.809524 0.313301 0.333333 0.333333 0 0.809524 0.809524 0.313301 0.313301 0 0.444444 0.444444 0 1 
9 10 0.715293 0.567151 0.662343 0.666667 0.722223 0.5 0.404762 0.232512 1 0.333333 0.55555 0.809524 0 0.313301 0.151724 0.118225 1 0.444444 0.238097 1 
9 11 0.480976 0.227579 0.324208 0.333333 0.555556 0.375 0.809524 0.232512 0.333333 0.333333 0 0.809524 0.809524 0.313301 0.151724 0.118225 0.666667 0.444444 0.0952367 1 
9 12 0.480976 0.203825 0.321226 0.333333 0.5 0.25 0.714285 0.267857 0.333333 0.333333 0 0.809524 0.619048 0.313301 0.222414 0.0591144 0.555556 0.444444 0.04762 1 
9 13 0.337638 0.0927574 0.162343 0.166667 0.541667 0.25 0.904761 0.192118 0.333333 0 0.333333 1 0.809524 0.313301 0.0709357 0.206896 0.638889 0.444444 0.0833333 0 
9 14 0.591021 0.402724 0.495199 0.5 0.666667 0.375 0.659863 0.21966 0.666667 0.333333 0.277783 0.809524 0.510204 0.313301 0.126018 0.143561 0.888889 0.444444 0.190477 0 
9 15 0.215252 0.0671509 0.166756 0.166667 0.625 0 0.904761 0.15665 0.333333 0 0.333333 1 0.809524 0.313301 0 0.313299 0.805556 0.444444 0.154763 0 
9 16 0.480976 0.295407 0.497853 0.5 0.597223 0 0.659863 0.254262 0.666667 0.333333 0.277783 0.809524 0.510204 0.313301 0.195225 0.0802261 0.75 0.444444 0.130953 0 
9 17 0.430545 0.226698 0.497018 0.5 0.597223 0.125 0.727891 0.254262 0.666667 0.333333 0.277783 0.809524 0.646259 0.313301 0.195225 0.0802261 0.75 0.444444 0.130953 0 
9 18 0.294752 0.0912664 0.168605 0.166667 0.472223 0 0.761904 0.232512 0.333333 0 0.333333 0.809524 0.714285 0.313301 0.151724 0.118225 0.5 0.444444 0.02381 0 
9 19 0.430545 0.171158 0.332707 0.333333 0.472223 0 0.809524 0.289064 0.333333 0.333333 0 0.809524 0.809524 0.313301 0.264828 0.0295572 0.5 0.444444 0.02381 0 
10 10 1 1 1 1 1 1 0 0.151724 1 1 0 0 0 0.151724 0.151724 0 1 1 0 1 
10 11 0.765724 0.660428 0.661866 0.666667 0.833333 0.375 0.404762 0.151724 1 0.333333 0.55555 0.809524 0 0.151724 0.151724 0 1 0.666667 0.11111 1 
10 12 0.765724 0.636674 0.658884 0.666667 0.777777 0.25 0.309523 0.187069 1 0.333333 0.55555 0.619048 0 0.222414 0.151724 0.0517241 1 0.555556 0.166667 1 
10 13 0.622345 0.525607 0.5 0.5 0.819444 0.25 0.499999 0.111331 1 0 1 1 0 0.151724 0.0709357 0.0689668 1 0.638889 0.12381 0 
10 14 0.875769 0.835574 0.832856 0.833333 0.944444 0.375 0.255101 0.138871 1 0.666667 0.2381 0.510204 0 0.151724 0.126018 0.0197048 1 0.888889 0.0303033 0 
10 15 0.5 0.5 0.504413 0.5 0.902777 0 0.499999 0.0758613 1 0 1 1 0 0.151724 0 0.151725 1 0.805556 0.05691 0 
10 16 0.765724 0.728256 0.83551 0.833333 0.875 0.25 0.255101 0.173475 1 0.666667 0.2381 0.510204 0 0.195225 0.151724 0.0318289 1 0.75 0.0769233 0 
10 17 0.715293 0.659547 0.834675 0.833333 0.875 0.25 0.323129 0.173475 1 0.666667 0.2381 0.646259 0 0.195225 0.151724 0.0318289 1 0.75 0.0769233 0 
10 18 0.5795 0.524116 0.506262 0.5 0.75 0.25 0.357142 0.151724 1 0 1 0.714285 0 0.151724 0.151724 0 1 0.5 0.2 0 
10 19 0.715293 0.604008 0.670364 0.666667 0.75 0.25 0.404762 0.208276 1 0.333333 0.55555 0.809524 0 0.264828 0.151724 0.0827585 1 0.5 0.2 0 
11 11 0.531406 0.320844 0.323761 0.333333 0.666667 0.75 0.809524 0.151724 0.333333 0.333333 0 0.809524 0.809524 0.151724 0.151724 0 0.666667 0.666667 0 1 
11 12 0.531406 0.29709 0.320749 0.333333 0.611111 0.5 0.714285 0.187069 0.333333 0.333333 0 0.809524 0.619048 0.222414 0.151724 0.0517241 0.666667 0.555556 0.0416667 1 
11 13 0.388069 0.186023 0.161866 0.166667 0.652777 0.25 0.904761 0.111331 0.333333 0 0.333333 1 0.809524 0.151724 0.0709357 0.0689668 0.666667 0.638889 0.00952333 0 
11 14 0.641451 0.496001 0.494722 0.5 0.777777 0.25 0.659863 0.138871 0.666667 0.333333 0.277783 0.809524 0.510204 0.151724 0.126018 0.0197048 0.888889 0.666667 0.0740733 0 
11 15 0.265724 0.160417 0.166309 0.166667 0.736111 0.25 0.904761 0.0758613 0.333333 0 0.333333 1 0.809524 0.151724 0 0.151725 0.805556 0.666667 0.0462967 0 
11 16 0.531406 0.388673 0.497406 0.5 0.708333 0.25 0.659863 0.173475 0.666667 0.333333 0.277783 0.809524 0.510204 0.195225 0.151724 0.0318289 0.75 0.666667 0.0277767 0 
11 17 0.480976 0.319963 0.496541 0.5 0.708333 0.25 0.727891 0.173475 0.666667 0.333333 0.277783 0.809524 0.646259 0.195225 0.151724 0.0318289 0.75 0.666667 0.0277767 0 
11 18 0.345182 0.184532 0.168128 0.166667 0.583333 0 0.761904 0.151724 0.333333 0 0.333333 0.809524 0.714285 0.151724 0.151724 0 0.666667 0.5 0.0666667 0 
11 19 0.480976 0.264435 0.33223 0.333333 0.583333 0 0.809524 0.208276 0.333333 0.333333 0 0.809524 0.809524 0.264828 0.151724 0.0827585 0.666667 0.5 0.0666667 0 
12 12 0.531406 0.273347 0.317767 0.333333 0.555556 0.75 0.619048 0.222414 0.333333 0.333333 0 0.619048 0.619048 0.222414 0.222414 0 0.555556 0.555556 0 1 
12 13 0.388069 0.16228 0.158884 0.166667 0.597223 0.25 0.809524 0.146675 0.333333 0 0.333333 1 0.619048 0.222414 0.0709357 0.12931 0.638889 0.555556 0.03125 0 
12 14 0.641451 0.472247 0.49174 0.5 0.722223 0.375 0.564626 0.174216 0.666667 0.333333 0.277783 0.619048 0.510204 0.222414 0.126018 0.0738909 0.888889 0.555556 0.125 0 
12 15 0.265724 0.136674 0.163297 0.166667 0.680556 0.375 0.809524 0.111206 0.333333 0 0.333333 1 0.619048 0.222414 0 0.222413 0.805556 0.555556 0.09375 0 
12 16 0.531406 0.364919 0.494394 0.5 0.652777 0.375 0.564626 0.20882 0.666667 0.333333 0.277783 0.619048 0.510204 0.222414 0.195225 0.0184717 0.75 0.555556 0.0729167 0 
12 17 0.480976 0.296221 0.493559 0.5 0.652777 0.125 0.632652 0.20882 0.666667 0.333333 0.277783 0.646259 0.619048 0.222414 0.195225 0.0184717 0.75 0.555556 0.0729167 0 
12 18 0.345182 0.160789 0.165146 0.166667 0.527777 0.125 0.666667 0.187069 0.333333 0 0.333333 0.714285 0.619048 0.222414 0.151724 0.0517241 0.555556 0.5 0.0222233 0 
12 19 0.480976 0.240681 0.329248 0.333333 0.527777 0.125 0.714285 0.243621 0.333333 0.333333 0 0.809524 0.619048 0.264828 0.222414 0.0275875 0.555556 0.5 0.0222233 0 
13 13 0.244731 0.0512131 0 0 0.638889 0.625 1 0.0709357 0 0 0 1 1 0.0709357 0.0709357 0 0.638889 0.638889 0 1 
13 14 0.498114 0.36118 0.332856 0.333333 0.763889 0.5 0.755102 0.0984778 0.666667 0 0.666667 1 0.510204 0.126018 0.0709357 0.0470234 0.888889 0.638889 0.0857133 1 
13 15 0.122345 0.0256066 0.00441343 0 0.722223 0.25 1 0.0354678 0 0 0 1 1 0.0709357 0 0.0709365 0.805556 0.638889 0.0571433 1 
13 16 0.388069 0.253852 0.33551 0.333333 0.694444 0.25 0.755102 0.13308 0.666667 0 0.666667 1 0.510204 0.195225 0.0709357 0.106101 0.75 0.638889 0.0380967 1 
13 17 0.337638 0.185142 0.334675 0.333333 0.694444 0.5 0.823128 0.13308 0.666667 0 0.666667 1 0.646259 0.195225 0.0709357 0.106101 0.75 0.638889 0.0380967 1 
13 18 0.201845 0.0497221 0.0062623 0 0.569444 0.125 0.857143 0.111331 0 0 0 1 0.714285 0.151724 0.0709357 0.0689668 0.638889 0.5 0.0555567 1 
13 19 0.337638 0.129614 0.170364 0.166667 0.569444 0.125 0.904761 0.167882 0.333333 0 0.333333 1 0.809524 0.264828 0.0709357 0.165517 0.638889 0.5 0.0555567 1 
14 14 0.751497 0.671147 0.665712 0.666667 0.888889 0.875 0.510204 0.126018 0.666667 0.666667 0 0.510204 0.510204 0.126018 0.126018 0 0.888889 0.888889 0 1 
14 15 0.375769 0.335574 0.33727 0.333333 0.847223 0.375 0.755102 0.0630099 0.666667 0 0.666667 1 0.510204 0.126018 0 0.126021 0.888889 0.805556 0.02439 1 
14 16 0.641451 0.56383 0.668366 0.666667 0.819444 0.375 0.510204 0.160622 0.666667 0.666667 0 0.510204 0.510204 0.195225 0.126018 0.0530523 0.888889 0.75 0.0427367 1 
14 17 0.591021 0.49512 0.667531 0.666667 0.819444 0.375 0.578231 0.160622 0.666667 0.666667 0 0.646259 0.510204 0.195225 0.126018 0.0530523 0.888889 0.75 0.0427367 1 
14 18 0.455228 0.359689 0.339119 0.333333 0.694444 0.25 0.612245 0.138871 0.666667 0 0.666667 0.714285 0.510204 0.151724 0.126018 0.0197048 0.888889 0.5 0.155557 1 
14 19 0.591021 0.439581 0.503221 0.5 0.694444 0.25 0.659863 0.195423 0.666667 0.333333 0.277783 0.809524 0.510204 0.264828 0.126018 0.106403 0.888889 0.5 0.155557 1 
15 15 0 0 0.00882686 0 0.805556 0.625 1 0 0 0 0 1 1 0 0 0 0.805556 0.805556 0 1 
15 16 0.265724 0.228245 0.339924 0.333333 0.777777 0.375 0.755102 0.0976125 0.666667 0 0.666667 1 0.510204 0.195225 0 0.195223 0.805556 0.75 0.0170933 1 
15 17 0.215252 0.159547 0.339089 0.333333 0.777777 0.375 0.823128 0.0976125 0.666667 0 0.666667 1 0.646259 0.195225 0 0.195223 0.805556 0.75 0.0170933 1 
15 18 0.0794588 0.0241156 0.0106757 0 0.652777 0.125 0.857143 0.0758613 0 0 0 1 0.714285 0.151724 0 0.151725 0.805556 0.5 0.122223 1 
15 19 0.215252 0.104008 0.174778 0.166667 0.652777 0.375 0.904761 0.132413 0.333333 0 0.333333 1 0.809524 0.264828 0 0.264827 0.805556 0.5 0.122223 1 
16 16 0.531406 0.456502 0.67105 0.666667 0.75 0.875 0.510204 0.195225 0.666667 0.666667 0 0.510204 0.510204 0.195225 0.195225 0 0.75 0.75 0 1 
16 17 0.480976 0.387792 0.670185 0.666667 0.75 0.5 0.578231 0.195225 0.666667 0.666667 0 0.646259 0.510204 0.195225 0.195225 0 0.75 0.75 0 1 
16 18 0.345182 0.252361 0.341773 0.333333 0.625 0.625 0.612245 0.173475 0.666667 0 0.666667 0.714285 0.510204 0.195225 0.151724 0.0318289 0.75 0.5 0.1 1 
16 19 0.480976 0.332264 0.505875 0.5 0.625 0.375 0.659863 0.230027 0.666667 0.333333 0.277783 0.809524 0.510204 0.264828 0.195225 0.0472923 0.75 0.5 0.1 1 
17 17 0.430545 0.319082 0.669351 0.666667 0.75 0.875 0.646259 0.195225 0.666667 0.666667 0 0.646259 0.646259 0.195225 0.195225 0 0.75 0.75 0 1 
17 18 0.294752 0.183662 0.340938 0.333333 0.625 0.375 0.680272 0.173475 0.666667 0 0.666667 0.714285 0.646259 0.195225 0.151724 0.0318289 0.75 0.5 0.1 1 
17 19 0.430545 0.263554 0.50504 0.5 0.625 0.375 0.727891 0.230027 0.666667 0.333333 0.277783 0.809524 0.646259 0.264828 0.195225 0.0472923 0.75 0.5 0.1 1 
18 18 0.158959 0.0482311 0.0125246 0 0.5 0.625 0.714285 0.151724 0 0 0 0.714285 0.714285 0.151724 0.151724 0 0.5 0.5 0 1 
18 19 0.294752 0.128123 0.176627 0.166667 0.5 0.375 0.761904 0.208276 0.333333 0 0.333333 0.809524 0.714285 0.264828 0.151724 0.0827585 0.5 0.5 0 1 
19 19 0.430545 0.208015 0.340729 0.333333 0.5 0.75 0.809524 0.264828 0.333333 0.333333 0 0.809524 0.809524 0.264828 0.264828 0 0.5 0.5 0 1 
